Date,HomeTeam,AwayTeam,FTHG,FTAG,HTHG,HTAG,BbAvH,BbAvD,BbAvA,HomeId,AwayId
17/08/13,Sociedad,Getafe,2,0,1,0,1.75,3.54,4.8,457,1860
17/08/13,Valencia,Malaga,1,0,0,0,1.54,3.95,6.1,461,573
17/08/13,Valladolid,Ath Bilbao,1,2,1,1,2.56,3.26,2.73,462,448
18/08/13,Barcelona,Levante,7,0,6,0,1.08,10.55,24,241,1853
18/08/13,Osasuna,Granada,1,2,0,2,2.06,3.29,3.66,479,110832
18/08/13,Real Madrid,Betis,2,1,1,1,1.15,7.45,16.22,243,449
18/08/13,Sevilla,Ath Madrid,1,3,1,1,2.73,3.27,2.55,481,240
19/08/13,Almeria,Villarreal,2,3,1,0,2.55,3.22,2.77,1861,483
19/08/13,Celta,Espanol,2,2,1,0,2.19,3.24,3.33,450,452
19/08/13,Vallecano,Elche,3,0,2,0,2.22,3.26,3.21,480,468
23/08/13,Ath Bilbao,Osasuna,2,0,1,0,1.7,3.65,5.09,448,479
23/08/13,Getafe,Almeria,2,2,1,2,1.86,3.49,4.29,1860,1861
24/08/13,Elche,Sociedad,1,1,1,0,3.21,3.35,2.21,468,457
24/08/13,Espanol,Valencia,3,1,1,1,3.06,3.27,2.33,452,461
24/08/13,Villarreal,Valladolid,2,1,1,1,1.86,3.47,4.23,483,462
25/08/13,Ath Madrid,Vallecano,5,0,3,0,1.31,5.17,9.84,240,480
25/08/13,Betis,Celta,1,2,0,0,1.79,3.57,4.51,449,450
25/08/13,Levante,Sevilla,0,0,0,0,3.32,3.32,2.17,1853,481
25/08/13,Malaga,Barcelona,0,1,0,1,12.51,6.25,1.22,573,241
26/08/13,Granada,Real Madrid,0,1,0,1,8.4,5.28,1.33,110832,243
30/08/13,Almeria,Elche,2,2,2,1,2.04,3.4,3.65,1861,468
30/08/13,Vallecano,Levante,1,2,0,1,1.8,3.56,4.48,480,1853
31/08/13,Celta,Granada,1,1,1,0,2.19,3.29,3.32,450,110832
31/08/13,Osasuna,Villarreal,0,3,0,2,2.56,3.21,2.77,479,483
31/08/13,Valladolid,Getafe,1,0,0,0,2.16,3.28,3.38,462,1860
01/09/13,Espanol,Betis,0,0,0,0,2.03,3.43,3.6,452,449
01/09/13,Real Madrid,Ath Bilbao,3,1,2,0,1.17,7.32,14.73,243,448
01/09/13,Sevilla,Malaga,2,2,1,1,1.61,3.76,5.72,481,573
01/09/13,Sociedad,Ath Madrid,1,2,0,1,2.81,3.27,2.49,457,240
01/09/13,Valencia,Barcelona,2,3,2,3,5.9,4.15,1.53,461,241
14/09/13,Ath Madrid,Almeria,4,2,2,1,1.26,5.61,11.5,240,1861
14/09/13,Barcelona,Sevilla,3,2,1,0,1.17,7.4,14.19,241,481
14/09/13,Levante,Sociedad,0,0,0,0,3.08,3.27,2.32,1853,457
14/09/13,Villarreal,Real Madrid,2,2,1,1,5.54,4.06,1.58,483,243
15/09/13,Betis,Valencia,3,1,3,0,2.67,3.26,2.62,449,461
15/09/13,Getafe,Osasuna,2,1,1,1,2,3.34,3.81,1860,479
15/09/13,Granada,Espanol,0,1,0,0,2.37,3.23,3.03,110832,452
15/09/13,Malaga,Vallecano,5,0,2,0,1.95,3.45,3.85,573,480
16/09/13,Ath Bilbao,Celta,3,2,1,1,1.69,3.68,4.94,448,450
16/09/13,Elche,Valladolid,0,0,0,0,2.25,3.24,3.23,468,462
20/09/13,Osasuna,Elche,2,1,1,0,2,3.34,3.88,479,468
21/09/13,Almeria,Levante,2,2,1,0,1.9,3.42,4.06,1861,1853
21/09/13,Sociedad,Malaga,0,0,0,0,1.93,3.47,3.9,457,573
21/09/13,Valladolid,Ath Madrid,0,2,0,0,5.32,3.65,1.66,462,240
21/09/13,Vallecano,Barcelona,0,4,0,1,13.79,6.77,1.19,480,241
22/09/13,Betis,Granada,0,0,0,0,1.72,3.61,4.8,449,110832
22/09/13,Celta,Villarreal,0,0,0,0,2.72,3.32,2.52,450,483
22/09/13,Real Madrid,Getafe,4,1,2,1,1.12,8.94,19.3,243,1860
22/09/13,Valencia,Sevilla,3,1,1,0,1.86,3.55,3.97,461,481
23/09/13,Espanol,Ath Bilbao,3,2,1,1,2.34,3.29,2.97,452,448
24/09/13,Ath Madrid,Osasuna,2,1,2,1,1.21,6.39,14.5,240,479
24/09/13,Barcelona,Sociedad,4,1,3,0,1.13,8.8,18.44,241,457
24/09/13,Levante,Valladolid,1,1,1,1,2.16,3.26,3.48,1853,462
24/09/13,Malaga,Almeria,2,0,0,0,1.67,3.79,5.2,573,1861
25/09/13,Elche,Real Madrid,1,2,0,0,9.96,5.65,1.28,468,243
25/09/13,Granada,Valencia,0,1,0,0,3.13,3.26,2.3,110832,461
25/09/13,Sevilla,Vallecano,4,1,1,0,1.47,4.32,6.65,481,480
26/09/13,Ath Bilbao,Betis,2,1,0,0,1.96,3.46,3.79,448,449
26/09/13,Getafe,Celta,2,0,1,0,2.14,3.3,3.41,1860,450
26/09/13,Villarreal,Espanol,2,1,1,0,1.72,3.61,4.94,483,452
27/09/13,Valladolid,Malaga,2,2,0,1,2.87,3.25,2.49,462,573
28/09/13,Almeria,Barcelona,0,2,0,1,14.69,7.31,1.17,1861,241
28/09/13,Real Madrid,Ath Madrid,0,1,0,1,1.65,3.84,5.03,243,240
28/09/13,Sociedad,Sevilla,1,1,0,1,2.17,3.36,3.26,457,481
28/09/13,Valencia,Vallecano,1,0,1,0,1.32,5.25,8.92,461,480
29/09/13,Betis,Villarreal,1,0,1,0,2.47,3.29,2.8,449,483
29/09/13,Celta,Elche,0,1,0,0,1.92,3.4,4,450,468
29/09/13,Espanol,Getafe,0,2,0,0,1.75,3.53,4.7,452,1860
29/09/13,Osasuna,Levante,0,1,0,0,2.1,3.25,3.55,479,1853
30/09/13,Granada,Ath Bilbao,2,0,0,0,2.71,3.23,2.54,110832,448
04/10/13,Malaga,Osasuna,0,1,0,1,1.55,3.95,6.24,573,479
04/10/13,Villarreal,Granada,3,0,1,0,1.48,4.17,7.04,483,110832
05/10/13,Barcelona,Valladolid,4,1,1,1,1.11,9.09,23.19,241,462
05/10/13,Elche,Espanol,2,1,1,0,2.52,3.23,2.84,468,452
05/10/13,Levante,Real Madrid,2,3,0,0,8.94,5.1,1.33,1853,243
05/10/13,Vallecano,Sociedad,1,0,0,0,2.89,3.37,2.39,480,457
06/10/13,Ath Bilbao,Valencia,1,1,0,1,2.11,3.43,3.36,448,461
06/10/13,Ath Madrid,Celta,2,1,1,0,1.22,6,13.7,240,450
06/10/13,Getafe,Betis,3,1,3,0,2.43,3.23,2.88,1860,449
06/10/13,Sevilla,Almeria,2,1,1,1,1.5,4.25,6.25,481,1861
19/10/13,Espanol,Ath Madrid,1,0,0,0,4.89,3.57,1.74,452,240
19/10/13,Osasuna,Barcelona,0,0,0,0,12.17,6.02,1.23,479,241
19/10/13,Real Madrid,Malaga,2,0,0,0,1.2,6.78,12.73,243,573
19/10/13,Valencia,Sociedad,1,2,0,1,1.76,3.61,4.62,461,457
20/10/13,Almeria,Vallecano,0,1,0,0,1.95,3.48,3.83,1861,480
20/10/13,Betis,Elche,1,2,1,2,1.75,3.54,4.81,449,468
20/10/13,Granada,Getafe,0,2,0,0,2.14,3.28,3.47,110832,1860
20/10/13,Valladolid,Sevilla,2,2,0,2,2.9,3.33,2.41,462,481
21/10/13,Ath Bilbao,Villarreal,2,0,2,0,2.2,3.34,3.23,448,483
21/10/13,Celta,Levante,0,1,0,0,2.04,3.31,3.65,450,1853
25/10/13,Vallecano,Valladolid,0,3,0,2,2.03,3.38,3.66,480,462
26/10/13,Barcelona,Real Madrid,2,1,1,0,1.78,3.78,4.28,241,243
26/10/13,Elche,Granada,0,1,0,1,1.93,3.38,4.01,468,110832
26/10/13,Levante,Espanol,3,0,2,0,2.44,3.17,2.96,1853,452
26/10/13,Malaga,Celta,0,5,0,2,1.71,3.65,4.9,573,450
27/10/13,Ath Madrid,Betis,5,0,1,0,1.27,5.37,11.2,240,449
27/10/13,Sevilla,Osasuna,2,1,0,0,1.51,4,6.5,481,479
27/10/13,Sociedad,Almeria,3,0,1,0,1.56,3.99,5.8,457,1861
27/10/13,Villarreal,Valencia,4,1,2,0,1.99,3.45,3.62,483,461
28/10/13,Getafe,Ath Bilbao,0,1,0,1,2.63,3.23,2.64,1860,448
29/10/13,Celta,Barcelona,0,3,0,1,11.15,5.69,1.26,450,241
29/10/13,Espanol,Malaga,0,0,0,0,1.94,3.4,4,452,573
30/10/13,Osasuna,Vallecano,3,1,2,0,2.08,3.33,3.48,479,480
30/10/13,Real Madrid,Sevilla,7,3,3,2,1.2,6.5,13.1,243,481
30/10/13,Valencia,Almeria,1,2,1,0,1.41,4.51,7.1,461,1861
30/10/13,Valladolid,Sociedad,2,2,0,1,2.77,3.23,2.52,462,457
31/10/13,Ath Bilbao,Elche,2,2,0,1,1.64,3.74,5.34,448,468
31/10/13,Betis,Levante,0,0,0,0,1.82,3.49,4.36,449,1853
31/10/13,Granada,Ath Madrid,1,2,0,1,6.34,3.89,1.54,110832,240
31/10/13,Villarreal,Getafe,0,2,0,1,1.49,4.08,6.7,483,1860
01/11/13,Barcelona,Espanol,1,0,0,0,1.1,10.06,22.55,241,452
02/11/13,Almeria,Valladolid,1,0,1,0,2.19,3.3,3.32,1861,462
02/11/13,Sevilla,Celta,0,1,0,0,1.54,4.11,5.99,481,450
02/11/13,Sociedad,Osasuna,5,0,1,0,1.59,3.81,5.82,457,479
02/11/13,Vallecano,Real Madrid,2,3,0,2,10.8,5.64,1.27,480,243
03/11/13,Ath Madrid,Ath Bilbao,2,0,2,0,1.32,4.92,9.67,240,448
03/11/13,Getafe,Valencia,0,1,0,1,2.58,3.26,2.72,1860,461
03/11/13,Levante,Granada,0,1,0,0,2.03,3.3,3.7,1853,110832
03/11/13,Malaga,Betis,3,2,1,1,2.04,3.36,3.65,573,449
04/11/13,Elche,Villarreal,0,1,0,0,3.32,3.28,2.2,468,483
08/11/13,Granada,Malaga,3,1,0,0,2.26,3.26,3.27,110832,573
08/11/13,Osasuna,Almeria,0,1,0,1,2.12,3.31,3.51,479,1861
09/11/13,Ath Bilbao,Levante,2,1,0,1,1.53,3.95,6.36,448,1853
09/11/13,Celta,Vallecano,0,2,0,1,1.92,3.46,3.96,450,480
09/11/13,Getafe,Elche,1,1,1,0,2.03,3.28,3.77,1860,468
09/11/13,Real Madrid,Sociedad,5,1,4,0,1.16,7.57,14.83,243,457
10/11/13,Betis,Barcelona,1,4,0,2,10.87,5.85,1.26,449,241
10/11/13,Espanol,Sevilla,1,3,1,2,2.36,3.26,3.03,452,481
10/11/13,Valencia,Valladolid,2,2,1,1,1.54,4,6.13,461,462
10/11/13,Villarreal,Ath Madrid,1,1,0,1,3.65,3.31,2.07,483,240
22/11/13,Valladolid,Osasuna,0,1,0,0,2.01,3.34,3.86,462,479
23/11/13,Almeria,Real Madrid,0,5,0,1,9.45,5.47,1.3,1861,243
23/11/13,Ath Madrid,Getafe,7,0,2,0,1.25,5.68,11.86,240,1860
23/11/13,Barcelona,Granada,4,0,2,0,1.13,8.13,19.2,241,110832
23/11/13,Sociedad,Celta,4,3,1,2,1.71,3.65,4.88,457,450
24/11/13,Elche,Valencia,2,1,0,0,2.92,3.21,2.46,468,461
24/11/13,Levante,Villarreal,0,3,0,1,3.47,3.29,2.13,1853,483
24/11/13,Sevilla,Betis,4,0,2,0,1.72,3.76,4.69,481,449
24/11/13,Vallecano,Espanol,1,4,0,1,2.45,3.26,2.88,480,452
25/11/13,Malaga,Ath Bilbao,1,2,1,0,2.53,3.29,2.74,573,448
29/11/13,Getafe,Levante,1,0,0,0,1.88,3.42,4.29,1860,1853
29/11/13,Villarreal,Malaga,1,1,1,0,1.48,4.18,7.05,483,573
30/11/13,Celta,Almeria,3,1,1,1,1.91,3.4,4.1,450,1861
30/11/13,Elche,Ath Madrid,0,2,0,0,6.86,3.96,1.51,468,240
30/11/13,Espanol,Sociedad,1,2,1,0,2.24,3.3,3.2,452,457
30/11/13,Real Madrid,Valladolid,4,0,2,0,1.13,8.57,17.98,243,462
01/12/13,Ath Bilbao,Barcelona,1,0,0,0,5.32,3.99,1.61,448,241
01/12/13,Betis,Vallecano,2,2,1,0,1.93,3.44,3.92,449,480
01/12/13,Granada,Sevilla,1,2,0,1,2.86,3.24,2.48,110832,481
01/12/13,Valencia,Osasuna,3,0,1,0,1.44,4.28,7.2,461,479
13/12/13,Levante,Elche,2,1,1,1,2.3,3.18,3.27,1853,468
14/12/13,Barcelona,Villarreal,2,1,1,0,1.29,5.59,9.63,241,483
14/12/13,Malaga,Getafe,1,0,0,0,1.99,3.4,3.82,573,1860
14/12/13,Osasuna,Real Madrid,2,2,2,1,11.53,6.17,1.24,479,243
14/12/13,Vallecano,Granada,0,2,0,1,2.03,3.37,3.72,480,110832
15/12/13,Almeria,Espanol,0,0,0,0,2.64,3.19,2.72,1861,452
15/12/13,Ath Madrid,Valencia,3,0,0,0,1.36,4.8,8.8,240,461
15/12/13,Sevilla,Ath Bilbao,1,1,1,1,2.01,3.45,3.68,481,448
15/12/13,Sociedad,Betis,5,1,1,1,1.74,3.69,4.66,457,449
16/12/13,Valladolid,Celta,3,0,0,0,2.37,3.25,2.99,462,450
20/12/13,Elche,Malaga,0,1,0,1,2.37,3.21,3.11,468,573
21/12/13,Ath Madrid,Levante,3,2,1,1,1.15,7.58,18.39,240,1853
21/12/13,Betis,Almeria,0,1,0,1,1.72,3.7,4.83,449,1861
21/12/13,Granada,Sociedad,1,3,1,2,2.55,3.26,2.79,110832,457
21/12/13,Villarreal,Sevilla,1,2,0,1,1.86,3.57,4.13,483,481
22/12/13,Ath Bilbao,Vallecano,2,1,1,0,1.47,4.28,6.85,448,480
22/12/13,Celta,Osasuna,1,1,1,1,1.83,3.5,4.36,450,479
22/12/13,Espanol,Valladolid,4,2,2,0,1.77,3.53,4.75,452,462
22/12/13,Getafe,Barcelona,2,5,2,3,7.66,4.55,1.41,1860,241
22/12/13,Valencia,Real Madrid,2,3,1,2,5.33,4.06,1.6,461,243
04/01/14,Almeria,Granada,3,0,2,0,2.39,3.21,3.04,1861,110832
04/01/14,Malaga,Ath Madrid,0,1,0,0,6.69,3.91,1.54,573,240
04/01/14,Valencia,Levante,2,0,1,0,1.47,4.2,7.13,461,1853
04/01/14,Valladolid,Betis,0,0,0,0,2.36,3.26,3.05,462,449
05/01/14,Barcelona,Elche,4,0,2,0,1.08,11.02,25.55,241,468
05/01/14,Osasuna,Espanol,1,0,1,0,2.41,3.2,3.03,479,452
05/01/14,Sevilla,Getafe,3,0,1,0,1.55,3.97,6.08,481,1860
05/01/14,Sociedad,Ath Bilbao,2,0,1,0,2.19,3.37,3.28,457,448
06/01/14,Real Madrid,Celta,3,0,0,0,1.1,10.08,22.77,243,450
06/01/14,Vallecano,Villarreal,2,5,0,3,3.45,3.38,2.11,480,483
10/01/14,Granada,Valladolid,4,0,2,0,2.02,3.31,3.91,110832,462
11/01/14,Ath Bilbao,Almeria,6,1,3,1,1.4,4.6,8.05,448,1861
11/01/14,Ath Madrid,Barcelona,0,0,0,0,3.25,3.41,2.2,240,241
11/01/14,Celta,Valencia,2,1,0,1,3,3.31,2.38,450,461
11/01/14,Elche,Sevilla,1,1,0,0,3.41,3.36,2.15,468,481
12/01/14,Betis,Osasuna,1,2,0,1,1.8,3.52,4.58,449,479
12/01/14,Espanol,Real Madrid,0,1,0,0,8.18,5.16,1.35,452,243
12/01/14,Getafe,Vallecano,0,1,0,1,2.02,3.43,3.69,1860,480
12/01/14,Levante,Malaga,1,0,1,0,2.55,3.22,2.83,1853,573
13/01/14,Villarreal,Sociedad,5,1,3,0,1.94,3.44,3.94,483,457
17/01/14,Malaga,Valencia,0,0,0,0,2.71,3.25,2.67,573,461
18/01/14,Betis,Real Madrid,0,5,0,3,9.77,5.74,1.28,449,243
18/01/14,Elche,Vallecano,2,0,1,0,2.31,3.25,3.16,468,480
18/01/14,Espanol,Celta,1,0,0,0,1.98,3.37,3.93,452,450
18/01/14,Granada,Osasuna,0,0,0,0,1.99,3.27,4.03,110832,479
19/01/14,Ath Madrid,Sevilla,1,1,1,0,1.35,4.82,9.19,240,481
19/01/14,Getafe,Sociedad,2,2,1,2,3.04,3.34,2.31,1860,457
19/01/14,Levante,Barcelona,1,1,1,1,15.04,6.97,1.18,1853,241
19/01/14,Villarreal,Almeria,2,0,1,0,1.33,4.85,9.75,483,1861
20/01/14,Ath Bilbao,Valladolid,4,2,0,1,1.36,4.67,8.89,448,462
24/01/14,Celta,Betis,4,2,3,1,2.04,3.38,3.74,450,449
25/01/14,Real Madrid,Granada,2,0,0,0,1.07,11.7,29.63,243,110832
25/01/14,Sevilla,Levante,2,3,1,1,1.36,4.69,8.87,481,1853
25/01/14,Valencia,Espanol,2,2,2,2,1.58,3.86,6.01,461,452
25/01/14,Valladolid,Villarreal,1,0,1,0,3.91,3.43,1.95,462,483
26/01/14,Almeria,Getafe,1,0,0,0,2.36,3.26,3.05,1861,1860
26/01/14,Barcelona,Malaga,3,0,1,0,1.08,10.3,25.36,241,573
26/01/14,Osasuna,Ath Bilbao,1,5,1,2,3.35,3.27,2.19,479,448
26/01/14,Vallecano,Ath Madrid,2,4,1,3,8.18,4.47,1.4,480,240
27/01/14,Sociedad,Elche,4,0,2,0,1.5,4.2,6.39,457,468
31/01/14,Granada,Celta,1,2,1,1,2.11,3.36,3.55,110832,450
01/02/14,Barcelona,Valencia,2,3,1,1,1.13,8.19,19.86,241,461
01/02/14,Getafe,Valladolid,0,0,0,0,1.97,3.35,3.96,1860,462
01/02/14,Levante,Vallecano,0,0,0,0,2.16,3.33,3.38,1853,480
01/02/14,Malaga,Sevilla,3,2,1,0,2.9,3.3,2.44,573,481
02/02/14,Ath Bilbao,Real Madrid,1,1,0,0,5.11,3.92,1.65,448,243
02/02/14,Ath Madrid,Sociedad,4,0,1,0,1.32,4.98,10.2,240,457
02/02/14,Betis,Espanol,2,0,0,0,2.29,3.26,3.18,449,452
02/02/14,Elche,Almeria,1,0,0,0,1.95,3.34,4.05,468,1861
03/02/14,Villarreal,Osasuna,3,1,0,0,1.37,4.58,9.11,483,479
07/02/14,Espanol,Granada,1,0,0,0,1.81,3.49,4.73,452,110832
08/02/14,Almeria,Ath Madrid,2,0,0,0,10.45,5.21,1.3,1861,240
08/02/14,Real Madrid,Villarreal,4,2,2,1,1.35,5.03,8.53,243,483
08/02/14,Valencia,Betis,5,0,2,0,1.47,4.28,7.19,461,449
08/02/14,Vallecano,Malaga,4,1,3,0,2.43,3.3,2.92,480,573
09/02/14,Osasuna,Getafe,2,0,1,0,2.16,3.21,3.51,479,1860
09/02/14,Sevilla,Barcelona,1,4,1,2,5.88,4.16,1.55,481,241
09/02/14,Sociedad,Levante,0,0,0,0,1.45,4.28,7.6,457,1853
09/02/14,Valladolid,Elche,2,2,0,1,2.14,3.2,3.62,462,468
10/02/14,Celta,Ath Bilbao,0,0,0,0,3.21,3.3,2.25,450,448
14/02/14,Elche,Osasuna,0,0,0,0,2.16,3.23,3.57,468,479
15/02/14,Ath Madrid,Valladolid,3,0,2,0,1.19,6.67,15.63,240,462
15/02/14,Barcelona,Vallecano,6,0,2,0,1.07,11.79,29.57,241,480
15/02/14,Levante,Almeria,1,0,0,0,2.03,3.24,3.89,1853,1861
15/02/14,Villarreal,Celta,0,2,0,0,1.54,4.04,6.24,483,450
16/02/14,Ath Bilbao,Espanol,1,2,0,1,1.59,3.93,5.68,448,452
16/02/14,Getafe,Real Madrid,0,3,0,2,10.57,5.59,1.28,1860,243
16/02/14,Granada,Betis,1,0,1,0,2.17,3.29,3.4,110832,449
16/02/14,Sevilla,Valencia,0,0,0,0,2.07,3.49,3.47,481,461
17/02/14,Malaga,Sociedad,0,1,0,1,2.68,3.22,2.67,573,457
21/02/14,Valladolid,Levante,1,1,0,1,2.12,3.22,3.73,462,1853
22/02/14,Almeria,Malaga,0,0,0,0,2.57,3.18,2.8,1861,573
22/02/14,Celta,Getafe,1,1,0,1,1.76,3.6,4.75,450,1860
22/02/14,Real Madrid,Elche,3,0,1,0,1.08,11.09,27.83,243,468
22/02/14,Sociedad,Barcelona,3,1,1,1,7.79,4.9,1.37,457,241
23/02/14,Betis,Ath Bilbao,0,2,0,1,3.02,3.31,2.34,449,448
23/02/14,Osasuna,Ath Madrid,3,0,3,0,7.07,3.95,1.5,479,240
23/02/14,Valencia,Granada,2,1,0,0,1.5,4.11,6.65,461,110832
23/02/14,Vallecano,Sevilla,0,1,0,0,3.17,3.37,2.22,480,481
24/02/14,Espanol,Villarreal,1,2,0,1,2.54,3.17,2.86,452,483
28/02/14,Ath Bilbao,Granada,4,0,2,0,1.4,4.59,8.26,448,110832
01/03/14,Elche,Celta,1,0,0,0,2.47,3.17,2.97,468,450
01/03/14,Getafe,Espanol,0,0,0,0,2.59,3.19,2.81,1860,452
01/03/14,Levante,Osasuna,2,0,2,0,2.34,3.15,3.22,1853,479
01/03/14,Malaga,Valladolid,1,1,1,1,1.84,3.42,4.54,573,462
02/03/14,Ath Madrid,Real Madrid,2,2,2,1,3.58,3.38,2.08,240,243
02/03/14,Barcelona,Almeria,4,1,2,1,1.05,13.3,35.67,241,1861
02/03/14,Sevilla,Sociedad,1,0,0,0,1.96,3.58,3.76,481,457
02/03/14,Vallecano,Valencia,1,0,0,0,3.33,3.4,2.16,480,461
02/03/14,Villarreal,Betis,1,1,0,0,1.38,4.67,8.55,483,449
08/03/14,Betis,Getafe,2,0,2,0,1.9,3.46,4.06,449,1860
08/03/14,Celta,Ath Madrid,0,2,0,0,4.23,3.39,1.89,450,240
08/03/14,Granada,Villarreal,2,0,2,0,3.17,3.28,2.29,110832,483
08/03/14,Valladolid,Barcelona,1,0,1,0,14.02,6.61,1.2,462,241
09/03/14,Almeria,Sevilla,1,3,0,1,3.61,3.35,2.07,1861,481
09/03/14,Espanol,Elche,3,1,2,0,1.75,3.5,4.94,452,468
09/03/14,Real Madrid,Levante,3,0,1,0,1.06,12.87,32.47,243,1853
09/03/14,Valencia,Ath Bilbao,1,1,1,0,2.23,3.37,3.21,461,448
10/03/14,Osasuna,Malaga,0,2,0,1,2.28,3.2,3.23,479,573
10/03/14,Sociedad,Vallecano,2,3,2,1,1.47,4.42,6.41,457,480
14/03/14,Getafe,Granada,3,3,2,1,2.13,3.23,3.66,1860,110832
15/03/14,Ath Madrid,Espanol,1,0,0,0,1.3,5.22,10.6,240,452
15/03/14,Levante,Celta,0,1,0,1,2.48,3.16,2.96,1853,450
15/03/14,Malaga,Real Madrid,0,1,0,1,10.88,5.95,1.26,573,243
15/03/14,Vallecano,Almeria,3,1,1,0,1.84,3.51,4.36,480,1861
16/03/14,Barcelona,Osasuna,7,0,3,0,1.06,13.03,36.25,241,479
16/03/14,Elche,Betis,0,0,0,0,2.35,3.2,3.14,468,449
16/03/14,Sevilla,Valladolid,4,1,2,0,1.44,4.5,7.12,481,462
16/03/14,Sociedad,Valencia,1,0,0,0,2.09,3.41,3.49,457,461
17/03/14,Villarreal,Ath Bilbao,1,1,0,0,2.25,3.29,3.2,483,448
21/03/14,Celta,Malaga,0,2,0,2,2.02,3.35,3.85,450,573
22/03/14,Ath Bilbao,Getafe,1,0,1,0,1.36,4.87,8.86,448,1860
22/03/14,Espanol,Levante,0,0,0,0,1.68,3.55,5.64,452,1853
22/03/14,Granada,Elche,1,0,0,0,2.03,3.24,3.9,110832,468
22/03/14,Valladolid,Vallecano,1,1,1,1,2.37,3.26,3.05,462,480
23/03/14,Betis,Ath Madrid,0,2,0,0,6.18,3.8,1.58,449,240
23/03/14,Osasuna,Sevilla,1,2,0,2,2.99,3.29,2.38,479,481
23/03/14,Real Madrid,Barcelona,3,4,2,2,2.2,3.48,3.2,243,241
23/03/14,Valencia,Villarreal,2,1,2,0,2.07,3.36,3.59,461,483
24/03/14,Almeria,Sociedad,4,3,1,1,3.36,3.33,2.17,1861,457
25/03/14,Elche,Ath Bilbao,0,0,0,0,4.14,3.4,1.93,468,448
25/03/14,Malaga,Espanol,1,2,1,1,2.46,3.18,3.01,573,452
26/03/14,Ath Madrid,Granada,1,0,0,0,1.2,6.29,15.97,240,110832
26/03/14,Barcelona,Celta,3,0,2,0,1.05,14.08,35.58,241,450
26/03/14,Sevilla,Real Madrid,2,1,1,1,5.6,4.35,1.54,481,243
26/03/14,Vallecano,Osasuna,1,0,0,0,1.89,3.49,4.12,480,479
27/03/14,Almeria,Valencia,2,2,0,2,3.71,3.45,2.01,1861,461
27/03/14,Getafe,Villarreal,0,1,0,1,3.33,3.29,2.21,1860,483
27/03/14,Levante,Betis,1,3,1,1,2.4,3.22,3.02,1853,449
27/03/14,Sociedad,Valladolid,1,0,1,0,1.46,4.24,7.32,457,462
29/03/14,Ath Bilbao,Ath Madrid,1,2,1,1,3.02,3.23,2.4,448,240
29/03/14,Celta,Sevilla,1,0,0,0,3.01,3.26,2.39,450,481
29/03/14,Espanol,Barcelona,0,1,0,0,8.77,5.16,1.34,452,241
29/03/14,Real Madrid,Vallecano,5,0,1,0,1.05,12.79,30.63,243,480
30/03/14,Osasuna,Sociedad,1,1,0,1,3.03,3.25,2.38,479,457
30/03/14,Valencia,Getafe,1,3,1,2,1.42,4.39,8.01,461,1860
30/03/14,Valladolid,Almeria,1,0,1,0,1.91,3.37,4.16,462,1861
30/03/14,Villarreal,Elche,1,1,1,1,1.46,4.19,7.35,483,468
31/03/14,Betis,Malaga,1,2,1,0,2.18,3.29,3.38,449,573
31/03/14,Granada,Levante,0,2,0,0,1.87,3.39,4.35,110832,1853
04/04/14,Almeria,Osasuna,1,2,0,2,2.28,3.2,3.32,1861,479
05/04/14,Ath Madrid,Villarreal,1,0,1,0,1.51,3.99,6.91,240,483
05/04/14,Barcelona,Betis,3,1,1,0,1.05,14.09,30.98,241,449
05/04/14,Sociedad,Real Madrid,0,4,0,1,5.42,4.19,1.58,457,243
05/04/14,Vallecano,Celta,3,0,1,0,2.18,3.34,3.34,480,450
06/04/14,Elche,Getafe,1,0,0,0,2.11,3.16,3.72,468,1860
06/04/14,Malaga,Granada,4,1,2,0,2.03,3.32,3.78,573,110832
06/04/14,Sevilla,Espanol,4,1,2,0,1.71,3.64,5.03,481,452
06/04/14,Valladolid,Valencia,0,0,0,0,2.92,3.24,2.44,462,461
07/04/14,Levante,Ath Bilbao,1,2,0,2,3.95,3.38,1.96,1853,448
11/04/14,Osasuna,Valladolid,0,0,0,0,2.03,3.32,3.86,479,462
12/04/14,Celta,Sociedad,2,2,1,2,2.42,3.31,2.93,450,457
12/04/14,Granada,Barcelona,1,0,1,0,10.29,6.16,1.26,110832,241
12/04/14,Real Madrid,Almeria,4,0,1,0,1.05,14.37,33.57,243,1861
12/04/14,Villarreal,Levante,1,0,0,0,1.46,4.1,7.8,483,1853
13/04/14,Betis,Sevilla,0,2,0,1,3.27,3.46,2.16,449,481
13/04/14,Espanol,Vallecano,2,2,1,1,1.81,3.61,4.43,452,480
13/04/14,Getafe,Ath Madrid,0,2,0,1,7.93,4.12,1.45,1860,240
13/04/14,Valencia,Elche,2,1,1,1,1.61,3.81,5.79,461,468
14/04/14,Ath Bilbao,Malaga,3,0,1,0,1.44,4.29,7.64,448,573
18/04/14,Ath Madrid,Elche,2,0,0,0,1.21,6,16.15,240,468
19/04/14,Levante,Getafe,0,0,0,0,2.44,3.13,3,1853,1860
19/04/14,Osasuna,Valencia,1,1,1,0,2.67,3.16,2.68,479,461
19/04/14,Sociedad,Espanol,2,1,1,1,1.73,3.63,4.74,457,452
20/04/14,Almeria,Celta,2,4,1,1,2.54,3.23,2.8,1861,450
20/04/14,Barcelona,Ath Bilbao,2,1,0,0,1.23,6.33,11.38,241,448
20/04/14,Sevilla,Granada,4,0,1,0,1.4,4.52,8.23,481,110832
20/04/14,Vallecano,Betis,3,1,2,0,2.01,3.45,3.64,480,449
21/04/14,Malaga,Villarreal,2,0,1,0,2.84,3.21,2.51,573,483
25/04/14,Elche,Levante,1,1,0,0,1.68,3.6,5.5,468,1853
26/04/14,Betis,Sociedad,0,1,0,0,3.16,3.45,2.2,449,457
26/04/14,Getafe,Malaga,1,0,1,0,2.1,3.31,3.56,1860,573
26/04/14,Granada,Vallecano,0,3,0,0,2.21,3.35,3.23,110832,480
26/04/14,Real Madrid,Osasuna,4,0,1,0,1.06,13.74,30,243,479
27/04/14,Ath Bilbao,Sevilla,3,1,1,0,1.92,3.52,3.91,448,481
27/04/14,Espanol,Almeria,1,2,1,0,1.65,3.8,5.18,452,1861
27/04/14,Valencia,Ath Madrid,0,1,0,1,4.45,3.59,1.79,461,240
27/04/14,Villarreal,Barcelona,2,3,1,0,6.63,4.49,1.46,483,241
28/04/14,Celta,Valladolid,4,1,2,0,1.82,3.56,4.32,450,462
02/05/14,Vallecano,Ath Bilbao,0,3,0,2,3.76,3.61,1.95,480,448
03/05/14,Barcelona,Getafe,2,2,1,1,1.06,12.09,30.07,241,1860
03/05/14,Malaga,Elche,0,1,0,1,2.22,3.27,3.29,573,468
03/05/14,Osasuna,Celta,0,2,0,2,1.9,3.51,4.04,479,450
03/05/14,Valladolid,Espanol,1,0,1,0,1.99,3.39,3.84,462,452
04/05/14,Almeria,Betis,3,2,0,0,1.58,3.98,5.58,1861,449
04/05/14,Levante,Ath Madrid,2,0,1,0,14.22,5.47,1.23,1853,240
04/05/14,Real Madrid,Valencia,2,2,0,1,1.13,8.17,17.1,243,461
04/05/14,Sevilla,Villarreal,0,0,0,0,1.76,3.68,4.49,481,483
05/05/14,Sociedad,Granada,1,1,0,0,1.44,4.41,7.16,457,110832
07/05/14,Valladolid,Real Madrid,1,1,0,1,12.19,6.84,1.21,462,243
10/05/14,Levante,Valencia,2,0,0,0,3.34,3.33,2.18,1853,461
10/05/14,Villarreal,Vallecano,4,0,2,0,1.58,4.22,5.26,483,480
11/05/14,Ath Bilbao,Sociedad,1,1,0,0,1.79,3.75,4.3,448,457
11/05/14,Ath Madrid,Malaga,1,1,0,0,1.19,6.67,15.06,240,573
11/05/14,Betis,Valladolid,4,3,1,1,3.61,3.54,1.99,449,462
11/05/14,Celta,Real Madrid,2,0,1,0,6.58,4.97,1.42,450,243
11/05/14,Elche,Barcelona,0,0,0,0,12.61,6.62,1.21,468,241
11/05/14,Espanol,Osasuna,1,1,1,1,2.31,3.24,3.13,452,479
11/05/14,Getafe,Sevilla,1,0,0,0,1.88,3.64,3.97,1860,481
11/05/14,Granada,Almeria,0,2,0,1,1.91,3.55,3.93,110832,1861
16/05/14,Malaga,Levante,1,0,0,0,1.97,3.47,3.84,573,1853
17/05/14,Barcelona,Ath Madrid,1,1,1,0,1.84,3.67,4.2,241,240
17/05/14,Real Madrid,Espanol,3,1,0,0,1.35,5.2,7.96,243,452
17/05/14,Valencia,Celta,2,1,1,1,1.8,3.74,4.24,461,450
18/05/14,Almeria,Ath Bilbao,0,0,0,0,2.33,3.31,3.03,1861,448
18/05/14,Osasuna,Betis,2,1,2,0,1.37,4.9,7.95,479,449
18/05/14,Sevilla,Elche,3,1,1,0,1.78,3.72,4.37,481,468
18/05/14,Sociedad,Villarreal,1,2,0,1,1.99,3.59,3.58,457,483
18/05/14,Valladolid,Granada,0,1,0,1,2.16,3.33,3.37,462,110832
18/05/14,Vallecano,Getafe,1,2,0,1,3.78,3.14,2.09,480,1860
