homeId,awayId,homeBest4sub,homeBest4def,homeBest3mid,homeBest3att,homeBestGK,awayBest4sub,awayBest4def,awayBest3med,awayBest3att,awayBestGK,TAG
243,242,76,83,85,85,90,76,69,71,69,76,1
244,260,73,72,74,76,75,70,70,74,73,75,1
1861,462,74,68,69,69,74,70,74,76,74,76,0
448,452,72,76,77,74,79,73,73,77,76,81,1
573,240,74,68,69,68,74,78,79,79,84,80,1
453,1742,74,76,77,77,78,68,70,70,72,76,1
479,483,73,74,77,74,75,74,77,80,80,84,0
456,1860,72,74,75,76,74,73,76,78,76,75,-1
461,481,78,79,82,83,77,78,78,81,83,83,1
241,459,77,85,85,87,84,73,68,71,69,73,1
240,456,78,79,79,84,80,72,74,75,76,74,0
452,243,73,73,77,76,81,76,83,85,85,90,-1
1860,241,73,76,78,76,75,77,85,85,87,84,-1
481,244,78,78,81,83,83,73,72,74,76,75,1
242,573,76,69,71,69,76,74,68,69,68,74,1
459,1861,73,68,71,69,73,74,68,69,69,74,1
260,479,70,70,74,73,75,73,74,77,74,75,1
462,461,70,74,76,74,76,78,79,82,83,77,-1
483,453,74,77,80,80,84,74,76,77,77,78,0
1742,448,68,70,70,72,76,72,76,77,74,79,-1
241,240,77,85,85,87,84,78,79,79,84,80,1
242,452,76,69,71,69,76,73,73,77,76,81,-1
573,456,74,68,69,68,74,72,74,75,76,74,-1
453,260,74,76,77,77,78,70,70,74,73,75,1
479,481,73,74,77,74,75,78,78,81,83,83,-1
1861,1860,74,68,69,69,74,73,76,78,76,75,1
448,483,72,76,77,74,79,74,77,80,80,84,1
243,1742,76,83,85,85,90,68,70,70,72,76,1
461,459,78,79,82,83,77,73,68,71,69,73,0
244,462,73,72,74,76,75,70,74,76,74,76,-1
456,241,72,74,75,76,74,77,85,85,87,84,-1
481,453,78,78,81,83,83,74,76,77,77,78,1
240,1861,78,79,79,84,80,74,68,69,69,74,0
452,573,73,73,77,76,81,74,68,69,68,74,1
1860,461,73,76,78,76,75,78,79,82,83,77,1
260,448,70,70,74,73,75,72,76,77,74,79,1
462,479,70,74,76,74,76,73,74,77,74,75,-1
483,243,74,77,80,80,84,76,83,85,85,90,-1
1742,242,68,70,70,72,76,76,69,71,69,76,-1
459,244,73,68,71,69,73,73,72,74,76,75,0
448,481,72,76,77,74,79,78,78,81,83,83,-1
573,241,74,68,69,68,74,77,85,85,87,84,-1
243,260,76,83,85,85,90,70,70,74,73,75,1
461,240,78,79,82,83,77,78,79,79,84,80,0
1861,456,74,68,69,69,74,72,74,75,76,74,0
452,1742,73,73,77,76,81,68,70,70,72,76,0
242,483,76,69,71,69,76,74,77,80,80,84,1
453,462,74,76,77,77,78,70,74,76,74,76,1
479,459,73,74,77,74,75,73,68,71,69,73,1
244,1860,73,72,74,76,75,73,76,78,76,75,1
240,244,78,79,79,84,80,73,72,74,76,75,1
241,1861,77,85,85,87,84,74,68,69,69,74,1
260,242,70,70,74,73,75,76,69,71,69,76,-1
1860,479,73,76,78,76,75,73,74,77,74,75,1
456,461,72,74,75,76,74,78,79,82,83,77,-1
481,243,78,78,81,83,83,76,83,85,85,90,1
459,453,73,68,71,69,73,74,76,77,77,78,1
462,448,70,74,76,74,76,72,76,77,74,79,0
483,452,74,77,80,80,84,73,73,77,76,81,0
1742,573,68,70,70,72,76,74,68,69,68,74,0
242,481,76,69,71,69,76,78,78,81,83,83,1
243,462,76,83,85,85,90,70,74,76,74,76,1
461,241,78,79,82,83,77,77,85,85,87,84,0
448,459,72,76,77,74,79,73,68,71,69,73,-1
452,260,73,73,77,76,81,70,70,74,73,75,1
573,1861,74,68,69,68,74,74,68,69,69,74,-1
453,1860,74,76,77,77,78,73,76,78,76,75,1
479,240,73,74,77,74,75,78,79,79,84,80,1
1742,483,68,70,70,72,76,74,77,80,80,84,1
244,456,73,72,74,76,75,72,74,75,76,74,0
240,453,78,79,79,84,80,74,76,77,77,78,0
481,452,78,78,81,83,83,73,73,77,76,81,0
459,243,73,68,71,69,73,76,83,85,85,90,0
1861,461,74,68,69,69,74,78,79,82,83,77,-1
241,244,77,85,85,87,84,73,72,74,76,75,1
1860,448,73,76,78,76,75,72,76,77,74,79,1
456,479,72,74,75,76,74,73,74,77,74,75,0
260,1742,70,70,74,73,75,68,70,70,72,76,1
462,242,70,74,76,74,76,76,69,71,69,76,1
483,573,74,77,80,80,84,74,68,69,68,74,1
448,240,72,76,77,74,79,78,79,79,84,80,1
479,241,73,74,77,74,75,77,85,85,87,84,0
243,1860,76,83,85,85,90,73,76,78,76,75,1
1742,481,68,70,70,72,76,78,78,81,83,83,-1
452,462,73,73,77,76,81,70,74,76,74,76,0
242,459,76,69,71,69,76,73,68,71,69,73,0
573,461,74,68,69,68,74,78,79,82,83,77,-1
453,456,74,76,77,77,78,72,74,75,76,74,1
483,260,74,77,80,80,84,70,70,74,73,75,1
244,1861,73,72,74,76,75,74,68,69,69,74,1
240,243,78,79,79,84,80,76,83,85,85,90,-1
241,453,77,85,85,87,84,74,76,77,77,78,1
1860,242,73,76,78,76,75,76,69,71,69,76,-1
260,573,70,70,74,73,75,74,68,69,68,74,0
1861,479,74,68,69,69,74,73,74,77,74,75,1
456,448,72,74,75,76,74,72,76,77,74,79,-1
481,483,78,78,81,83,83,74,77,80,80,84,1
459,452,73,68,71,69,73,73,73,77,76,81,1
461,244,78,79,82,83,77,73,72,74,76,75,1
462,1742,70,74,76,74,76,68,70,70,72,76,0
448,241,72,76,77,74,79,77,85,85,87,84,0
242,240,76,69,71,69,76,78,79,79,84,80,1
243,456,76,83,85,85,90,72,74,75,76,74,1
260,481,70,70,74,73,75,78,78,81,83,83,-1
452,1860,73,73,77,76,81,73,76,78,76,75,-1
573,244,74,68,69,68,74,73,72,74,76,75,0
453,1861,74,76,77,77,78,74,68,69,69,74,1
479,461,73,74,77,74,75,78,79,82,83,77,-1
483,462,74,77,80,80,84,70,74,76,74,76,1
1742,459,68,70,70,72,76,73,68,71,69,73,0
481,573,78,78,81,83,83,74,68,69,68,74,0
459,483,73,68,71,69,73,74,77,80,80,84,1
461,453,78,79,82,83,77,74,76,77,77,78,0
1861,448,74,68,69,69,74,72,76,77,74,79,-1
240,452,78,79,79,84,80,73,73,77,76,81,1
241,243,77,85,85,87,84,76,83,85,85,90,1
1860,1742,73,76,78,76,75,68,70,70,72,76,1
456,242,72,74,75,76,74,76,69,71,69,76,-1
462,260,70,74,76,74,76,70,70,74,73,75,0
244,479,73,72,74,76,75,73,74,77,74,75,-1
1742,241,68,70,70,72,76,77,85,85,87,84,-1
242,241,76,69,71,69,76,77,85,85,87,84,-1
243,1861,76,83,85,85,90,74,68,69,69,74,1
481,462,78,78,81,83,83,70,74,76,74,76,0
1742,240,68,70,70,72,76,78,79,79,84,80,-1
448,461,72,76,77,74,79,78,79,82,83,77,-1
452,456,73,73,77,76,81,72,74,75,76,74,-1
573,479,74,68,69,68,74,73,74,77,74,75,0
453,244,74,76,77,77,78,73,72,74,76,75,1
260,459,70,70,74,73,75,73,68,71,69,73,1
483,1860,74,77,80,80,84,73,76,78,76,75,1
241,452,77,85,85,87,84,73,73,77,76,81,1
461,243,78,79,82,83,77,76,83,85,85,90,-1
244,448,73,72,74,76,75,72,76,77,74,79,-1
1861,242,74,68,69,69,74,76,69,71,69,76,0
240,483,78,79,79,84,80,74,77,80,80,84,-1
1860,260,73,76,78,76,75,70,70,74,73,75,1
479,453,73,74,77,74,75,74,76,77,77,78,-1
456,1742,72,74,75,76,74,68,70,70,72,76,1
459,481,73,68,71,69,73,78,78,81,83,83,-1
462,573,70,74,76,74,76,74,68,69,68,74,0
448,479,72,76,77,74,79,73,74,77,74,75,1
243,244,76,83,85,85,90,73,72,74,76,75,1
481,1860,78,78,81,83,83,73,76,78,76,75,-1
452,1861,73,73,77,76,81,74,68,69,69,74,1
242,461,76,69,71,69,76,78,79,82,83,77,0
573,453,74,68,69,68,74,74,76,77,77,78,1
260,240,70,70,74,73,75,78,79,79,84,80,0
462,459,70,74,76,74,76,73,68,71,69,73,1
483,456,74,77,80,80,84,72,74,75,76,74,1
240,481,78,79,79,84,80,78,78,81,83,83,1
241,483,77,85,85,87,84,74,77,80,80,84,0
461,452,78,79,82,83,77,73,73,77,76,81,1
1861,1742,74,68,69,69,74,68,70,70,72,76,1
1860,462,73,76,78,76,75,70,74,76,74,76,1
453,448,74,76,77,77,78,72,76,77,74,79,1
479,243,73,74,77,74,75,76,83,85,85,90,0
456,260,72,74,75,76,74,70,70,74,73,75,1
459,573,73,68,71,69,73,74,68,69,68,74,0
244,242,73,72,74,76,75,76,69,71,69,76,0
481,456,78,78,81,83,83,72,74,75,76,74,-1
462,240,70,74,76,74,76,78,79,79,84,80,-1
483,1861,74,77,80,80,84,74,68,69,69,74,0
452,244,73,73,77,76,81,73,72,74,76,75,1
242,479,76,69,71,69,76,73,74,77,74,75,1
573,448,74,68,69,68,74,72,76,77,74,79,0
243,453,76,83,85,85,90,74,76,77,77,78,1
459,1860,73,68,71,69,73,73,76,78,76,75,1
260,241,70,70,74,73,75,77,85,85,87,84,-1
1742,461,68,70,70,72,76,78,79,82,83,77,-1
448,243,72,76,77,74,79,76,83,85,85,90,1
241,481,77,85,85,87,84,78,78,81,83,83,1
479,452,73,74,77,74,75,73,73,77,76,81,1
1861,260,74,68,69,69,74,70,70,74,73,75,0
240,459,78,79,79,84,80,73,68,71,69,73,1
573,1860,74,68,69,68,74,73,76,78,76,75,1
453,242,74,76,77,77,78,76,69,71,69,76,1
456,462,72,74,75,76,74,70,74,76,74,76,0
461,483,78,79,82,83,77,74,77,80,80,84,1
244,1742,73,72,74,76,75,68,70,70,72,76,0
242,448,76,69,71,69,76,72,76,77,74,79,1
481,1861,78,78,81,83,83,74,68,69,69,74,1
462,241,70,74,76,74,76,77,85,85,87,84,-1
452,453,73,73,77,76,81,74,76,77,77,78,0
1860,240,73,76,78,76,75,78,79,79,84,80,1
243,573,76,83,85,85,90,74,68,69,68,74,1
459,456,73,68,71,69,73,72,74,75,76,74,-1
260,461,70,70,74,73,75,78,79,82,83,77,0
483,244,74,77,80,80,84,73,72,74,76,75,1
1742,479,68,70,70,72,76,73,74,77,74,75,-1
452,448,73,73,77,76,81,72,76,77,74,79,1
242,243,76,69,71,69,76,76,83,85,85,90,-1
459,241,73,68,71,69,73,77,85,85,87,84,-1
240,573,78,79,79,84,80,74,68,69,68,74,-1
1860,456,73,76,78,76,75,72,74,75,76,74,0
481,461,78,78,81,83,83,78,79,82,83,77,1
260,244,70,70,74,73,75,73,72,74,76,75,-1
462,1861,70,74,76,74,76,74,68,69,69,74,0
483,479,74,77,80,80,84,73,74,77,74,75,-1
1742,453,68,70,70,72,76,74,76,77,77,78,1
241,1860,77,85,85,87,84,73,76,78,76,75,1
243,452,76,83,85,85,90,73,73,77,76,81,1
461,462,78,79,82,83,77,70,74,76,74,76,1
1861,459,74,68,69,69,74,73,68,71,69,73,1
448,1742,72,76,77,74,79,68,70,70,72,76,1
573,242,74,68,69,68,74,76,69,71,69,76,0
453,483,74,76,77,77,78,74,77,80,80,84,1
479,260,73,74,77,74,75,70,70,74,73,75,1
456,240,72,74,75,76,74,78,79,79,84,80,0
244,481,73,72,74,76,75,78,78,81,83,83,1
459,461,73,68,71,69,73,78,79,82,83,77,0
483,448,74,77,80,80,84,72,76,77,74,79,1
1742,243,68,70,70,72,76,76,83,85,85,90,-1
240,241,78,79,79,84,80,77,85,85,87,84,1
452,242,73,73,77,76,81,76,69,71,69,76,1
1860,1861,73,76,78,76,75,74,68,69,69,74,0
456,573,72,74,75,76,74,74,68,69,68,74,-1
481,479,78,78,81,83,83,73,74,77,74,75,1
462,244,70,74,76,74,76,73,72,74,76,75,0
260,453,70,70,74,73,75,74,76,77,77,78,1
241,456,77,85,85,87,84,72,74,75,76,74,1
242,1742,76,69,71,69,76,68,70,70,72,76,1
453,481,74,76,77,77,78,78,78,81,83,83,-1
1861,240,74,68,69,69,74,78,79,79,84,80,1
448,260,72,76,77,74,79,70,70,74,73,75,1
573,452,74,68,69,68,74,73,73,77,76,81,1
479,462,73,74,77,74,75,70,74,76,74,76,0
243,483,76,83,85,85,90,74,77,80,80,84,1
244,459,73,72,74,76,75,73,68,71,69,73,-1
461,1860,78,79,82,83,77,73,76,78,76,75,1
241,573,77,85,85,87,84,74,68,69,68,74,1
1860,244,73,76,78,76,75,73,72,74,76,75,-1
260,243,70,70,74,73,75,76,83,85,85,90,-1
240,461,78,79,79,84,80,78,79,82,83,77,1
456,1861,72,74,75,76,74,74,68,69,69,74,-1
481,448,78,78,81,83,83,72,76,77,74,79,0
459,479,73,68,71,69,73,73,74,77,74,75,1
462,453,70,74,76,74,76,74,76,77,77,78,-1
483,242,74,77,80,80,84,76,69,71,69,76,1
1742,452,68,70,70,72,76,73,73,77,76,81,0
1861,241,74,68,69,69,74,77,85,85,87,84,0
242,260,76,69,71,69,76,70,70,74,73,75,1
243,481,76,83,85,85,90,78,78,81,83,83,1
448,462,72,76,77,74,79,70,74,76,74,76,1
452,483,73,73,77,76,81,74,77,80,80,84,0
573,1742,74,68,69,68,74,68,70,70,72,76,-1
453,459,74,76,77,77,78,73,68,71,69,73,1
479,1860,73,74,77,74,75,73,76,78,76,75,0
244,240,73,72,74,76,75,78,79,79,84,80,0
461,456,78,79,82,83,77,72,74,75,76,74,0
1860,453,73,76,78,76,75,74,76,77,77,78,1
481,242,78,78,81,83,83,76,69,71,69,76,0
459,448,73,68,71,69,73,72,76,77,74,79,0
1861,573,74,68,69,69,74,74,68,69,68,74,1
241,461,77,85,85,87,84,78,79,82,83,77,1
456,244,72,74,75,76,74,73,72,74,76,75,0
260,452,70,70,74,73,75,73,73,77,76,81,1
462,243,70,74,76,74,76,76,83,85,85,90,-1
483,1742,74,77,80,80,84,68,70,70,72,76,1
240,479,78,79,79,84,80,73,74,77,74,75,1
448,1860,72,76,77,74,79,73,76,78,76,75,0
452,481,73,73,77,76,81,78,78,81,83,83,1
242,462,76,69,71,69,76,70,74,76,74,76,-1
243,459,76,83,85,85,90,73,68,71,69,73,1
1742,260,68,70,70,72,76,70,70,74,73,75,1
573,483,74,68,69,68,74,74,77,80,80,84,1
453,240,74,76,77,77,78,78,79,79,84,80,1
479,456,73,74,77,74,75,72,74,75,76,74,-1
461,1861,78,79,82,83,77,74,68,69,69,74,1
244,241,73,72,74,76,75,77,85,85,87,84,-1
481,1742,78,78,81,83,83,68,70,70,72,76,0
459,242,73,68,71,69,73,76,69,71,69,76,1
1861,244,74,68,69,69,74,73,72,74,76,75,1
241,479,77,85,85,87,84,73,74,77,74,75,1
456,453,72,74,75,76,74,74,76,77,77,78,0
260,483,70,70,74,73,75,74,77,80,80,84,0
461,573,78,79,82,83,77,74,68,69,68,74,1
462,452,70,74,76,74,76,73,73,77,76,81,0
240,448,78,79,79,84,80,72,76,77,74,79,1
1860,243,73,76,78,76,75,76,83,85,85,90,-1
573,260,74,68,69,68,74,70,70,74,73,75,0
453,241,74,76,77,77,78,77,85,85,87,84,-1
244,461,73,72,74,76,75,78,79,82,83,77,1
452,459,73,73,77,76,81,73,68,71,69,73,0
242,1860,76,69,71,69,76,73,76,78,76,75,-1
479,1861,73,74,77,74,75,74,68,69,69,74,1
243,240,76,83,85,85,90,78,79,79,84,80,1
483,481,74,77,80,80,84,78,78,81,83,83,1
1742,462,68,70,70,72,76,70,74,76,74,76,1
448,456,72,76,77,74,79,72,74,75,76,74,1
241,448,77,85,85,87,84,72,76,77,74,79,1
481,260,78,78,81,83,83,70,70,74,73,75,1
244,573,73,72,74,76,75,74,68,69,68,74,1
1861,453,74,68,69,69,74,74,76,77,77,78,0
240,242,78,79,79,84,80,76,69,71,69,76,1
1860,452,73,76,78,76,75,73,73,77,76,81,0
456,243,72,74,75,76,74,76,83,85,85,90,-1
459,1742,73,68,71,69,73,68,70,70,72,76,0
461,479,78,79,82,83,77,73,74,77,74,75,1
462,483,70,74,76,74,76,74,77,80,80,84,-1
573,481,74,68,69,68,74,78,78,81,83,83,-1
243,241,76,83,85,85,90,77,85,85,87,84,-1
260,462,70,70,74,73,75,70,74,76,74,76,0
483,459,74,77,80,80,84,73,68,71,69,73,1
1742,1860,68,70,70,72,76,73,76,78,76,75,-1
448,1861,72,76,77,74,79,74,68,69,69,74,1
452,240,73,73,77,76,81,78,79,79,84,80,1
242,456,76,69,71,69,76,72,74,75,76,74,0
453,461,74,76,77,77,78,78,79,82,83,77,1
479,244,73,74,77,74,75,73,72,74,76,75,1
1860,483,73,76,78,76,75,74,77,80,80,84,1
459,260,73,68,71,69,73,70,70,74,73,75,-1
462,481,70,74,76,74,76,78,78,81,83,83,1
240,1742,78,79,79,84,80,68,70,70,72,76,-1
241,242,77,85,85,87,84,76,69,71,69,76,1
479,573,73,74,77,74,75,74,68,69,68,74,0
456,452,72,74,75,76,74,73,73,77,76,81,1
244,453,73,72,74,76,75,74,76,77,77,78,0
1861,243,74,68,69,69,74,76,83,85,85,90,-1
461,448,78,79,82,83,77,72,76,77,74,79,1
452,241,73,73,77,76,81,77,85,85,87,84,0
481,459,78,78,81,83,83,73,68,71,69,73,1
483,240,74,77,80,80,84,78,79,79,84,80,1
448,244,72,76,77,74,79,73,72,74,76,75,0
242,1861,76,69,71,69,76,74,68,69,69,74,0
573,462,74,68,69,68,74,70,74,76,74,76,0
243,461,76,83,85,85,90,78,79,82,83,77,1
260,1860,70,70,74,73,75,73,76,78,76,75,1
1742,456,68,70,70,72,76,72,74,75,76,74,0
453,479,74,76,77,77,78,73,74,77,74,75,1
241,1742,77,85,85,87,84,68,70,70,72,76,1
461,242,78,79,82,83,77,76,69,71,69,76,1
244,243,73,72,74,76,75,76,83,85,85,90,-1
1861,452,74,68,69,69,74,73,73,77,76,81,-1
240,260,78,79,79,84,80,70,70,74,73,75,1
1860,481,73,76,78,76,75,78,78,81,83,83,1
453,573,74,76,77,77,78,74,68,69,68,74,0
456,483,72,74,75,76,74,74,77,80,80,84,-1
459,462,73,68,71,69,73,70,74,76,74,76,-1
479,448,73,74,77,74,75,72,76,77,74,79,0
452,461,73,73,77,76,81,78,79,82,83,77,-1
242,244,76,69,71,69,76,73,72,74,76,75,-1
573,459,74,68,69,68,74,73,68,71,69,73,0
260,456,70,70,74,73,75,72,74,75,76,74,1
462,1860,70,74,76,74,76,73,76,78,76,75,0
483,241,74,77,80,80,84,77,85,85,87,84,-1
1742,1861,68,70,70,72,76,74,68,69,69,74,1
448,453,72,76,77,74,79,74,76,77,77,78,-1
243,479,76,83,85,85,90,73,74,77,74,75,1
481,240,78,78,81,83,83,78,79,79,84,80,1
1861,483,74,68,69,69,74,74,77,80,80,84,1
241,260,77,85,85,87,84,70,70,74,73,75,1
1860,459,73,76,78,76,75,73,68,71,69,73,0
461,1742,78,79,82,83,77,68,70,70,72,76,1
448,573,72,76,77,74,79,74,68,69,68,74,0
240,462,78,79,79,84,80,70,74,76,74,76,1
453,243,74,76,77,77,78,76,83,85,85,90,-1
479,242,73,74,77,74,75,76,69,71,69,76,1
456,481,72,74,75,76,74,78,78,81,83,83,-1
244,452,73,72,74,76,75,73,73,77,76,81,1
452,479,73,73,77,76,81,73,74,77,74,75,1
1860,573,73,76,78,76,75,74,68,69,68,74,1
242,453,76,69,71,69,76,74,76,77,77,78,1
243,448,76,83,85,85,90,72,76,77,74,79,1
481,241,78,78,81,83,83,77,85,85,87,84,-1
459,240,73,68,71,69,73,78,79,79,84,80,0
260,1861,70,70,74,73,75,74,68,69,69,74,0
462,456,70,74,76,74,76,72,74,75,76,74,1
483,461,74,77,80,80,84,78,79,82,83,77,1
1742,244,68,70,70,72,76,73,72,74,76,75,1
1861,481,74,68,69,69,74,78,78,81,83,83,-1
448,242,72,76,77,74,79,76,69,71,69,76,1
240,1860,78,79,79,84,80,73,76,78,76,75,-1
453,452,74,76,77,77,78,73,73,77,76,81,1
244,483,73,72,74,76,75,74,77,80,80,84,0
241,462,77,85,85,87,84,70,74,76,74,76,1
573,243,74,68,69,68,74,76,83,85,85,90,0
479,1742,73,74,77,74,75,68,70,70,72,76,0
456,459,72,74,75,76,74,73,68,71,69,73,1
461,260,78,79,82,83,77,70,70,74,73,75,1
