homeId,awayId,homeBest4sub,homeBest4def,homeBest3mid,homeBest3att,homeBestGK,awayBest4sub,awayBest4def,awayBest3med,awayBest3att,awayBestGK,TAG
100888,463,75,74,75,74,75,74,74,75,70,74,1
461,472,78,80,81,81,80,74,77,81,73,73,1
450,457,74,78,79,78,77,78,79,79,81,83,-1
110062,240,73,75,74,74,77,80,84,84,84,88,0
481,452,77,79,82,81,81,76,77,79,79,83,0
448,1860,78,80,81,82,79,72,76,74,73,73,0
241,449,82,84,86,89,85,76,75,77,77,76,1
242,243,76,77,76,77,76,83,86,88,89,85,-1
1853,483,72,74,76,74,73,77,80,82,80,84,1
573,467,76,76,76,76,76,74,77,79,77,77,-1
449,450,76,75,77,77,76,74,78,79,78,77,1
457,483,78,79,79,81,83,77,80,82,80,84,1
463,241,74,74,75,70,74,82,84,86,89,85,-1
110062,573,73,75,74,74,77,76,76,76,76,76,1
472,240,74,77,81,73,73,80,84,84,84,88,-1
1853,242,72,74,76,74,73,76,77,76,77,76,0
467,448,74,77,79,77,77,78,80,81,82,79,-1
452,100888,76,77,79,79,83,75,74,75,74,75,-1
1860,481,72,76,74,73,73,77,79,82,81,81,-1
243,461,83,86,88,89,85,78,80,81,81,80,0
100888,1860,75,74,75,74,75,72,76,74,73,73,-1
241,452,82,84,86,89,85,76,77,79,79,83,1
243,1853,83,86,88,89,85,72,74,76,74,73,0
481,467,77,79,82,81,81,74,77,79,77,77,1
461,240,78,80,81,81,80,80,84,84,84,88,0
448,110062,78,80,81,82,79,73,75,74,74,77,1
450,463,74,78,79,78,77,74,74,75,70,74,1
242,457,76,77,76,77,76,78,79,79,81,83,-1
483,449,77,80,82,80,84,76,75,77,77,76,1
573,472,76,76,76,76,76,74,77,81,73,73,-1
467,100888,74,77,79,77,77,75,74,75,74,75,1
240,573,80,84,84,84,88,76,76,76,76,76,1
449,242,76,75,77,77,76,76,77,76,77,76,1
1860,241,72,76,74,73,73,82,84,86,89,85,-1
1853,461,72,74,76,74,73,78,80,81,81,80,0
463,483,74,74,75,70,74,77,80,82,80,84,-1
110062,481,73,75,74,74,77,77,79,82,81,81,-1
472,448,74,77,81,73,73,78,80,81,82,79,1
457,243,78,79,79,81,83,83,86,88,89,85,-1
452,450,76,77,79,79,83,74,78,79,78,77,1
241,467,82,84,86,89,85,74,77,79,77,77,1
461,573,78,80,81,81,80,76,76,76,76,76,1
448,240,78,80,81,82,79,80,84,84,84,88,-1
242,463,76,77,76,77,76,74,74,75,70,74,1
100888,110062,75,74,75,74,75,73,75,74,74,77,0
243,449,83,86,88,89,85,76,75,77,77,76,-1
481,472,77,79,82,81,81,74,77,81,73,73,1
450,1860,74,78,79,78,77,72,76,74,73,73,0
1853,457,72,74,76,74,73,78,79,79,81,83,1
483,452,77,80,82,80,84,76,77,79,79,83,0
463,243,74,74,75,70,74,83,86,88,89,85,-1
240,481,80,84,84,84,88,77,79,82,81,81,1
110062,241,73,75,74,74,77,82,84,86,89,85,-1
573,448,76,76,76,76,76,78,80,81,82,79,0
467,450,74,77,79,77,77,74,78,79,78,77,-1
452,242,76,77,79,79,83,76,77,76,77,76,1
1860,483,72,76,74,73,73,77,80,82,80,84,1
472,100888,74,77,81,73,73,75,74,75,74,75,-1
457,461,78,79,79,81,83,78,80,81,81,80,-1
449,1853,76,75,77,77,76,72,74,76,74,73,1
450,110062,74,78,79,78,77,73,75,74,74,77,0
242,1860,76,77,76,77,76,72,76,74,73,73,1
100888,240,75,74,75,74,75,80,84,84,84,88,0
1853,463,72,74,76,74,73,74,74,75,70,74,-1
481,573,77,79,82,81,81,76,76,76,76,76,1
241,472,82,84,86,89,85,74,77,81,73,73,1
243,452,83,86,88,89,85,76,77,79,79,83,1
457,449,78,79,79,81,83,76,75,77,77,76,0
461,448,78,80,81,81,80,78,80,81,82,79,1
483,467,77,80,82,80,84,74,77,79,77,77,1
452,1853,76,77,79,79,83,72,74,76,74,73,0
463,457,74,74,75,70,74,78,79,79,81,83,-1
448,481,78,80,81,82,79,77,79,82,81,81,1
240,241,80,84,84,84,88,82,84,86,89,85,0
1860,243,72,76,74,73,73,83,86,88,89,85,-1
449,461,76,75,77,77,76,78,80,81,81,80,-1
467,242,74,77,79,77,77,76,77,76,77,76,0
110062,483,73,75,74,74,77,77,80,82,80,84,-1
573,100888,76,76,76,76,76,75,74,75,74,75,-1
472,450,74,77,81,73,73,74,78,79,78,77,-1
241,573,82,84,86,89,85,76,76,76,76,76,1
449,463,76,75,77,77,76,74,74,75,70,74,1
1853,1860,72,74,76,74,73,72,76,74,73,73,0
461,481,78,80,81,81,80,77,79,82,81,81,1
450,240,74,78,79,78,77,80,84,84,84,88,-1
100888,448,75,74,75,74,75,78,80,81,82,79,1
243,467,83,86,88,89,85,74,77,79,77,77,1
483,472,77,80,82,80,84,74,77,81,73,73,1
242,110062,76,77,76,77,76,73,75,74,74,77,-1
457,452,78,79,79,81,83,76,77,79,79,83,0
463,461,74,74,75,70,74,78,80,81,81,80,-1
448,241,78,80,81,82,79,82,84,86,89,85,-1
240,483,80,84,84,84,88,77,80,82,80,84,0
481,100888,77,79,82,81,81,75,74,75,74,75,1
467,1853,74,77,79,77,77,72,74,76,74,73,0
1860,457,72,76,74,73,73,78,79,79,81,83,1
110062,243,73,75,74,74,77,83,86,88,89,85,1
573,450,76,76,76,76,76,74,78,79,78,77,1
452,449,76,77,79,79,83,76,75,77,77,76,1
472,242,74,77,81,73,73,76,77,76,77,76,-1
449,1860,76,75,77,77,76,72,76,74,73,73,0
463,452,74,74,75,70,74,76,77,79,79,83,1
241,481,82,84,86,89,85,77,79,82,81,81,1
242,240,76,77,76,77,76,80,84,84,84,88,-1
461,100888,78,80,81,81,80,75,74,75,74,75,1
450,448,74,78,79,78,77,78,80,81,82,79,1
1853,110062,72,74,76,74,73,73,75,74,74,77,-1
243,472,83,86,88,89,85,74,77,81,73,73,1
457,467,78,79,79,81,83,74,77,79,77,77,1
483,573,77,80,82,80,84,76,76,76,76,76,1
110062,457,73,75,74,74,77,78,79,79,81,83,0
240,243,80,84,84,84,88,83,86,88,89,85,0
1860,463,72,76,74,73,73,74,74,75,70,74,1
100888,241,75,74,75,74,75,82,84,86,89,85,-1
481,450,77,79,82,81,81,74,78,79,78,77,1
448,483,78,80,81,82,79,77,80,82,80,84,0
452,461,76,77,79,79,83,78,80,81,81,80,-1
472,1853,74,77,81,73,73,72,74,76,74,73,-1
573,242,76,76,76,76,76,76,77,76,77,76,1
467,449,74,77,79,77,77,76,75,77,77,76,1
450,100888,74,78,79,78,77,75,74,75,74,75,1
463,467,74,74,75,70,74,74,77,79,77,77,-1
449,110062,76,75,77,77,76,73,75,74,74,77,0
1853,240,72,74,76,74,73,80,84,84,84,88,-1
243,573,83,86,88,89,85,76,76,76,76,76,1
242,448,76,77,76,77,76,78,80,81,82,79,0
457,472,78,79,79,81,83,74,77,81,73,73,0
461,241,78,80,81,81,80,82,84,86,89,85,0
483,481,77,80,82,80,84,77,79,82,81,81,-1
452,1860,76,77,79,79,83,72,76,74,73,73,1
573,1853,76,76,76,76,76,72,74,76,74,73,0
448,243,78,80,81,82,79,83,86,88,89,85,0
240,457,80,84,84,84,88,78,79,79,81,83,1
241,450,82,84,86,89,85,74,78,79,78,77,0
481,242,77,79,82,81,81,76,77,76,77,76,1
467,452,74,77,79,77,77,76,77,79,79,83,1
1860,461,72,76,74,73,73,78,80,81,81,80,1
472,449,74,77,81,73,73,76,75,77,77,76,1
100888,483,75,74,75,74,75,77,80,82,80,84,1
110062,463,73,75,74,74,77,74,74,75,70,74,-1
463,472,74,74,75,70,74,74,77,81,73,73,1
1860,467,72,76,74,73,73,74,77,79,77,77,0
242,100888,76,77,76,77,76,75,74,75,74,75,1
243,481,83,86,88,89,85,77,79,82,81,81,1
461,450,78,80,81,81,80,74,78,79,78,77,1
449,240,76,75,77,77,76,80,84,84,84,88,-1
1853,448,72,74,76,74,73,78,80,81,82,79,-1
457,573,78,79,79,81,83,76,76,76,76,76,-1
483,241,77,80,82,80,84,82,84,86,89,85,-1
452,110062,76,77,79,79,83,73,75,74,74,77,-1
481,1853,77,79,82,81,81,72,74,76,74,73,0
448,457,78,80,81,82,79,78,79,79,81,83,0
240,463,80,84,84,84,88,74,74,75,70,74,1
467,461,74,77,79,77,77,78,80,81,81,80,1
241,242,82,84,86,89,85,76,77,76,77,76,1
450,483,74,78,79,78,77,77,80,82,80,84,-1
110062,1860,73,75,74,74,77,72,76,74,73,73,1
472,452,74,77,81,73,73,76,77,79,79,83,0
573,449,76,76,76,76,76,76,75,77,77,76,-1
1853,100888,72,74,76,74,73,75,74,75,74,75,0
1860,472,72,76,74,73,73,74,77,81,73,73,1
457,481,78,79,79,81,83,77,79,82,81,81,1
463,573,74,74,75,70,74,76,76,76,76,76,1
467,110062,74,77,79,77,77,73,75,74,74,77,1
449,448,76,75,77,77,76,78,80,81,82,79,-1
452,240,76,77,79,79,83,80,84,84,84,88,1
242,450,76,77,76,77,76,74,78,79,78,77,-1
243,241,83,86,88,89,85,82,84,86,89,85,-1
461,483,78,80,81,81,80,77,80,82,80,84,-1
240,1860,80,84,84,84,88,72,76,74,73,73,1
472,467,74,77,81,73,73,74,77,79,77,77,-1
481,449,77,79,82,81,81,76,75,77,77,76,-1
461,110062,78,80,81,81,80,73,75,74,74,77,1
448,463,78,80,81,82,79,74,74,75,70,74,1
241,1853,82,84,86,89,85,72,74,76,74,73,1
450,243,74,78,79,78,77,83,86,88,89,85,0
100888,457,75,74,75,74,75,78,79,79,81,83,1
483,242,77,80,82,80,84,76,77,76,77,76,0
573,452,76,76,76,76,76,76,77,79,79,83,-1
1860,573,72,76,74,73,73,76,76,76,76,76,1
467,240,74,77,79,77,77,80,84,84,84,88,-1
110062,472,73,75,74,74,77,74,77,81,73,73,1
242,461,76,77,76,77,76,78,80,81,81,80,-1
243,483,83,86,88,89,85,77,80,82,80,84,-1
463,481,74,74,75,70,74,77,79,82,81,81,1
452,448,76,77,79,79,83,78,80,81,82,79,0
1853,450,72,74,76,74,73,74,78,79,78,77,-1
457,241,78,79,79,81,83,82,84,86,89,85,-1
449,100888,76,75,77,77,76,75,74,75,74,75,1
1860,448,72,76,74,73,73,78,80,81,82,79,0
240,110062,80,84,84,84,88,73,75,74,74,77,0
452,481,76,77,79,79,83,77,79,82,81,81,-1
472,461,74,77,81,73,73,78,80,81,81,80,1
483,1853,77,80,82,80,84,72,74,76,74,73,1
463,100888,74,74,75,70,74,75,74,75,74,75,0
449,241,76,75,77,77,76,82,84,86,89,85,-1
243,242,83,86,88,89,85,76,77,76,77,76,1
457,450,78,79,79,81,83,74,78,79,78,77,-1
467,573,74,77,79,77,77,76,76,76,76,76,0
448,467,78,80,81,82,79,74,77,79,77,77,0
242,1853,76,77,76,77,76,72,74,76,74,73,0
573,110062,76,76,76,76,76,73,75,74,74,77,0
461,243,78,80,81,81,80,83,86,88,89,85,-1
483,457,77,80,82,80,84,78,79,79,81,83,1
240,472,80,84,84,84,88,74,77,81,73,73,1
241,463,82,84,86,89,85,74,74,75,70,74,1
100888,452,75,74,75,74,75,76,77,79,79,83,1
481,1860,77,79,82,81,81,72,76,74,73,73,0
450,449,74,78,79,78,77,76,75,77,77,76,1
457,242,78,79,79,81,83,76,77,76,77,76,1
463,450,74,74,75,70,74,74,78,79,78,77,1
449,483,76,75,77,77,76,77,80,82,80,84,1
467,481,74,77,79,77,77,77,79,82,81,81,1
1853,243,72,74,76,74,73,83,86,88,89,85,0
240,461,80,84,84,84,88,78,80,81,81,80,1
452,241,76,77,79,79,83,82,84,86,89,85,0
1860,100888,72,76,74,73,73,75,74,75,74,75,0
110062,448,73,75,74,74,77,78,80,81,82,79,1
472,573,74,77,81,73,73,76,76,76,76,76,1
448,472,78,80,81,82,79,74,77,81,73,73,0
100888,467,75,74,75,74,75,74,77,79,77,77,-1
573,240,76,76,76,76,76,80,84,84,84,88,-1
243,457,83,86,88,89,85,78,79,79,81,83,1
483,463,77,80,82,80,84,74,74,75,70,74,-1
241,1860,82,84,86,89,85,72,76,74,73,73,0
450,452,74,78,79,78,77,76,77,79,79,83,0
481,110062,77,79,82,81,81,73,75,74,74,77,1
461,1853,78,80,81,81,80,72,74,76,74,73,1
242,449,76,77,76,77,76,76,75,77,77,76,-1
110062,100888,73,75,74,74,77,75,74,75,74,75,1
463,242,74,74,75,70,74,76,77,76,77,76,1
467,241,74,77,79,77,77,82,84,86,89,85,-1
472,481,74,77,81,73,73,77,79,82,81,81,-1
573,461,76,76,76,76,76,78,80,81,81,80,-1
240,448,80,84,84,84,88,78,80,81,82,79,1
449,243,76,75,77,77,76,83,86,88,89,85,-1
452,483,76,77,79,79,83,77,80,82,80,84,0
457,1853,78,79,79,81,83,72,74,76,74,73,1
1860,450,72,76,74,73,73,74,78,79,78,77,1
100888,243,75,74,75,74,75,83,86,88,89,85,-1
242,452,76,77,76,77,76,76,77,79,79,83,0
241,110062,82,84,86,89,85,73,75,74,74,77,1
450,467,74,78,79,78,77,74,77,79,77,77,1
100888,472,75,74,75,74,75,74,77,81,73,73,0
243,463,83,86,88,89,85,74,74,75,70,74,1
448,573,78,80,81,82,79,76,76,76,76,76,1
481,240,77,79,82,81,81,80,84,84,84,88,-1
461,457,78,80,81,81,80,78,79,79,81,83,1
483,1860,77,80,82,80,84,72,76,74,73,73,1
1853,449,72,74,76,74,73,76,75,77,77,76,-1
452,243,76,77,79,79,83,83,86,88,89,85,1
110062,450,73,75,74,74,77,74,78,79,78,77,1
448,461,78,80,81,82,79,78,80,81,81,80,0
240,100888,80,84,84,84,88,75,74,75,74,75,1
467,483,74,77,79,77,77,77,80,82,80,84,1
1860,242,72,76,74,73,73,76,77,76,77,76,1
573,481,76,76,76,76,76,77,79,82,81,81,-1
463,1853,74,74,75,70,74,72,74,76,74,73,1
449,457,76,75,77,77,76,78,79,79,81,83,0
472,241,74,77,81,73,73,82,84,86,89,85,0
242,467,76,77,76,77,76,74,77,79,77,77,0
100888,573,75,74,75,74,75,76,76,76,76,76,1
243,1860,83,86,88,89,85,72,76,74,73,73,1
481,448,77,79,82,81,81,78,80,81,82,79,1
483,110062,77,80,82,80,84,73,75,74,74,77,-1
241,240,82,84,86,89,85,80,84,84,84,88,1
1853,452,72,74,76,74,73,76,77,79,79,83,0
457,463,78,79,79,81,83,74,74,75,70,74,1
461,449,78,80,81,81,80,76,75,77,77,76,1
450,472,74,78,79,78,77,74,77,81,73,73,1
110062,242,73,75,74,74,77,76,77,76,77,76,1
467,243,74,77,79,77,77,83,86,88,89,85,-1
1860,1853,72,76,74,73,73,72,74,76,74,73,-1
573,241,76,76,76,76,76,82,84,86,89,85,-1
481,461,77,79,82,81,81,78,80,81,81,80,-1
448,100888,78,80,81,82,79,75,74,75,74,75,1
240,450,80,84,84,84,88,74,78,79,78,77,1
452,457,76,77,79,79,83,78,79,79,81,83,1
472,483,74,77,81,73,73,77,80,82,80,84,-1
463,449,74,74,75,70,74,76,75,77,77,76,-1
1853,467,72,74,76,74,73,74,77,79,77,77,1
449,452,76,75,77,77,76,76,77,79,79,83,1
242,472,76,77,76,77,76,74,77,81,73,73,0
457,1860,78,79,79,81,83,72,76,74,73,73,-1
461,463,78,80,81,81,80,74,74,75,70,74,1
241,448,82,84,86,89,85,78,80,81,82,79,1
450,573,74,78,79,78,77,76,76,76,76,76,0
100888,481,75,74,75,74,75,77,79,82,81,81,1
243,110062,83,86,88,89,85,73,75,74,74,77,1
483,240,77,80,82,80,84,80,84,84,84,88,1
448,450,78,80,81,82,79,74,78,79,78,77,0
110062,1853,73,75,74,74,77,72,74,76,74,73,0
472,243,74,77,81,73,73,83,86,88,89,85,-1
481,241,77,79,82,81,81,82,84,86,89,85,0
240,242,80,84,84,84,88,76,77,76,77,76,1
467,457,74,77,79,77,77,78,79,79,81,83,0
452,463,76,77,79,79,83,74,74,75,70,74,0
100888,461,75,74,75,74,75,78,80,81,81,80,-1
573,483,76,76,76,76,76,77,80,82,80,84,1
1860,449,72,76,74,73,73,76,75,77,77,76,-1
242,573,76,77,76,77,76,76,76,76,76,76,1
463,1860,74,74,75,70,74,72,76,74,73,73,1
241,100888,82,84,86,89,85,75,74,75,74,75,1
449,467,76,75,77,77,76,74,77,79,77,77,1
450,481,74,78,79,78,77,77,79,82,81,81,1
1853,472,72,74,76,74,73,74,77,81,73,73,1
243,240,83,86,88,89,85,80,84,84,84,88,0
457,110062,78,79,79,81,83,73,75,74,74,77,1
461,452,78,80,81,81,80,76,77,79,79,83,1
483,448,77,80,82,80,84,78,80,81,82,79,-1
110062,449,73,75,74,74,77,76,75,77,77,76,-1
448,242,78,80,81,82,79,76,77,76,77,76,-1
241,461,82,84,86,89,85,78,80,81,81,80,1
472,457,74,77,81,73,73,78,79,79,81,83,-1
100888,450,75,74,75,74,75,74,78,79,78,77,1
481,483,77,79,82,81,81,77,80,82,80,84,0
240,1853,80,84,84,84,88,72,74,76,74,73,1
467,463,74,77,79,77,77,74,74,75,70,74,-1
1860,452,72,76,74,73,73,76,77,79,79,83,1
573,243,76,76,76,76,76,83,86,88,89,85,-1
450,241,74,78,79,78,77,82,84,86,89,85,0
242,481,76,77,76,77,76,77,79,82,81,81,0
483,100888,77,80,82,80,84,75,74,75,74,75,1
452,467,76,77,79,79,83,74,77,79,77,77,-1
243,448,83,86,88,89,85,78,80,81,82,79,0
461,1860,78,80,81,81,80,72,76,74,73,73,-1
463,110062,74,74,75,70,74,73,75,74,74,77,-1
449,472,76,75,77,77,76,74,77,81,73,73,1
1853,573,72,74,76,74,73,76,76,76,76,76,1
457,240,78,79,79,81,83,80,84,84,84,88,1
100888,242,75,74,75,74,75,76,77,76,77,76,0
450,461,74,78,79,78,77,78,80,81,81,80,0
467,1860,74,77,79,77,77,72,76,74,73,73,-1
240,449,80,84,84,84,88,76,75,77,77,76,0
110062,452,73,75,74,74,77,76,77,79,79,83,-1
472,463,74,77,81,73,73,74,74,75,70,74,-1
573,457,76,76,76,76,76,78,79,79,81,83,1
448,1853,78,80,81,82,79,72,74,76,74,73,-1
1853,481,72,74,76,74,73,77,79,82,81,81,1
452,472,76,77,79,79,83,74,77,81,73,73,0
243,100888,83,86,88,89,85,75,74,75,74,75,1
457,448,78,79,79,81,83,78,80,81,82,79,1
483,450,77,80,82,80,84,74,78,79,78,77,1
463,240,74,74,75,70,74,80,84,84,84,88,-1
1860,110062,72,76,74,73,73,73,75,74,74,77,0
242,241,76,77,76,77,76,82,84,86,89,85,-1
461,467,78,80,81,81,80,74,77,79,77,77,0
449,573,76,75,77,77,76,76,76,76,76,76,1
481,457,77,79,82,81,81,78,79,79,81,83,1
448,449,78,80,81,82,79,76,75,77,77,76,1
450,242,74,78,79,78,77,76,77,76,77,76,0
110062,467,73,75,74,74,77,74,77,79,77,77,-1
483,461,77,80,82,80,84,78,80,81,81,80,1
240,452,80,84,84,84,88,76,77,79,79,83,-1
241,243,82,84,86,89,85,83,86,88,89,85,0
472,1860,74,77,81,73,73,72,76,74,73,73,-1
573,463,76,76,76,76,76,74,74,75,70,74,-1
100888,1853,75,74,75,74,75,72,74,76,74,73,-1
241,483,82,84,86,89,85,77,80,82,80,84,1
481,243,77,79,82,81,81,83,86,88,89,85,1
463,448,74,74,75,70,74,78,80,81,82,79,1
449,481,76,75,77,77,76,77,79,82,81,81,0
467,472,74,77,79,77,77,74,77,81,73,73,1
1860,240,72,76,74,73,73,80,84,84,84,88,-1
110062,461,73,75,74,74,77,78,80,81,81,80,-1
242,483,76,77,76,77,76,77,80,82,80,84,-1
243,450,83,86,88,89,85,74,78,79,78,77,1
457,100888,78,79,79,81,83,75,74,75,74,75,1
452,573,76,77,79,79,83,76,76,76,76,76,1
1853,241,72,74,76,74,73,82,84,86,89,85,1
450,1853,74,78,79,78,77,72,74,76,74,73,1
472,110062,74,77,81,73,73,73,75,74,74,77,-1
100888,449,75,74,75,74,75,76,75,77,77,76,1
573,1860,76,76,76,76,76,72,76,74,73,73,-1
481,463,77,79,82,81,81,74,74,75,70,74,1
483,243,77,80,82,80,84,83,86,88,89,85,0
448,452,78,80,81,82,79,76,77,79,79,83,-1
240,467,80,84,84,84,88,74,77,79,77,77,0
241,457,82,84,86,89,85,78,79,79,81,83,1
461,242,78,80,81,81,80,76,77,76,77,76,1
