homeId,awayId,homeBest4sub,homeBest4def,homeBest3mid,homeBest3att,homeBestGK,awayBest4sub,awayBest4def,awayBest3med,awayBest3att,awayBestGK,TAG
110832,449,72,73,75,73,74,73,69,72,68,73,-1
459,457,73,68,69,69,73,73,73,75,75,78,-1
461,456,76,79,79,80,80,70,71,73,71,76,1
448,480,74,79,79,79,81,70,70,74,73,73,0
240,479,78,79,83,80,80,72,73,75,73,73,0
1860,1853,73,75,75,75,75,73,73,75,76,74,0
453,452,71,75,73,73,77,73,75,78,76,77,1
481,573,77,77,80,81,78,78,73,74,67,78,1
244,243,71,72,74,75,78,82,83,88,87,89,-1
241,483,84,86,90,90,85,76,76,82,83,83,1
243,1860,82,83,88,87,89,73,75,75,75,75,1
457,241,73,73,75,75,78,84,86,90,90,85,0
461,240,76,79,79,80,80,78,79,83,80,80,1
483,481,76,76,82,83,83,77,77,80,81,78,0
449,453,73,69,72,68,73,71,75,73,73,77,1
452,448,73,75,78,76,77,74,79,79,79,81,1
479,459,72,73,75,73,73,73,68,69,69,73,1
456,1853,70,71,73,71,76,73,73,75,76,74,0
480,244,70,70,74,73,73,71,72,74,75,78,0
573,110832,78,73,74,67,78,72,73,75,73,74,1
241,479,84,86,90,90,85,72,73,75,73,73,1
110832,483,72,73,75,73,74,76,76,82,83,83,1
453,573,71,75,73,73,77,78,73,74,67,78,-1
481,457,77,77,80,81,78,73,73,75,75,78,1
459,461,73,68,69,69,73,76,79,79,80,80,-1
448,449,74,79,79,79,81,73,69,72,68,73,-1
240,456,78,79,83,80,80,70,71,73,71,76,1
1860,480,73,75,75,75,75,70,70,74,73,73,-1
1853,243,73,73,75,76,74,82,83,88,87,89,1
244,452,71,72,74,75,78,73,75,78,76,77,1
479,481,72,73,75,73,73,77,77,80,81,78,0
457,110832,73,73,75,75,78,72,73,75,73,74,1
483,453,76,76,82,83,83,71,75,73,73,77,1
240,459,78,79,83,80,80,73,68,69,69,73,1
573,448,78,73,74,67,78,74,79,79,79,81,1
456,243,70,71,73,71,76,82,83,88,87,89,0
461,241,76,79,79,80,80,84,86,90,90,85,0
480,1853,70,70,74,73,73,73,73,75,76,74,-1
449,244,73,69,72,68,73,71,72,74,75,78,1
452,1860,73,75,78,76,77,73,75,75,75,75,1
448,483,74,79,79,79,81,76,76,82,83,83,0
241,240,84,86,90,90,85,78,79,83,80,80,1
243,480,82,83,88,87,89,70,70,74,73,73,1
481,461,77,77,80,81,78,76,79,79,80,80,1
110832,479,72,73,75,73,74,72,73,75,73,73,0
1853,452,73,73,75,76,74,73,75,78,76,77,1
453,457,71,75,73,73,77,73,73,75,75,78,1
459,456,73,68,69,69,73,70,71,73,71,76,0
244,573,71,72,74,75,78,78,73,74,67,78,0
1860,449,73,75,75,75,75,73,69,72,68,73,1
573,1860,78,73,74,67,78,73,75,75,75,75,1
479,453,72,73,75,73,73,71,75,73,73,77,0
456,480,70,71,73,71,76,70,70,74,73,73,0
461,110832,76,79,79,80,80,72,73,75,73,74,1
483,244,76,76,82,83,83,71,72,74,75,78,0
240,481,78,79,83,80,80,77,77,80,81,78,0
449,1853,73,69,72,68,73,73,73,75,76,74,-1
452,243,73,75,78,76,77,82,83,88,87,89,-1
457,448,73,73,75,75,78,74,79,79,79,81,-1
459,241,73,68,69,69,73,84,86,90,90,85,-1
241,456,84,86,90,90,85,70,71,73,71,76,1
1860,483,73,75,75,75,75,76,76,82,83,83,0
110832,240,72,73,75,73,74,78,79,83,80,80,0
453,461,71,75,73,73,77,76,79,79,80,80,0
243,449,82,83,88,87,89,73,69,72,68,73,1
1853,573,73,73,75,76,74,78,73,74,67,78,1
481,459,77,77,80,81,78,73,68,69,69,73,1
480,452,70,70,74,73,73,73,75,78,76,77,-1
244,457,71,72,74,75,78,73,73,75,75,78,1
448,479,74,79,79,79,81,72,73,75,73,73,1
241,481,84,86,90,90,85,77,77,80,81,78,0
573,243,78,73,74,67,78,82,83,88,87,89,-1
456,452,70,71,73,71,76,73,75,78,76,77,-1
459,110832,73,68,69,69,73,72,73,75,73,74,1
240,453,78,79,83,80,80,71,75,73,73,77,0
449,480,73,69,72,68,73,70,70,74,73,73,-1
479,244,72,73,75,73,73,71,72,74,75,78,1
457,1860,73,73,75,75,78,73,75,75,75,75,0
461,448,76,79,79,80,80,74,79,79,79,81,0
483,1853,76,76,82,83,83,73,73,75,76,74,-1
110832,241,72,73,75,73,74,84,86,90,90,85,-1
481,456,77,77,80,81,78,70,71,73,71,76,0
1860,479,73,75,75,75,75,72,73,75,73,73,0
1853,457,73,73,75,76,74,73,73,75,75,78,1
453,459,71,75,73,73,77,73,68,69,69,73,-1
243,483,82,83,88,87,89,76,76,82,83,83,1
480,573,70,70,74,73,73,78,73,74,67,78,1
244,461,71,72,74,75,78,76,79,79,80,80,-1
448,240,74,79,79,79,81,78,79,83,80,80,1
452,449,73,75,78,76,77,73,69,72,68,73,1
241,453,84,86,90,90,85,71,75,73,73,77,1
457,243,73,73,75,75,78,82,83,88,87,89,-1
461,1860,76,79,79,80,80,73,75,75,75,75,1
483,480,76,76,82,83,83,70,70,74,73,73,1
240,244,78,79,83,80,80,71,72,74,75,78,1
573,452,78,73,74,67,78,73,75,78,76,77,1
479,1853,72,73,75,73,73,73,73,75,76,74,1
456,449,70,71,73,71,76,73,69,72,68,73,1
459,448,73,68,69,69,73,74,79,79,79,81,0
481,110832,77,77,80,81,78,72,73,75,73,74,-1
449,573,73,69,72,68,73,78,73,74,67,78,0
1853,461,73,73,75,76,74,76,79,79,80,80,-1
453,481,71,75,73,73,77,77,77,80,81,78,0
448,241,74,79,79,79,81,84,86,90,90,85,0
452,483,73,75,78,76,77,76,76,82,83,83,0
1860,240,73,75,75,75,75,78,79,83,80,80,1
110832,456,72,73,75,73,74,70,71,73,71,76,0
243,479,82,83,88,87,89,72,73,75,73,73,1
480,457,70,70,74,73,73,73,73,75,75,78,1
244,459,71,72,74,75,78,73,68,69,69,73,0
241,244,84,86,90,90,85,71,72,74,75,78,1
461,243,76,79,79,80,80,82,83,88,87,89,-1
483,449,76,76,82,83,83,73,69,72,68,73,1
240,1853,78,79,83,80,80,73,73,75,76,74,1
479,480,72,73,75,73,73,70,70,74,73,73,0
481,448,77,77,80,81,78,74,79,79,79,81,-1
457,452,73,73,75,75,78,73,75,78,76,77,0
459,1860,73,68,69,69,73,73,75,75,75,75,1
456,573,70,71,73,71,76,78,73,74,67,78,-1
1860,241,73,75,75,75,75,84,86,90,90,85,1
243,240,82,83,88,87,89,78,79,83,80,80,1
480,461,70,70,74,73,73,76,79,79,80,80,-1
448,110832,74,79,79,79,81,72,73,75,73,74,-1
449,457,73,69,72,68,73,73,73,75,75,78,-1
452,479,73,75,78,76,77,72,73,75,73,73,-1
1853,459,73,73,75,76,74,73,68,69,69,73,1
453,456,71,75,73,73,77,70,71,73,71,76,1
244,481,71,72,74,75,78,77,77,80,81,78,-1
573,483,78,73,74,67,78,76,76,82,83,83,1
241,480,84,86,90,90,85,70,70,74,73,73,1
241,1853,84,86,90,90,85,73,73,75,76,74,1
456,483,70,71,73,71,76,76,76,82,83,83,1
459,243,73,68,69,69,73,82,83,88,87,89,-1
461,452,76,79,79,80,80,73,75,78,76,77,1
240,480,78,79,83,80,80,70,70,74,73,73,1
110832,244,72,73,75,73,74,71,72,74,75,78,1
453,448,71,75,73,73,77,74,79,79,79,81,0
479,449,72,73,75,73,73,73,69,72,68,73,1
457,573,73,73,75,75,78,78,73,74,67,78,1
481,1860,77,77,80,81,78,73,75,75,75,75,1
110832,453,72,73,75,73,74,71,75,73,73,77,0
449,461,73,69,72,68,73,76,79,79,80,80,1
1853,481,73,73,75,76,74,77,77,80,81,78,1
243,241,82,83,88,87,89,84,86,90,90,85,-1
448,456,74,79,79,79,81,70,71,73,71,76,0
452,240,73,75,78,76,77,78,79,83,80,80,1
1860,110832,73,75,75,75,75,72,73,75,73,74,1
573,479,78,73,74,67,78,72,73,75,73,73,0
480,459,70,70,74,73,73,73,68,69,69,73,-1
483,457,76,76,82,83,83,73,73,75,75,78,0
244,453,71,72,74,75,78,71,75,73,73,77,-1
448,244,74,79,79,79,81,71,72,74,75,78,1
453,1860,71,75,73,73,77,73,75,75,75,75,-1
481,243,77,77,80,81,78,82,83,88,87,89,-1
459,452,73,68,69,69,73,73,75,78,76,77,-1
240,449,78,79,83,80,80,73,69,72,68,73,-1
110832,1853,72,73,75,73,74,73,73,75,76,74,1
479,483,72,73,75,73,73,76,76,82,83,83,1
456,457,70,71,73,71,76,73,73,75,75,78,0
461,573,76,79,79,80,80,78,73,74,67,78,1
1853,453,73,73,75,76,74,71,75,73,73,77,0
573,240,78,73,74,67,78,78,79,83,80,80,0
243,110832,82,83,88,87,89,72,73,75,73,74,1
456,244,70,71,73,71,76,71,72,74,75,78,1
457,479,73,73,75,75,78,72,73,75,73,73,0
449,459,73,69,72,68,73,73,68,69,69,73,1
452,241,73,75,78,76,77,84,86,90,90,85,0
1860,448,73,75,75,75,75,74,79,79,79,81,0
480,481,70,70,74,73,73,77,77,80,81,78,1
483,461,76,76,82,83,83,76,79,79,80,80,0
110832,480,72,73,75,73,74,70,70,74,73,73,-1
453,243,71,75,73,73,77,82,83,88,87,89,-1
481,452,77,77,80,81,78,73,75,78,76,77,0
461,457,76,79,79,80,80,73,73,75,75,78,-1
244,1860,71,72,74,75,78,73,75,75,75,75,0
448,1853,74,79,79,79,81,73,73,75,76,74,1
240,483,78,79,83,80,80,76,76,82,83,83,1
241,449,84,86,90,90,85,73,69,72,68,73,1
479,456,72,73,75,73,73,70,71,73,71,76,-1
459,573,73,68,69,69,73,78,73,74,67,78,1
449,481,73,69,72,68,73,77,77,80,81,78,0
452,110832,73,75,78,76,77,72,73,75,73,74,1
456,1860,70,71,73,71,76,73,75,75,75,75,-1
457,240,73,73,75,75,78,78,79,83,80,80,-1
1853,244,73,73,75,76,74,71,72,74,75,78,0
573,241,78,73,74,67,78,84,86,90,90,85,-1
479,461,72,73,75,73,73,76,79,79,80,80,0
243,448,82,83,88,87,89,74,79,79,79,81,1
480,453,70,70,74,73,73,71,75,73,73,77,-1
483,459,76,76,82,83,83,73,68,69,69,73,1
452,453,73,75,78,76,77,71,75,73,73,77,1
243,244,82,83,88,87,89,71,72,74,75,78,1
480,448,70,70,74,73,73,74,79,79,79,81,-1
483,241,76,76,82,83,83,84,86,90,90,85,0
449,110832,73,69,72,68,73,72,73,75,73,74,-1
1853,1860,73,73,75,76,74,73,75,75,75,75,-1
573,481,78,73,74,67,78,77,77,80,81,78,1
456,461,70,71,73,71,76,76,79,79,80,80,0
457,459,73,73,75,75,78,73,68,69,69,73,1
479,240,72,73,75,73,73,78,79,83,80,80,-1
448,452,74,79,79,79,81,73,75,78,76,77,0
241,457,84,86,90,90,85,73,73,75,75,78,1
1860,243,73,75,75,75,75,82,83,88,87,89,-1
1853,456,73,73,75,76,74,70,71,73,71,76,0
453,449,71,75,73,73,77,73,69,72,68,73,1
240,461,78,79,83,80,80,76,79,79,80,80,0
481,483,77,77,80,81,78,76,76,82,83,83,-1
459,479,73,68,69,69,73,72,73,75,73,73,0
244,480,71,72,74,75,78,70,70,74,73,73,-1
110832,573,72,73,75,73,74,78,73,74,67,78,1
449,448,73,69,72,68,73,74,79,79,79,81,1
479,241,72,73,75,73,73,84,86,90,90,85,1
456,240,70,71,73,71,76,78,79,83,80,80,0
452,244,73,75,78,76,77,71,72,74,75,78,-1
573,453,78,73,74,67,78,71,75,73,73,77,1
243,1853,82,83,88,87,89,73,73,75,76,74,1
461,459,76,79,79,80,80,73,68,69,69,73,1
480,1860,70,70,74,73,73,73,75,75,75,75,1
483,110832,76,76,82,83,83,72,73,75,73,74,1
457,481,73,73,75,75,78,77,77,80,81,78,1
1860,452,73,75,75,75,75,73,75,78,76,77,0
243,456,82,83,88,87,89,70,71,73,71,76,1
481,479,77,77,80,81,78,72,73,75,73,73,1
448,573,74,79,79,79,81,78,73,74,67,78,1
241,461,84,86,90,90,85,76,79,79,80,80,1
110832,457,72,73,75,73,74,73,73,75,75,78,1
1853,480,73,73,75,76,74,70,70,74,73,73,-1
453,483,71,75,73,73,77,76,76,82,83,83,1
459,240,73,68,69,69,73,78,79,83,80,80,0
244,449,71,72,74,75,78,73,69,72,68,73,-1
449,1860,73,69,72,68,73,73,75,75,75,75,0
452,1853,73,75,78,76,77,73,73,75,76,74,-1
573,244,78,73,74,67,78,71,72,74,75,78,1
456,459,70,71,73,71,76,73,68,69,69,73,0
240,241,78,79,83,80,80,84,86,90,90,85,-1
479,110832,72,73,75,73,73,72,73,75,73,74,1
457,453,73,73,75,75,78,71,75,73,73,77,1
461,481,76,79,79,80,80,77,77,80,81,78,-1
480,243,70,70,74,73,73,82,83,88,87,89,-1
483,448,76,76,82,83,83,74,79,79,79,81,0
241,459,84,86,90,90,85,73,68,69,69,73,1
1860,573,73,75,75,75,75,78,73,74,67,78,-1
453,479,71,75,73,73,77,72,73,75,73,73,0
481,240,77,77,80,81,78,78,79,83,80,80,0
480,456,70,70,74,73,73,70,71,73,71,76,1
448,457,74,79,79,79,81,73,73,75,75,78,1
110832,461,72,73,75,73,74,76,79,79,80,80,-1
243,452,82,83,88,87,89,73,75,78,76,77,1
244,483,71,72,74,75,78,76,76,82,83,83,1
1853,449,73,73,75,76,74,73,69,72,68,73,1
449,243,73,69,72,68,73,82,83,88,87,89,-1
573,1853,78,73,74,67,78,73,73,75,76,74,1
457,244,73,73,75,75,78,71,72,74,75,78,1
459,481,73,68,69,69,73,77,77,80,81,78,1
240,110832,78,79,83,80,80,72,73,75,73,74,1
452,480,73,75,78,76,77,70,70,74,73,73,1
479,448,72,73,75,73,73,74,79,79,79,81,1
456,241,70,71,73,71,76,84,86,90,90,85,-1
461,453,76,79,79,80,80,71,75,73,73,77,0
483,1860,76,76,82,83,83,73,75,75,75,75,-1
1860,457,73,75,75,75,75,73,73,75,75,78,1
110832,459,72,73,75,73,74,73,68,69,69,73,1
481,241,77,77,80,81,78,84,86,90,90,85,-1
480,449,70,70,74,73,73,73,69,72,68,73,1
244,479,71,72,74,75,78,72,73,75,73,73,0
448,461,74,79,79,79,81,76,79,79,80,80,-1
1853,483,73,73,75,76,74,76,76,82,83,83,1
453,240,71,75,73,73,77,78,79,83,80,80,1
243,573,82,83,88,87,89,78,73,74,67,78,0
452,456,73,75,78,76,77,70,71,73,71,76,1
241,110832,84,86,90,90,85,72,73,75,73,74,1
479,1860,72,73,75,73,73,73,75,75,75,75,0
240,448,78,79,83,80,80,74,79,79,79,81,1
457,1853,73,73,75,75,78,73,73,75,76,74,-1
459,453,73,68,69,69,73,71,75,73,73,77,-1
461,244,76,79,79,80,80,71,72,74,75,78,-1
483,243,76,76,82,83,83,82,83,88,87,89,0
449,452,73,69,72,68,73,73,75,78,76,77,0
573,480,78,73,74,67,78,70,70,74,73,73,1
456,481,70,71,73,71,76,77,77,80,81,78,-1
1860,461,73,75,75,75,75,76,79,79,80,80,1
453,241,71,75,73,73,77,84,86,90,90,85,-1
243,457,82,83,88,87,89,73,73,75,75,78,1
448,459,74,79,79,79,81,73,68,69,69,73,0
449,456,73,69,72,68,73,70,71,73,71,76,0
452,573,73,75,78,76,77,78,73,74,67,78,-1
1853,479,73,73,75,76,74,72,73,75,73,73,-1
480,483,70,70,74,73,73,76,76,82,83,83,-1
244,240,71,72,74,75,78,78,79,83,80,80,1
110832,481,72,73,75,73,74,77,77,80,81,78,-1
241,448,84,86,90,90,85,74,79,79,79,81,1
573,449,78,73,74,67,78,73,69,72,68,73,-1
479,243,72,73,75,73,73,82,83,88,87,89,-1
456,110832,70,71,73,71,76,72,73,75,73,74,-1
459,244,73,68,69,69,73,71,72,74,75,78,-1
240,1860,78,79,83,80,80,73,75,75,75,75,1
457,480,73,73,75,75,78,70,70,74,73,73,1
461,1853,76,79,79,80,80,73,73,75,76,74,0
483,452,76,76,82,83,83,73,75,78,76,77,0
481,453,77,77,80,81,78,71,75,73,73,77,1
449,483,73,69,72,68,73,76,76,82,83,83,1
452,457,73,75,78,76,77,73,73,75,75,78,0
1860,459,73,75,75,75,75,73,68,69,69,73,1
480,479,70,70,74,73,73,72,73,75,73,73,1
244,241,71,72,74,75,78,84,86,90,90,85,-1
448,481,74,79,79,79,81,77,77,80,81,78,1
1853,240,73,73,75,76,74,78,79,83,80,80,1
453,110832,71,75,73,73,77,72,73,75,73,74,0
243,461,82,83,88,87,89,76,79,79,80,80,0
573,456,78,73,74,67,78,70,71,73,71,76,1
241,1860,84,86,90,90,85,73,75,75,75,75,1
479,452,72,73,75,73,73,73,75,78,76,77,1
457,449,73,73,75,75,78,73,69,72,68,73,0
240,243,78,79,83,80,80,82,83,88,87,89,-1
110832,448,72,73,75,73,74,74,79,79,79,81,0
459,1853,73,68,69,69,73,73,73,75,76,74,1
461,480,76,79,79,80,80,70,70,74,73,73,1
456,453,70,71,73,71,76,71,75,73,73,77,-1
481,244,77,77,80,81,78,71,72,74,75,78,1
483,573,76,76,82,83,83,78,73,74,67,78,1
1853,241,73,73,75,76,74,84,86,90,90,85,-1
243,459,82,83,88,87,89,73,68,69,69,73,1
448,453,74,79,79,79,81,71,75,73,73,77,1
449,479,73,69,72,68,73,72,73,75,73,73,1
452,461,73,75,78,76,77,76,79,79,80,80,1
573,457,78,73,74,67,78,73,73,75,75,78,0
480,240,70,70,74,73,73,78,79,83,80,80,-1
483,456,76,76,82,83,83,70,71,73,71,76,0
244,110832,71,72,74,75,78,72,73,75,73,74,1
1860,481,73,75,75,75,75,77,77,80,81,78,1
241,243,84,86,90,90,85,82,83,88,87,89,-1
453,244,71,75,73,73,77,71,72,74,75,78,1
481,1853,77,77,80,81,78,73,73,75,76,74,0
459,480,73,68,69,69,73,70,70,74,73,73,1
240,452,78,79,83,80,80,73,75,78,76,77,1
110832,1860,72,73,75,73,74,73,75,75,75,75,1
456,448,70,71,73,71,76,74,79,79,79,81,-1
457,483,73,73,75,75,78,76,76,82,83,83,0
461,449,76,79,79,80,80,73,69,72,68,73,1
479,573,72,73,75,73,73,78,73,74,67,78,0
452,459,73,75,78,76,77,73,68,69,69,73,-1
1860,453,73,75,75,75,75,71,75,73,73,77,-1
1853,110832,73,73,75,76,74,72,73,75,73,74,1
457,456,73,73,75,75,78,70,71,73,71,76,1
483,479,76,76,82,83,83,72,73,75,73,73,0
449,240,73,69,72,68,73,78,79,83,80,80,0
573,461,78,73,74,67,78,76,79,79,80,80,1
243,481,82,83,88,87,89,77,77,80,81,78,1
480,241,70,70,74,73,73,84,86,90,90,85,-1
244,448,71,72,74,75,78,74,79,79,79,81,1
1860,456,73,75,75,75,75,70,71,73,71,76,0
110832,452,72,73,75,73,74,73,75,78,76,77,1
459,483,73,68,69,69,73,76,76,82,83,83,-1
448,243,74,79,79,79,81,82,83,88,87,89,-1
240,457,78,79,83,80,80,73,73,75,75,78,0
241,573,84,86,90,90,85,78,73,74,67,78,1
453,480,71,75,73,73,77,70,70,74,73,73,1
481,449,77,77,80,81,78,73,69,72,68,73,-1
461,479,76,79,79,80,80,72,73,75,73,73,1
244,1853,71,72,74,75,78,73,73,75,76,74,1
448,1860,74,79,79,79,81,73,75,75,75,75,0
240,573,78,79,83,80,80,78,73,74,67,78,1
241,452,84,86,90,90,85,73,75,78,76,77,1
110832,243,72,73,75,73,74,82,83,88,87,89,-1
453,1853,71,75,73,73,77,73,73,75,76,74,1
479,457,72,73,75,73,73,73,73,75,75,78,1
481,480,77,77,80,81,78,70,70,74,73,73,1
459,449,73,68,69,69,73,73,69,72,68,73,1
461,483,76,79,79,80,80,76,76,82,83,83,1
244,456,71,72,74,75,78,70,71,73,71,76,1
449,241,73,69,72,68,73,84,86,90,90,85,0
457,461,73,73,75,75,78,76,79,79,80,80,1
452,481,73,75,78,76,77,77,77,80,81,78,0
1860,244,73,75,75,75,75,71,72,74,75,78,-1
1853,448,73,73,75,76,74,74,79,79,79,81,1
573,459,78,73,74,67,78,73,68,69,69,73,1
243,453,82,83,88,87,89,71,75,73,73,77,1
456,479,70,71,73,71,76,72,73,75,73,73,-1
480,110832,70,70,74,73,73,72,73,75,73,74,1
483,240,76,76,82,83,83,78,79,83,80,80,-1
