homeId,awayId,homeBest4sub,homeBest4def,homeBest3mid,homeBest3att,homeBestGK,awayBest4sub,awayBest4def,awayBest3med,awayBest3att,awayBestGK,TAG
110832,449,72,72,76,75,72,73,68,67,72,73,-1
459,457,74,69,69,69,74,73,74,76,76,77,-1
461,456,77,78,79,80,81,70,72,74,73,74,1
448,480,75,77,80,80,81,70,71,72,73,71,0
240,479,81,80,84,85,75,70,73,75,73,74,0
1860,1853,73,76,77,77,75,72,73,74,74,73,0
453,452,72,75,75,75,77,73,73,77,76,82,1
481,573,78,78,80,81,77,78,71,75,70,78,1
244,243,72,74,76,76,75,83,84,88,87,89,-1
241,483,85,86,90,91,85,78,77,82,83,84,1
243,1860,83,84,88,87,89,73,76,77,77,75,1
457,241,73,74,76,76,77,85,86,90,91,85,0
461,240,77,78,79,80,81,81,80,84,85,75,1
483,481,78,77,82,83,84,78,78,80,81,77,0
449,453,73,68,67,72,73,72,75,75,75,77,1
452,448,73,73,77,76,82,75,77,80,80,81,1
479,459,70,73,75,73,74,74,69,69,69,74,1
456,1853,70,72,74,73,74,72,73,74,74,73,0
480,244,70,71,72,73,71,72,74,76,76,75,0
573,110832,78,71,75,70,78,72,72,76,75,72,1
241,479,85,86,90,91,85,70,73,75,73,74,1
110832,483,72,72,76,75,72,78,77,82,83,84,1
453,573,72,75,75,75,77,78,71,75,70,78,-1
481,457,78,78,80,81,77,73,74,76,76,77,1
459,461,74,69,69,69,74,77,78,79,80,81,-1
448,449,75,77,80,80,81,73,68,67,72,73,-1
240,456,81,80,84,85,75,70,72,74,73,74,1
1860,480,73,76,77,77,75,70,71,72,73,71,-1
1853,243,72,73,74,74,73,83,84,88,87,89,1
244,452,72,74,76,76,75,73,73,77,76,82,1
479,481,70,73,75,73,74,78,78,80,81,77,0
457,110832,73,74,76,76,77,72,72,76,75,72,1
483,453,78,77,82,83,84,72,75,75,75,77,1
240,459,81,80,84,85,75,74,69,69,69,74,1
573,448,78,71,75,70,78,75,77,80,80,81,1
456,243,70,72,74,73,74,83,84,88,87,89,0
461,241,77,78,79,80,81,85,86,90,91,85,0
480,1853,70,71,72,73,71,72,73,74,74,73,-1
449,244,73,68,67,72,73,72,74,76,76,75,1
452,1860,73,73,77,76,82,73,76,77,77,75,1
448,483,75,77,80,80,81,78,77,82,83,84,0
241,240,85,86,90,91,85,81,80,84,85,75,1
243,480,83,84,88,87,89,70,71,72,73,71,1
481,461,78,78,80,81,77,77,78,79,80,81,1
110832,479,72,72,76,75,72,70,73,75,73,74,0
1853,452,72,73,74,74,73,73,73,77,76,82,1
453,457,72,75,75,75,77,73,74,76,76,77,1
459,456,74,69,69,69,74,70,72,74,73,74,0
244,573,72,74,76,76,75,78,71,75,70,78,0
1860,449,73,76,77,77,75,73,68,67,72,73,1
573,1860,78,71,75,70,78,73,76,77,77,75,1
479,453,70,73,75,73,74,72,75,75,75,77,0
456,480,70,72,74,73,74,70,71,72,73,71,0
461,110832,77,78,79,80,81,72,72,76,75,72,1
483,244,78,77,82,83,84,72,74,76,76,75,0
240,481,81,80,84,85,75,78,78,80,81,77,0
449,1853,73,68,67,72,73,72,73,74,74,73,-1
452,243,73,73,77,76,82,83,84,88,87,89,-1
457,448,73,74,76,76,77,75,77,80,80,81,-1
459,241,74,69,69,69,74,85,86,90,91,85,-1
241,456,85,86,90,91,85,70,72,74,73,74,1
1860,483,73,76,77,77,75,78,77,82,83,84,0
110832,240,72,72,76,75,72,81,80,84,85,75,0
453,461,72,75,75,75,77,77,78,79,80,81,0
243,449,83,84,88,87,89,73,68,67,72,73,1
1853,573,72,73,74,74,73,78,71,75,70,78,1
481,459,78,78,80,81,77,74,69,69,69,74,1
480,452,70,71,72,73,71,73,73,77,76,82,-1
244,457,72,74,76,76,75,73,74,76,76,77,1
448,479,75,77,80,80,81,70,73,75,73,74,1
241,481,85,86,90,91,85,78,78,80,81,77,0
573,243,78,71,75,70,78,83,84,88,87,89,-1
456,452,70,72,74,73,74,73,73,77,76,82,-1
459,110832,74,69,69,69,74,72,72,76,75,72,1
240,453,81,80,84,85,75,72,75,75,75,77,0
449,480,73,68,67,72,73,70,71,72,73,71,-1
479,244,70,73,75,73,74,72,74,76,76,75,1
457,1860,73,74,76,76,77,73,76,77,77,75,0
461,448,77,78,79,80,81,75,77,80,80,81,0
483,1853,78,77,82,83,84,72,73,74,74,73,-1
110832,241,72,72,76,75,72,85,86,90,91,85,-1
481,456,78,78,80,81,77,70,72,74,73,74,0
1860,479,73,76,77,77,75,70,73,75,73,74,0
1853,457,72,73,74,74,73,73,74,76,76,77,1
453,459,72,75,75,75,77,74,69,69,69,74,-1
243,483,83,84,88,87,89,78,77,82,83,84,1
480,573,70,71,72,73,71,78,71,75,70,78,1
244,461,72,74,76,76,75,77,78,79,80,81,-1
448,240,75,77,80,80,81,81,80,84,85,75,1
452,449,73,73,77,76,82,73,68,67,72,73,1
241,453,85,86,90,91,85,72,75,75,75,77,1
457,243,73,74,76,76,77,83,84,88,87,89,-1
461,1860,77,78,79,80,81,73,76,77,77,75,1
483,480,78,77,82,83,84,70,71,72,73,71,1
240,244,81,80,84,85,75,72,74,76,76,75,1
573,452,78,71,75,70,78,73,73,77,76,82,1
479,1853,70,73,75,73,74,72,73,74,74,73,1
456,449,70,72,74,73,74,73,68,67,72,73,1
459,448,74,69,69,69,74,75,77,80,80,81,0
481,110832,78,78,80,81,77,72,72,76,75,72,-1
449,573,73,68,67,72,73,78,71,75,70,78,0
1853,461,72,73,74,74,73,77,78,79,80,81,-1
453,481,72,75,75,75,77,78,78,80,81,77,0
448,241,75,77,80,80,81,85,86,90,91,85,0
452,483,73,73,77,76,82,78,77,82,83,84,0
1860,240,73,76,77,77,75,81,80,84,85,75,1
110832,456,72,72,76,75,72,70,72,74,73,74,0
243,479,83,84,88,87,89,70,73,75,73,74,1
480,457,70,71,72,73,71,73,74,76,76,77,1
244,459,72,74,76,76,75,74,69,69,69,74,0
241,244,85,86,90,91,85,72,74,76,76,75,1
461,243,77,78,79,80,81,83,84,88,87,89,-1
483,449,78,77,82,83,84,73,68,67,72,73,1
240,1853,81,80,84,85,75,72,73,74,74,73,1
479,480,70,73,75,73,74,70,71,72,73,71,0
481,448,78,78,80,81,77,75,77,80,80,81,-1
457,452,73,74,76,76,77,73,73,77,76,82,0
459,1860,74,69,69,69,74,73,76,77,77,75,1
456,573,70,72,74,73,74,78,71,75,70,78,-1
1860,241,73,76,77,77,75,85,86,90,91,85,1
243,240,83,84,88,87,89,81,80,84,85,75,1
480,461,70,71,72,73,71,77,78,79,80,81,-1
448,110832,75,77,80,80,81,72,72,76,75,72,-1
449,457,73,68,67,72,73,73,74,76,76,77,-1
452,479,73,73,77,76,82,70,73,75,73,74,-1
1853,459,72,73,74,74,73,74,69,69,69,74,1
453,456,72,75,75,75,77,70,72,74,73,74,1
244,481,72,74,76,76,75,78,78,80,81,77,-1
573,483,78,71,75,70,78,78,77,82,83,84,1
241,480,85,86,90,91,85,70,71,72,73,71,1
241,1853,85,86,90,91,85,72,73,74,74,73,1
456,483,70,72,74,73,74,78,77,82,83,84,1
459,243,74,69,69,69,74,83,84,88,87,89,-1
461,452,77,78,79,80,81,73,73,77,76,82,1
240,480,81,80,84,85,75,70,71,72,73,71,1
110832,244,72,72,76,75,72,72,74,76,76,75,1
453,448,72,75,75,75,77,75,77,80,80,81,0
479,449,70,73,75,73,74,73,68,67,72,73,1
457,573,73,74,76,76,77,78,71,75,70,78,1
481,1860,78,78,80,81,77,73,76,77,77,75,1
110832,453,72,72,76,75,72,72,75,75,75,77,0
449,461,73,68,67,72,73,77,78,79,80,81,1
1853,481,72,73,74,74,73,78,78,80,81,77,1
243,241,83,84,88,87,89,85,86,90,91,85,-1
448,456,75,77,80,80,81,70,72,74,73,74,0
452,240,73,73,77,76,82,81,80,84,85,75,1
1860,110832,73,76,77,77,75,72,72,76,75,72,1
573,479,78,71,75,70,78,70,73,75,73,74,0
480,459,70,71,72,73,71,74,69,69,69,74,-1
483,457,78,77,82,83,84,73,74,76,76,77,0
244,453,72,74,76,76,75,72,75,75,75,77,-1
448,244,75,77,80,80,81,72,74,76,76,75,1
453,1860,72,75,75,75,77,73,76,77,77,75,-1
481,243,78,78,80,81,77,83,84,88,87,89,-1
459,452,74,69,69,69,74,73,73,77,76,82,-1
240,449,81,80,84,85,75,73,68,67,72,73,-1
110832,1853,72,72,76,75,72,72,73,74,74,73,1
479,483,70,73,75,73,74,78,77,82,83,84,1
456,457,70,72,74,73,74,73,74,76,76,77,0
461,573,77,78,79,80,81,78,71,75,70,78,1
1853,453,72,73,74,74,73,72,75,75,75,77,0
573,240,78,71,75,70,78,81,80,84,85,75,0
243,110832,83,84,88,87,89,72,72,76,75,72,1
456,244,70,72,74,73,74,72,74,76,76,75,1
457,479,73,74,76,76,77,70,73,75,73,74,0
449,459,73,68,67,72,73,74,69,69,69,74,1
452,241,73,73,77,76,82,85,86,90,91,85,0
1860,448,73,76,77,77,75,75,77,80,80,81,0
480,481,70,71,72,73,71,78,78,80,81,77,1
483,461,78,77,82,83,84,77,78,79,80,81,0
110832,480,72,72,76,75,72,70,71,72,73,71,-1
453,243,72,75,75,75,77,83,84,88,87,89,-1
481,452,78,78,80,81,77,73,73,77,76,82,0
461,457,77,78,79,80,81,73,74,76,76,77,-1
244,1860,72,74,76,76,75,73,76,77,77,75,0
448,1853,75,77,80,80,81,72,73,74,74,73,1
240,483,81,80,84,85,75,78,77,82,83,84,1
241,449,85,86,90,91,85,73,68,67,72,73,1
479,456,70,73,75,73,74,70,72,74,73,74,-1
459,573,74,69,69,69,74,78,71,75,70,78,1
449,481,73,68,67,72,73,78,78,80,81,77,0
452,110832,73,73,77,76,82,72,72,76,75,72,1
456,1860,70,72,74,73,74,73,76,77,77,75,-1
457,240,73,74,76,76,77,81,80,84,85,75,-1
1853,244,72,73,74,74,73,72,74,76,76,75,0
573,241,78,71,75,70,78,85,86,90,91,85,-1
479,461,70,73,75,73,74,77,78,79,80,81,0
243,448,83,84,88,87,89,75,77,80,80,81,1
480,453,70,71,72,73,71,72,75,75,75,77,-1
483,459,78,77,82,83,84,74,69,69,69,74,1
452,453,73,73,77,76,82,72,75,75,75,77,1
243,244,83,84,88,87,89,72,74,76,76,75,1
480,448,70,71,72,73,71,75,77,80,80,81,-1
483,241,78,77,82,83,84,85,86,90,91,85,0
449,110832,73,68,67,72,73,72,72,76,75,72,-1
1853,1860,72,73,74,74,73,73,76,77,77,75,-1
573,481,78,71,75,70,78,78,78,80,81,77,1
456,461,70,72,74,73,74,77,78,79,80,81,0
457,459,73,74,76,76,77,74,69,69,69,74,1
479,240,70,73,75,73,74,81,80,84,85,75,-1
448,452,75,77,80,80,81,73,73,77,76,82,0
241,457,85,86,90,91,85,73,74,76,76,77,1
1860,243,73,76,77,77,75,83,84,88,87,89,-1
1853,456,72,73,74,74,73,70,72,74,73,74,0
453,449,72,75,75,75,77,73,68,67,72,73,1
240,461,81,80,84,85,75,77,78,79,80,81,0
481,483,78,78,80,81,77,78,77,82,83,84,-1
459,479,74,69,69,69,74,70,73,75,73,74,0
244,480,72,74,76,76,75,70,71,72,73,71,-1
110832,573,72,72,76,75,72,78,71,75,70,78,1
449,448,73,68,67,72,73,75,77,80,80,81,1
479,241,70,73,75,73,74,85,86,90,91,85,1
456,240,70,72,74,73,74,81,80,84,85,75,0
452,244,73,73,77,76,82,72,74,76,76,75,-1
573,453,78,71,75,70,78,72,75,75,75,77,1
243,1853,83,84,88,87,89,72,73,74,74,73,1
461,459,77,78,79,80,81,74,69,69,69,74,1
480,1860,70,71,72,73,71,73,76,77,77,75,1
483,110832,78,77,82,83,84,72,72,76,75,72,1
457,481,73,74,76,76,77,78,78,80,81,77,1
1860,452,73,76,77,77,75,73,73,77,76,82,0
243,456,83,84,88,87,89,70,72,74,73,74,1
481,479,78,78,80,81,77,70,73,75,73,74,1
448,573,75,77,80,80,81,78,71,75,70,78,1
241,461,85,86,90,91,85,77,78,79,80,81,1
110832,457,72,72,76,75,72,73,74,76,76,77,1
1853,480,72,73,74,74,73,70,71,72,73,71,-1
453,483,72,75,75,75,77,78,77,82,83,84,1
459,240,74,69,69,69,74,81,80,84,85,75,0
244,449,72,74,76,76,75,73,68,67,72,73,-1
449,1860,73,68,67,72,73,73,76,77,77,75,0
452,1853,73,73,77,76,82,72,73,74,74,73,-1
573,244,78,71,75,70,78,72,74,76,76,75,1
456,459,70,72,74,73,74,74,69,69,69,74,0
240,241,81,80,84,85,75,85,86,90,91,85,-1
479,110832,70,73,75,73,74,72,72,76,75,72,1
457,453,73,74,76,76,77,72,75,75,75,77,1
461,481,77,78,79,80,81,78,78,80,81,77,-1
480,243,70,71,72,73,71,83,84,88,87,89,-1
483,448,78,77,82,83,84,75,77,80,80,81,0
241,459,85,86,90,91,85,74,69,69,69,74,1
1860,573,73,76,77,77,75,78,71,75,70,78,-1
453,479,72,75,75,75,77,70,73,75,73,74,0
481,240,78,78,80,81,77,81,80,84,85,75,0
480,456,70,71,72,73,71,70,72,74,73,74,1
448,457,75,77,80,80,81,73,74,76,76,77,1
110832,461,72,72,76,75,72,77,78,79,80,81,-1
243,452,83,84,88,87,89,73,73,77,76,82,1
244,483,72,74,76,76,75,78,77,82,83,84,1
1853,449,72,73,74,74,73,73,68,67,72,73,1
449,243,73,68,67,72,73,83,84,88,87,89,-1
573,1853,78,71,75,70,78,72,73,74,74,73,1
457,244,73,74,76,76,77,72,74,76,76,75,1
459,481,74,69,69,69,74,78,78,80,81,77,1
240,110832,81,80,84,85,75,72,72,76,75,72,1
452,480,73,73,77,76,82,70,71,72,73,71,1
479,448,70,73,75,73,74,75,77,80,80,81,1
456,241,70,72,74,73,74,85,86,90,91,85,-1
461,453,77,78,79,80,81,72,75,75,75,77,0
483,1860,78,77,82,83,84,73,76,77,77,75,-1
1860,457,73,76,77,77,75,73,74,76,76,77,1
110832,459,72,72,76,75,72,74,69,69,69,74,1
481,241,78,78,80,81,77,85,86,90,91,85,-1
480,449,70,71,72,73,71,73,68,67,72,73,1
244,479,72,74,76,76,75,70,73,75,73,74,0
448,461,75,77,80,80,81,77,78,79,80,81,-1
1853,483,72,73,74,74,73,78,77,82,83,84,1
453,240,72,75,75,75,77,81,80,84,85,75,1
243,573,83,84,88,87,89,78,71,75,70,78,0
452,456,73,73,77,76,82,70,72,74,73,74,1
241,110832,85,86,90,91,85,72,72,76,75,72,1
479,1860,70,73,75,73,74,73,76,77,77,75,0
240,448,81,80,84,85,75,75,77,80,80,81,1
457,1853,73,74,76,76,77,72,73,74,74,73,-1
459,453,74,69,69,69,74,72,75,75,75,77,-1
461,244,77,78,79,80,81,72,74,76,76,75,-1
483,243,78,77,82,83,84,83,84,88,87,89,0
449,452,73,68,67,72,73,73,73,77,76,82,0
573,480,78,71,75,70,78,70,71,72,73,71,1
456,481,70,72,74,73,74,78,78,80,81,77,-1
1860,461,73,76,77,77,75,77,78,79,80,81,1
453,241,72,75,75,75,77,85,86,90,91,85,-1
243,457,83,84,88,87,89,73,74,76,76,77,1
448,459,75,77,80,80,81,74,69,69,69,74,0
449,456,73,68,67,72,73,70,72,74,73,74,0
452,573,73,73,77,76,82,78,71,75,70,78,-1
1853,479,72,73,74,74,73,70,73,75,73,74,-1
480,483,70,71,72,73,71,78,77,82,83,84,-1
244,240,72,74,76,76,75,81,80,84,85,75,1
110832,481,72,72,76,75,72,78,78,80,81,77,-1
241,448,85,86,90,91,85,75,77,80,80,81,1
573,449,78,71,75,70,78,73,68,67,72,73,-1
479,243,70,73,75,73,74,83,84,88,87,89,-1
456,110832,70,72,74,73,74,72,72,76,75,72,-1
459,244,74,69,69,69,74,72,74,76,76,75,-1
240,1860,81,80,84,85,75,73,76,77,77,75,1
457,480,73,74,76,76,77,70,71,72,73,71,1
461,1853,77,78,79,80,81,72,73,74,74,73,0
483,452,78,77,82,83,84,73,73,77,76,82,0
481,453,78,78,80,81,77,72,75,75,75,77,1
449,483,73,68,67,72,73,78,77,82,83,84,1
452,457,73,73,77,76,82,73,74,76,76,77,0
1860,459,73,76,77,77,75,74,69,69,69,74,1
480,479,70,71,72,73,71,70,73,75,73,74,1
244,241,72,74,76,76,75,85,86,90,91,85,-1
448,481,75,77,80,80,81,78,78,80,81,77,1
1853,240,72,73,74,74,73,81,80,84,85,75,1
453,110832,72,75,75,75,77,72,72,76,75,72,0
243,461,83,84,88,87,89,77,78,79,80,81,0
573,456,78,71,75,70,78,70,72,74,73,74,1
241,1860,85,86,90,91,85,73,76,77,77,75,1
479,452,70,73,75,73,74,73,73,77,76,82,1
457,449,73,74,76,76,77,73,68,67,72,73,0
240,243,81,80,84,85,75,83,84,88,87,89,-1
110832,448,72,72,76,75,72,75,77,80,80,81,0
459,1853,74,69,69,69,74,72,73,74,74,73,1
461,480,77,78,79,80,81,70,71,72,73,71,1
456,453,70,72,74,73,74,72,75,75,75,77,-1
481,244,78,78,80,81,77,72,74,76,76,75,1
483,573,78,77,82,83,84,78,71,75,70,78,1
1853,241,72,73,74,74,73,85,86,90,91,85,-1
243,459,83,84,88,87,89,74,69,69,69,74,1
448,453,75,77,80,80,81,72,75,75,75,77,1
449,479,73,68,67,72,73,70,73,75,73,74,1
452,461,73,73,77,76,82,77,78,79,80,81,1
573,457,78,71,75,70,78,73,74,76,76,77,0
480,240,70,71,72,73,71,81,80,84,85,75,-1
483,456,78,77,82,83,84,70,72,74,73,74,0
244,110832,72,74,76,76,75,72,72,76,75,72,1
1860,481,73,76,77,77,75,78,78,80,81,77,1
241,243,85,86,90,91,85,83,84,88,87,89,-1
453,244,72,75,75,75,77,72,74,76,76,75,1
481,1853,78,78,80,81,77,72,73,74,74,73,0
459,480,74,69,69,69,74,70,71,72,73,71,1
240,452,81,80,84,85,75,73,73,77,76,82,1
110832,1860,72,72,76,75,72,73,76,77,77,75,1
456,448,70,72,74,73,74,75,77,80,80,81,-1
457,483,73,74,76,76,77,78,77,82,83,84,0
461,449,77,78,79,80,81,73,68,67,72,73,1
479,573,70,73,75,73,74,78,71,75,70,78,0
452,459,73,73,77,76,82,74,69,69,69,74,-1
1860,453,73,76,77,77,75,72,75,75,75,77,-1
1853,110832,72,73,74,74,73,72,72,76,75,72,1
457,456,73,74,76,76,77,70,72,74,73,74,1
483,479,78,77,82,83,84,70,73,75,73,74,0
449,240,73,68,67,72,73,81,80,84,85,75,0
573,461,78,71,75,70,78,77,78,79,80,81,1
243,481,83,84,88,87,89,78,78,80,81,77,1
480,241,70,71,72,73,71,85,86,90,91,85,-1
244,448,72,74,76,76,75,75,77,80,80,81,1
1860,456,73,76,77,77,75,70,72,74,73,74,0
110832,452,72,72,76,75,72,73,73,77,76,82,1
459,483,74,69,69,69,74,78,77,82,83,84,-1
448,243,75,77,80,80,81,83,84,88,87,89,-1
240,457,81,80,84,85,75,73,74,76,76,77,0
241,573,85,86,90,91,85,78,71,75,70,78,1
453,480,72,75,75,75,77,70,71,72,73,71,1
481,449,78,78,80,81,77,73,68,67,72,73,-1
461,479,77,78,79,80,81,70,73,75,73,74,1
244,1853,72,74,76,76,75,72,73,74,74,73,1
448,1860,75,77,80,80,81,73,76,77,77,75,0
240,573,81,80,84,85,75,78,71,75,70,78,1
241,452,85,86,90,91,85,73,73,77,76,82,1
110832,243,72,72,76,75,72,83,84,88,87,89,-1
453,1853,72,75,75,75,77,72,73,74,74,73,1
479,457,70,73,75,73,74,73,74,76,76,77,1
481,480,78,78,80,81,77,70,71,72,73,71,1
459,449,74,69,69,69,74,73,68,67,72,73,1
461,483,77,78,79,80,81,78,77,82,83,84,1
244,456,72,74,76,76,75,70,72,74,73,74,1
449,241,73,68,67,72,73,85,86,90,91,85,0
457,461,73,74,76,76,77,77,78,79,80,81,1
452,481,73,73,77,76,82,78,78,80,81,77,0
1860,244,73,76,77,77,75,72,74,76,76,75,-1
1853,448,72,73,74,74,73,75,77,80,80,81,1
573,459,78,71,75,70,78,74,69,69,69,74,1
243,453,83,84,88,87,89,72,75,75,75,77,1
456,479,70,72,74,73,74,70,73,75,73,74,-1
480,110832,70,71,72,73,71,72,72,76,75,72,1
483,240,78,77,82,83,84,81,80,84,85,75,-1
