homeId,homeOVA,homeATT,homeMID,homeDEF,awayId,awayOVA,awayATT,awayMID,awayDEF,homeBest11,homeBest4sub,homeBest4def,homeBest3mid,homeBest3att,homeBestGK,awayBest11,awayBest4sub,awayBest4def,awayBest3med,awayBest3att,awayBestGK,TAG
243,84,81,80,78,240,79,82,77,77,84,78,84,84,83,89,81,80,81,81,83,82,1
481,79,83,73,77,1860,74,72,74,75,81,79,80,79,84,85,78,75,78,75,78,83,1
448,76,75,74,73,479,78,80,76,74,74,70,73,74,75,76,76,70,74,79,77,80,0
453,72,71,72,71,1853,74,75,74,73,76,73,75,77,77,73,75,72,73,76,77,79,1
1855,72,71,73,70,244,76,78,74,72,0,0,0,0,0,0,80,76,78,82,82,76,1
571,72,74,73,70,449,76,75,74,76,76,70,77,77,76,73,0,0,0,0,0,0,0
456,72,74,72,67,241,85,83,83,82,76,73,75,77,79,73,86,78,86,87,87,82,0
461,81,86,80,78,483,77,81,77,74,83,80,82,82,87,85,79,76,77,84,79,75,-1
1853,74,75,74,73,1855,72,71,73,70,75,72,73,76,77,79,0,0,0,0,0,0,0
244,76,78,74,72,456,72,74,72,67,80,76,78,82,82,76,76,73,75,77,79,73,0
461,81,86,80,78,0,0,0,0,0,0,83,80,82,82,87,85,-1
240,79,82,77,77,453,72,71,72,71,81,80,81,81,83,82,76,73,75,77,77,73,0
241,85,83,83,82,448,76,75,74,73,86,78,86,87,87,82,74,70,73,74,75,76,1
449,76,75,74,76,452,76,78,74,68,0,0,0,0,0,0,78,73,76,80,79,79,0
1860,74,72,74,75,571,72,74,73,70,78,75,78,75,78,83,76,70,77,77,76,73,0
242,75,72,74,74,74,72,73,74,77,73,0,0,0,0,0,0,0
483,77,81,77,74,243,84,81,80,78,79,76,77,84,79,75,84,78,84,84,83,89,-1
448,76,75,74,73,244,76,78,74,72,74,70,73,74,75,76,80,76,78,82,82,76,0
452,76,78,74,68,1860,74,72,74,75,78,73,76,80,79,79,78,75,78,75,78,83,1
242,75,72,74,74,449,76,75,74,76,0,0,0,0,0,0,0,0,0,0,0,0,1
453,72,71,72,71,483,77,81,77,74,76,73,75,77,77,73,79,76,77,84,79,75,-1
1855,72,71,73,70,240,79,82,77,77,0,0,0,0,0,0,81,80,81,81,83,82,0
479,78,80,76,74,241,85,83,83,82,76,70,74,79,77,80,86,78,86,87,87,82,0
456,72,74,72,67,1853,74,75,74,73,76,73,75,77,79,73,75,72,73,76,77,79,1
481,79,83,73,77,571,72,74,73,70,81,79,80,79,84,85,76,70,77,77,76,73,1
241,85,83,83,82,481,79,83,73,77,86,78,86,87,87,82,81,79,80,79,84,85,1
571,72,74,73,70,452,76,78,74,68,76,70,77,77,76,73,78,73,76,80,79,79,1
453,72,71,72,71,0,0,0,0,0,0,76,73,75,77,77,73,0
240,79,82,77,77,456,72,74,72,67,81,80,81,81,83,82,76,73,75,77,79,73,1
449,76,75,74,76,461,81,86,80,78,0,0,0,0,0,0,83,80,82,82,87,85,-1
1860,74,72,74,75,242,75,72,74,74,78,75,78,75,78,83,0,0,0,0,0,0,0
1853,74,75,74,73,448,76,75,74,73,75,72,73,76,77,79,74,70,73,74,75,76,-1
243,84,81,80,78,74,72,73,74,77,73,84,78,84,84,83,89,0
483,77,81,77,74,1855,72,71,73,70,79,76,77,84,79,75,0,0,0,0,0,0,1
244,76,78,74,72,479,78,80,76,74,80,76,78,82,82,76,76,70,74,79,77,80,1
481,79,83,73,77,452,76,78,74,68,81,79,80,79,84,85,78,73,76,80,79,79,-1
448,76,75,74,73,240,79,82,77,77,74,70,73,74,75,76,81,80,81,81,83,82,-1
241,85,83,83,82,244,76,78,74,72,86,78,86,87,87,82,80,76,78,82,82,76,1
242,75,72,74,74,571,72,74,73,70,0,0,0,0,0,0,76,70,77,77,76,73,-1
479,78,80,76,74,1853,74,75,74,73,76,70,74,79,77,80,75,72,73,76,77,79,1
456,72,74,72,67,483,77,81,77,74,76,73,75,77,79,73,79,76,77,84,79,75,-1
461,81,86,80,78,1860,74,72,74,75,83,80,82,82,87,85,78,75,78,75,78,83,1
243,84,81,80,78,449,76,75,74,76,84,78,84,84,83,89,0,0,0,0,0,0,1
1853,74,75,74,73,241,85,83,83,82,75,72,73,76,77,79,86,78,86,87,87,82,-1
244,76,78,74,72,481,79,83,73,77,80,76,78,82,82,76,81,79,80,79,84,85,1
456,72,74,72,67,0,0,0,0,0,0,76,73,75,77,79,73,-1
240,79,82,77,77,479,78,80,76,74,81,80,81,81,83,82,76,70,74,79,77,80,1
449,76,75,74,76,453,72,71,72,71,0,0,0,0,0,0,76,73,75,77,77,73,1
452,76,78,74,68,242,75,72,74,74,78,73,76,80,79,79,0,0,0,0,0,0,1
1860,74,72,74,75,243,84,81,80,78,78,75,78,75,78,83,84,78,84,84,83,89,-1
571,72,74,73,70,461,81,86,80,78,76,70,77,77,76,73,83,80,82,82,87,85,-1
1855,72,71,73,70,74,72,73,74,77,73,0,0,0,0,0,0,-1
483,77,81,77,74,448,76,75,74,73,79,76,77,84,79,75,74,70,73,74,75,76,1
461,81,86,80,78,452,76,78,74,68,83,80,82,82,87,85,78,73,76,80,79,79,-1
241,85,83,83,82,240,79,82,77,77,86,78,86,87,87,82,81,80,81,81,83,82,1
453,72,71,72,71,1860,74,72,74,75,76,73,75,77,77,73,78,75,78,75,78,83,1
1855,72,71,73,70,449,76,75,74,76,0,0,0,0,0,0,0,0,0,0,0,0,0
479,78,80,76,74,483,77,81,77,74,76,70,74,79,77,80,79,76,77,84,79,75,1
243,84,81,80,78,571,72,74,73,70,84,78,84,84,83,89,76,70,77,77,76,73,1
481,79,83,73,77,242,75,72,74,74,81,79,80,79,84,85,0,0,0,0,0,0,-1
244,76,78,74,72,1853,74,75,74,73,80,76,78,82,82,76,75,72,73,76,77,79,1
452,76,78,74,68,243,84,81,80,78,78,73,76,80,79,79,84,78,84,84,83,89,1
242,75,72,74,74,461,81,86,80,78,0,0,0,0,0,0,83,80,82,82,87,85,-1
1853,74,75,74,73,481,79,83,73,77,75,72,73,76,77,79,81,79,80,79,84,85,-1
483,77,81,77,74,241,85,83,83,82,79,76,77,84,79,75,86,78,86,87,87,82,1
479,78,80,76,74,0,0,0,0,0,0,76,70,74,79,77,80,1
240,79,82,77,77,244,76,78,74,72,81,80,81,81,83,82,80,76,78,82,82,76,1
449,76,75,74,76,456,72,74,72,67,0,0,0,0,0,0,76,73,75,77,79,73,0
1860,74,72,74,75,1855,72,71,73,70,78,75,78,75,78,83,0,0,0,0,0,0,1
571,72,74,73,70,453,72,71,72,71,76,70,77,77,76,73,76,73,75,77,77,73,-1
448,76,75,74,73,74,72,73,74,77,73,74,70,73,74,75,76,-1
448,76,75,74,73,449,76,75,74,76,74,70,73,74,75,76,0,0,0,0,0,0,0
453,72,71,72,71,452,76,78,74,68,76,73,75,77,77,73,78,73,76,80,79,79,0
243,84,81,80,78,242,75,72,74,74,84,78,84,84,83,89,0,0,0,0,0,0,1
1853,74,75,74,73,240,79,82,77,77,75,72,73,76,77,79,81,80,81,81,83,82,-1
1855,72,71,73,70,571,72,74,73,70,0,0,0,0,0,0,76,70,77,77,76,73,1
456,72,74,72,67,1860,74,72,74,75,76,73,75,77,79,73,78,75,78,75,78,83,1
481,79,83,73,77,461,81,86,80,78,81,79,80,79,84,85,83,80,82,82,87,85,1
244,76,78,74,72,483,77,81,77,74,80,76,78,82,82,76,79,76,77,84,79,75,1
244,76,78,74,72,0,0,0,0,0,0,80,76,78,82,82,76,-1
240,79,82,77,77,481,79,83,73,77,81,80,81,81,83,82,81,79,80,79,84,85,1
449,76,75,74,76,479,78,80,76,74,0,0,0,0,0,0,76,70,74,79,77,80,-1
1860,74,72,74,75,448,76,75,74,73,78,75,78,75,78,83,74,70,73,74,75,76,1
242,75,72,74,74,453,72,71,72,71,0,0,0,0,0,0,76,73,75,77,77,73,0
571,72,74,73,70,456,72,74,72,67,76,70,77,77,76,73,76,73,75,77,79,73,0
461,81,86,80,78,243,84,81,80,78,83,80,82,82,87,85,84,78,84,84,83,89,-1
483,77,81,77,74,1853,74,75,74,73,79,76,77,84,79,75,75,72,73,76,77,79,1
452,76,78,74,68,1855,72,71,73,70,78,73,76,80,79,79,0,0,0,0,0,0,0
241,85,83,83,82,74,72,73,74,77,73,86,78,86,87,87,82,0
453,72,71,72,71,461,81,86,80,78,76,73,75,77,77,73,83,80,82,82,87,85,-1
481,79,83,73,77,243,84,81,80,78,81,79,80,79,84,85,84,78,84,84,83,89,1
448,76,75,74,73,571,72,74,73,70,74,70,73,74,75,76,76,70,77,77,76,73,1
240,79,82,77,77,483,77,81,77,74,81,80,81,81,83,82,79,76,77,84,79,75,-1
241,85,83,83,82,449,76,75,74,76,86,78,86,87,87,82,0,0,0,0,0,0,1
1855,72,71,73,70,242,75,72,74,74,0,0,0,0,0,0,0,0,0,0,0,0,-1
479,78,80,76,74,1860,74,72,74,75,76,70,74,79,77,80,78,75,78,75,78,83,-1
456,72,74,72,67,452,76,78,74,68,76,73,75,77,79,73,78,73,76,80,79,79,0
1860,74,72,74,75,241,85,83,83,82,78,75,78,75,78,83,86,78,86,87,87,82,1
461,81,86,80,78,1855,72,71,73,70,83,80,82,82,87,85,0,0,0,0,0,0,1
240,79,82,77,77,0,0,0,0,0,0,81,80,81,81,83,82,0
449,76,75,74,76,244,76,78,74,72,0,0,0,0,0,0,80,76,78,82,82,76,1
452,76,78,74,68,448,76,75,74,73,78,73,76,80,79,79,74,70,73,74,75,76,1
242,75,72,74,74,456,72,74,72,67,0,0,0,0,0,0,76,73,75,77,79,73,-1
243,84,81,80,78,453,72,71,72,71,84,78,84,84,83,89,76,73,75,77,77,73,1
571,72,74,73,70,479,78,80,76,74,76,70,77,77,76,73,76,70,74,79,77,80,1
1853,74,75,74,73,74,72,73,74,77,73,75,72,73,76,77,79,1
483,77,81,77,74,481,79,83,73,77,79,76,77,84,79,75,81,79,80,79,84,85,1
241,85,83,83,82,571,72,74,73,70,86,78,86,87,87,82,76,70,77,77,76,73,1
1855,72,71,73,70,243,84,81,80,78,0,0,0,0,0,0,84,78,84,84,83,89,0
481,79,83,73,77,453,72,71,72,71,81,79,80,79,84,85,76,73,75,77,77,73,-1
448,76,75,74,73,242,75,72,74,74,74,70,73,74,75,76,0,0,0,0,0,0,0
1853,74,75,74,73,449,76,75,74,76,75,72,73,76,77,79,0,0,0,0,0,0,1
479,78,80,76,74,452,76,78,74,68,76,70,74,79,77,80,78,73,76,80,79,79,-1
456,72,74,72,67,461,81,86,80,78,76,73,75,77,79,73,83,80,82,82,87,85,1
244,76,78,74,72,1860,74,72,74,75,80,76,78,82,82,76,78,75,78,75,78,83,0
481,79,83,73,77,0,0,0,0,0,0,81,79,80,79,84,85,1
452,76,78,74,68,241,85,83,83,82,78,73,76,80,79,79,86,78,86,87,87,82,0
243,84,81,80,78,456,72,74,72,67,84,78,84,84,83,89,76,73,75,77,79,73,1
449,76,75,74,76,240,79,82,77,77,0,0,0,0,0,0,81,80,81,81,83,82,-1
1860,74,72,74,75,1853,74,75,74,73,78,75,78,75,78,83,75,72,73,76,77,79,1
242,75,72,74,74,479,78,80,76,74,0,0,0,0,0,0,76,70,74,79,77,80,-1
453,72,71,72,71,1855,72,71,73,70,76,73,75,77,77,73,0,0,0,0,0,0,0
571,72,74,73,70,244,76,78,74,72,76,70,77,77,76,73,80,76,78,82,82,76,1
461,81,86,80,78,448,76,75,74,73,83,80,82,82,87,85,74,70,73,74,75,76,-1
483,77,81,77,74,74,72,73,74,77,73,79,76,77,84,79,75,1
479,78,80,76,74,481,79,83,73,77,76,70,74,79,77,80,81,79,80,79,84,85,0
448,76,75,74,73,243,84,81,80,78,74,70,73,74,75,76,84,78,84,84,83,89,-1
479,78,80,76,74,461,81,86,80,78,76,70,74,79,77,80,83,80,82,82,87,85,0
240,79,82,77,77,1860,74,72,74,75,81,80,81,81,83,82,78,75,78,75,78,83,1
241,85,83,83,82,242,75,72,74,74,86,78,86,87,87,82,0,0,0,0,0,0,1
1853,74,75,74,73,571,72,74,73,70,75,72,73,76,77,79,76,70,77,77,76,73,-1
456,72,74,72,67,453,72,71,72,71,76,73,75,77,79,73,76,73,75,77,77,73,1
481,79,83,73,77,1855,72,71,73,70,81,79,80,79,84,85,0,0,0,0,0,0,1
483,77,81,77,74,449,76,75,74,76,79,76,77,84,79,75,0,0,0,0,0,0,-1
244,76,78,74,72,452,76,78,74,68,80,76,78,82,82,76,78,73,76,80,79,79,0
452,76,78,74,68,1853,74,75,74,73,78,73,76,80,79,79,75,72,73,76,77,79,1
461,81,86,80,78,241,85,83,83,82,83,80,82,82,87,85,86,78,86,87,87,82,-1
1860,74,72,74,75,483,77,81,77,74,78,75,78,75,78,83,79,76,77,84,79,75,-1
242,75,72,74,74,244,76,78,74,72,0,0,0,0,0,0,80,76,78,82,82,76,0
453,72,71,72,71,448,76,75,74,73,76,73,75,77,77,73,74,70,73,74,75,76,0
1855,72,71,73,70,456,72,74,72,67,0,0,0,0,0,0,76,73,75,77,79,73,1
243,84,81,80,78,479,78,80,76,74,84,78,84,84,83,89,76,70,74,79,77,80,1
571,72,74,73,70,240,79,82,77,77,76,70,77,77,76,73,81,80,81,81,83,82,0
481,79,83,73,77,74,72,73,74,77,73,81,79,80,79,84,85,0
1860,74,72,74,75,0,0,0,0,0,0,78,75,78,75,78,83,-1
481,79,83,73,77,456,72,74,72,67,81,79,80,79,84,85,76,73,75,77,79,73,1
244,76,78,74,72,461,81,86,80,78,80,76,78,82,82,76,83,80,82,82,87,85,0
448,76,75,74,73,1855,72,71,73,70,74,70,73,74,75,76,0,0,0,0,0,0,0
240,79,82,77,77,452,76,78,74,68,81,80,81,81,83,82,78,73,76,80,79,79,-1
241,85,83,83,82,243,84,81,80,78,86,78,86,87,87,82,84,78,84,84,83,89,-1
1853,74,75,74,73,242,75,72,74,74,75,72,73,76,77,79,0,0,0,0,0,0,-1
479,78,80,76,74,453,72,71,72,71,76,70,74,79,77,80,76,73,75,77,77,73,1
449,76,75,74,76,74,72,73,74,77,73,0,0,0,0,0,0,0
483,77,81,77,74,571,72,74,73,70,79,76,77,84,79,75,76,70,77,77,76,73,0
452,76,78,74,68,483,77,81,77,74,78,73,76,80,79,79,79,76,77,84,79,75,1
453,72,71,72,71,241,85,83,83,82,76,73,75,77,77,73,86,78,86,87,87,82,-1
242,75,72,74,74,240,79,82,77,77,0,0,0,0,0,0,81,80,81,81,83,82,-1
1855,72,71,73,70,479,78,80,76,74,0,0,0,0,0,0,76,70,74,79,77,80,1
243,84,81,80,78,244,76,78,74,72,84,78,84,84,83,89,80,76,78,82,82,76,1
456,72,74,72,67,448,76,75,74,73,76,73,75,77,79,73,74,70,73,74,75,76,1
481,79,83,73,77,449,76,75,74,76,81,79,80,79,84,85,0,0,0,0,0,0,1
461,81,86,80,78,1853,74,75,74,73,83,80,82,82,87,85,75,72,73,76,77,79,0
448,76,75,74,73,481,79,83,73,77,74,70,73,74,75,76,81,79,80,79,84,85,1
241,85,83,83,82,1855,72,71,73,70,86,78,86,87,87,82,0,0,0,0,0,0,1
452,76,78,74,68,0,0,0,0,0,0,78,73,76,80,79,79,1
240,79,82,77,77,461,81,86,80,78,81,80,81,81,83,82,83,80,82,82,87,85,1
449,76,75,74,76,1860,74,72,74,75,0,0,0,0,0,0,78,75,78,75,78,83,1
1853,74,75,74,73,243,84,81,80,78,75,72,73,76,77,79,84,78,84,84,83,89,-1
479,78,80,76,74,456,72,74,72,67,76,70,74,79,77,80,76,73,75,77,79,73,-1
571,72,74,73,70,74,72,73,74,77,73,76,70,77,77,76,73,1
483,77,81,77,74,242,75,72,74,74,79,76,77,84,79,75,0,0,0,0,0,0,1
244,76,78,74,72,453,72,71,72,71,80,76,78,82,82,76,76,73,75,77,77,73,0
1860,74,72,74,75,481,79,83,73,77,78,75,78,75,78,83,81,79,80,79,84,85,1
483,77,81,77,74,461,81,86,80,78,79,76,77,84,79,75,83,80,82,82,87,85,1
242,75,72,74,74,0,0,0,0,0,0,0,0,0,0,0,0,1
240,79,82,77,77,243,84,81,80,78,81,80,81,81,83,82,84,78,84,84,83,89,-1
241,85,83,83,82,456,72,74,72,67,86,78,86,87,87,82,76,73,75,77,79,73,1
449,76,75,74,76,571,72,74,73,70,0,0,0,0,0,0,76,70,77,77,76,73,0
1853,74,75,74,73,453,72,71,72,71,75,72,73,76,77,79,76,73,75,77,77,73,0
479,78,80,76,74,448,76,75,74,73,76,70,74,79,77,80,74,70,73,74,75,76,1
452,76,78,74,68,74,72,73,74,77,73,78,73,76,80,79,79,1
244,76,78,74,72,1855,72,71,73,70,80,76,78,82,82,76,0,0,0,0,0,0,1
481,79,83,73,77,479,78,80,76,74,81,79,80,79,84,85,76,70,74,79,77,80,1
448,76,75,74,73,241,85,83,83,82,74,70,73,74,75,76,86,78,86,87,87,82,0
452,76,78,74,68,449,76,75,74,76,78,73,76,80,79,79,0,0,0,0,0,0,-1
453,72,71,72,71,240,79,82,77,77,76,73,75,77,77,73,81,80,81,81,83,82,1
1855,72,71,73,70,1853,74,75,74,73,0,0,0,0,0,0,75,72,73,76,77,79,-1
243,84,81,80,78,483,77,81,77,74,84,78,84,84,83,89,79,76,77,84,79,75,1
571,72,74,73,70,1860,74,72,74,75,76,70,77,77,76,73,78,75,78,75,78,83,-1
456,72,74,72,67,244,76,78,74,72,76,73,75,77,79,73,80,76,78,82,82,76,0
243,84,81,80,78,0,0,0,0,0,0,84,78,84,84,83,89,1
449,76,75,74,76,242,75,72,74,74,0,0,0,0,0,0,0,0,0,0,0,0,-1
240,79,82,77,77,1855,72,71,73,70,81,80,81,81,83,82,0,0,0,0,0,0,0
241,85,83,83,82,479,78,80,76,74,86,78,86,87,87,82,76,70,74,79,77,80,1
1860,74,72,74,75,452,76,78,74,68,78,75,78,75,78,83,78,73,76,80,79,79,-1
1853,74,75,74,73,456,72,74,72,67,75,72,73,76,77,79,76,73,75,77,79,73,0
571,72,74,73,70,481,79,83,73,77,76,70,77,77,76,73,81,79,80,79,84,85,-1
461,81,86,80,78,74,72,73,74,77,73,83,80,82,82,87,85,-1
483,77,81,77,74,453,72,71,72,71,79,76,77,84,79,75,76,73,75,77,77,73,0
244,76,78,74,72,448,76,75,74,73,80,76,78,82,82,76,74,70,73,74,75,76,1
242,75,72,74,74,1860,74,72,74,75,0,0,0,0,0,0,78,75,78,75,78,83,0
1855,72,71,73,70,483,77,81,77,74,0,0,0,0,0,0,79,76,77,84,79,75,-1
481,79,83,73,77,241,85,83,83,82,81,79,80,79,84,85,86,78,86,87,87,82,0
448,76,75,74,73,1853,74,75,74,73,74,70,73,74,75,76,75,72,73,76,77,79,1
452,76,78,74,68,571,72,74,73,70,78,73,76,80,79,79,76,70,77,77,76,73,-1
479,78,80,76,74,244,76,78,74,72,76,70,74,79,77,80,80,76,78,82,82,76,1
456,72,74,72,67,240,79,82,77,77,76,73,75,77,79,73,81,80,81,81,83,82,-1
461,81,86,80,78,449,76,75,74,76,83,80,82,82,87,85,0,0,0,0,0,0,1
449,76,75,74,76,243,84,81,80,78,0,0,0,0,0,0,84,78,84,84,83,89,1
452,76,78,74,68,481,79,83,73,77,78,73,76,80,79,79,81,79,80,79,84,85,-1
244,76,78,74,72,241,85,83,83,82,80,76,78,82,82,76,86,78,86,87,87,82,-1
1855,72,71,73,70,0,0,0,0,0,0,0,0,0,0,0,0,1
240,79,82,77,77,448,76,75,74,73,81,80,81,81,83,82,74,70,73,74,75,76,-1
1860,74,72,74,75,461,81,86,80,78,78,75,78,75,78,83,83,80,82,82,87,85,0
1853,74,75,74,73,479,78,80,76,74,75,72,73,76,77,79,76,70,74,79,77,80,1
571,72,74,73,70,242,75,72,74,74,76,70,77,77,76,73,0,0,0,0,0,0,1
453,72,71,72,71,74,72,73,74,77,73,76,73,75,77,77,73,0
483,77,81,77,74,456,72,74,72,67,79,76,77,84,79,75,76,73,75,77,79,73,0
481,79,83,73,77,244,76,78,74,72,81,79,80,79,84,85,80,76,78,82,82,76,1
461,81,86,80,78,571,72,74,73,70,83,80,82,82,87,85,76,70,77,77,76,73,0
448,76,75,74,73,483,77,81,77,74,74,70,73,74,75,76,79,76,77,84,79,75,-1
241,85,83,83,82,1853,74,75,74,73,86,78,86,87,87,82,75,72,73,76,77,79,1
242,75,72,74,74,452,76,78,74,68,0,0,0,0,0,0,78,73,76,80,79,79,1
453,72,71,72,71,449,76,75,74,76,76,73,75,77,77,73,0,0,0,0,0,0,0
479,78,80,76,74,240,79,82,77,77,76,70,74,79,77,80,81,80,81,81,83,82,1
243,84,81,80,78,1860,74,72,74,75,84,78,84,84,83,89,78,75,78,75,78,83,-1
240,79,82,77,77,241,85,83,83,82,81,80,81,81,83,82,86,78,86,87,87,82,1
452,76,78,74,68,461,81,86,80,78,78,73,76,80,79,79,83,80,82,82,87,85,1
242,75,72,74,74,481,79,83,73,77,0,0,0,0,0,0,81,79,80,79,84,85,1
571,72,74,73,70,243,84,81,80,78,76,70,77,77,76,73,84,78,84,84,83,89,-1
448,76,75,74,73,0,0,0,0,0,0,74,70,73,74,75,76,0
449,76,75,74,76,1855,72,71,73,70,0,0,0,0,0,0,0,0,0,0,0,0,1
1860,74,72,74,75,453,72,71,72,71,78,75,78,75,78,83,76,73,75,77,77,73,0
1853,74,75,74,73,244,76,78,74,72,75,72,73,76,77,79,80,76,78,82,82,76,1
456,72,74,72,67,74,72,73,74,77,73,76,73,75,77,79,73,-1
483,77,81,77,74,479,78,80,76,74,79,76,77,84,79,75,76,70,74,79,77,80,0
243,84,81,80,78,452,76,78,74,68,84,78,84,84,83,89,78,73,76,80,79,79,1
244,76,78,74,72,240,79,82,77,77,80,76,78,82,82,76,81,80,81,81,83,82,1
241,85,83,83,82,483,77,81,77,74,86,78,86,87,87,82,79,76,77,84,79,75,-1
453,72,71,72,71,571,72,74,73,70,76,73,75,77,77,73,76,70,77,77,76,73,1
1855,72,71,73,70,1860,74,72,74,75,0,0,0,0,0,0,78,75,78,75,78,83,-1
456,72,74,72,67,449,76,75,74,76,76,73,75,77,79,73,0,0,0,0,0,0,1
481,79,83,73,77,1853,74,75,74,73,81,79,80,79,84,85,75,72,73,76,77,79,1
461,81,86,80,78,242,75,72,74,74,83,80,82,82,87,85,0,0,0,0,0,0,0
449,76,75,74,76,448,76,75,74,73,0,0,0,0,0,0,74,70,73,74,75,76,-1
242,75,72,74,74,243,84,81,80,78,0,0,0,0,0,0,84,78,84,84,83,89,1
571,72,74,73,70,1855,72,71,73,70,76,70,77,77,76,73,0,0,0,0,0,0,1
461,81,86,80,78,481,79,83,73,77,83,80,82,82,87,85,81,79,80,79,84,85,-1
241,85,83,83,82,0,0,0,0,0,0,86,78,86,87,87,82,0
240,79,82,77,77,1853,74,75,74,73,81,80,81,81,83,82,75,72,73,76,77,79,1
452,76,78,74,68,453,72,71,72,71,78,73,76,80,79,79,76,73,75,77,77,73,1
1860,74,72,74,75,456,72,74,72,67,78,75,78,75,78,83,76,73,75,77,79,73,1
479,78,80,76,74,74,72,73,74,77,73,76,70,74,79,77,80,0
483,77,81,77,74,244,76,78,74,72,79,76,77,84,79,75,80,76,78,82,82,76,1
453,72,71,72,71,242,75,72,74,74,76,73,75,77,77,73,0,0,0,0,0,0,1
481,79,83,73,77,240,79,82,77,77,81,79,80,79,84,85,81,80,81,81,83,82,-1
448,76,75,74,73,1860,74,72,74,75,74,70,73,74,75,76,78,75,78,75,78,83,1
1853,74,75,74,73,483,77,81,77,74,75,72,73,76,77,79,79,76,77,84,79,75,-1
1855,72,71,73,70,452,76,78,74,68,0,0,0,0,0,0,78,73,76,80,79,79,1
479,78,80,76,74,449,76,75,74,76,76,70,74,79,77,80,0,0,0,0,0,0,-1
243,84,81,80,78,461,81,86,80,78,84,78,84,84,83,89,83,80,82,82,87,85,-1
456,72,74,72,67,571,72,74,73,70,76,73,75,77,79,73,76,70,77,77,76,73,1
449,76,75,74,76,241,85,83,83,82,0,0,0,0,0,0,86,78,86,87,87,82,1
483,77,81,77,74,240,79,82,77,77,79,76,77,84,79,75,81,80,81,81,83,82,1
1853,74,75,74,73,0,0,0,0,0,0,75,72,73,76,77,79,1
452,76,78,74,68,456,72,74,72,67,78,73,76,80,79,79,76,73,75,77,79,73,-1
1860,74,72,74,75,479,78,80,76,74,78,75,78,75,78,83,76,70,74,79,77,80,-1
242,75,72,74,74,1855,72,71,73,70,0,0,0,0,0,0,0,0,0,0,0,0,1
243,84,81,80,78,481,79,83,73,77,84,78,84,84,83,89,81,79,80,79,84,85,1
571,72,74,73,70,448,76,75,74,73,76,70,77,77,76,73,74,70,73,74,75,76,0
461,81,86,80,78,453,72,71,72,71,83,80,82,82,87,85,76,73,75,77,77,73,-1
244,76,78,74,72,74,72,73,74,77,73,80,76,78,82,82,76,1
453,72,71,72,71,243,84,81,80,78,76,73,75,77,77,73,84,78,84,84,83,89,0
479,78,80,76,74,571,72,74,73,70,76,70,74,79,77,80,76,70,77,77,76,73,-1
448,76,75,74,73,452,76,78,74,68,74,70,73,74,75,76,78,73,76,80,79,79,1
241,85,83,83,82,1860,74,72,74,75,86,78,86,87,87,82,78,75,78,75,78,83,0
1855,72,71,73,70,461,81,86,80,78,0,0,0,0,0,0,83,80,82,82,87,85,1
456,72,74,72,67,242,75,72,74,74,76,73,75,77,79,73,0,0,0,0,0,0,-1
481,79,83,73,77,483,77,81,77,74,81,79,80,79,84,85,79,76,77,84,79,75,1
244,76,78,74,72,449,76,75,74,76,80,76,78,82,82,76,0,0,0,0,0,0,-1
571,72,74,73,70,241,85,83,83,82,76,70,77,77,76,73,86,78,86,87,87,82,0
461,81,86,80,78,456,72,74,72,67,83,80,82,82,87,85,76,73,75,77,79,73,-1
483,77,81,77,74,0,0,0,0,0,0,79,76,77,84,79,75,1
449,76,75,74,76,1853,74,75,74,73,0,0,0,0,0,0,75,72,73,76,77,79,-1
452,76,78,74,68,479,78,80,76,74,78,73,76,80,79,79,76,70,74,79,77,80,-1
1860,74,72,74,75,244,76,78,74,72,78,75,78,75,78,83,80,76,78,82,82,76,0
242,75,72,74,74,448,76,75,74,73,0,0,0,0,0,0,74,70,73,74,75,76,1
453,72,71,72,71,481,79,83,73,77,76,73,75,77,77,73,81,79,80,79,84,85,-1
243,84,81,80,78,1855,72,71,73,70,84,78,84,84,83,89,0,0,0,0,0,0,1
240,79,82,77,77,74,72,73,74,77,73,81,80,81,81,83,82,0
240,79,82,77,77,449,76,75,74,76,81,80,81,81,83,82,0,0,0,0,0,0,-1
241,85,83,83,82,452,76,78,74,68,86,78,86,87,87,82,78,73,76,80,79,79,0
244,76,78,74,72,571,72,74,73,70,80,76,78,82,82,76,76,70,77,77,76,73,1
448,76,75,74,73,461,81,86,80,78,74,70,73,74,75,76,83,80,82,82,87,85,1
1853,74,75,74,73,1860,74,72,74,75,75,72,73,76,77,79,78,75,78,75,78,83,1
1855,72,71,73,70,453,72,71,72,71,0,0,0,0,0,0,76,73,75,77,77,73,-1
479,78,80,76,74,242,75,72,74,74,76,70,74,79,77,80,0,0,0,0,0,0,-1
456,72,74,72,67,243,84,81,80,78,76,73,75,77,79,73,84,78,84,84,83,89,-1
242,75,72,74,74,241,85,83,83,82,0,0,0,0,0,0,86,78,86,87,87,82,1
1855,72,71,73,70,481,79,83,73,77,0,0,0,0,0,0,81,79,80,79,84,85,0
449,76,75,74,76,483,77,81,77,74,0,0,0,0,0,0,79,76,77,84,79,75,-1
452,76,78,74,68,244,76,78,74,72,78,73,76,80,79,79,80,76,78,82,82,76,0
1860,74,72,74,75,240,79,82,77,77,78,75,78,75,78,83,81,80,81,81,83,82,0
453,72,71,72,71,456,72,74,72,67,76,73,75,77,77,73,76,73,75,77,79,73,1
243,84,81,80,78,448,76,75,74,73,84,78,84,84,83,89,74,70,73,74,75,76,1
571,72,74,73,70,1853,74,75,74,73,76,70,77,77,76,73,75,72,73,76,77,79,1
461,81,86,80,78,479,78,80,76,74,83,80,82,82,87,85,76,70,74,79,77,80,1
240,79,82,77,77,571,72,74,73,70,81,80,81,81,83,82,76,70,77,77,76,73,1
244,76,78,74,72,242,75,72,74,74,80,76,78,82,82,76,0,0,0,0,0,0,1
449,76,75,74,76,0,0,0,0,0,0,0,0,0,0,0,0,0
448,76,75,74,73,453,72,71,72,71,74,70,73,74,75,76,76,73,75,77,77,73,-1
241,85,83,83,82,461,81,86,80,78,86,78,86,87,87,82,83,80,82,82,87,85,1
1853,74,75,74,73,452,76,78,74,68,75,72,73,76,77,79,78,73,76,80,79,79,0
479,78,80,76,74,243,84,81,80,78,76,70,74,79,77,80,84,78,84,84,83,89,-1
456,72,74,72,67,1855,72,71,73,70,76,73,75,77,79,73,0,0,0,0,0,0,1
483,77,81,77,74,1860,74,72,74,75,79,76,77,84,79,75,78,75,78,75,78,83,1
242,75,72,74,74,1853,74,75,74,73,0,0,0,0,0,0,75,72,73,76,77,79,1
453,72,71,72,71,479,78,80,76,74,76,73,75,77,77,73,76,70,74,79,77,80,1
1855,72,71,73,70,448,76,75,74,73,0,0,0,0,0,0,74,70,73,74,75,76,-1
243,84,81,80,78,241,85,83,83,82,84,78,84,84,83,89,86,78,86,87,87,82,1
571,72,74,73,70,483,77,81,77,74,76,70,77,77,76,73,79,76,77,84,79,75,-1
456,72,74,72,67,481,79,83,73,77,76,73,75,77,79,73,81,79,80,79,84,85,-1
461,81,86,80,78,244,76,78,74,72,83,80,82,82,87,85,80,76,78,82,82,76,1
452,76,78,74,68,240,79,82,77,77,78,73,76,80,79,79,81,80,81,81,83,82,-1
571,72,74,73,70,0,0,0,0,0,0,76,70,77,77,76,73,-1
448,76,75,74,73,456,72,74,72,67,74,70,73,74,75,76,76,73,75,77,79,73,0
240,79,82,77,77,242,75,72,74,74,81,80,81,81,83,82,0,0,0,0,0,0,1
241,85,83,83,82,453,72,71,72,71,86,78,86,87,87,82,76,73,75,77,77,73,-1
449,76,75,74,76,481,79,83,73,77,0,0,0,0,0,0,81,79,80,79,84,85,-1
1853,74,75,74,73,461,81,86,80,78,75,72,73,76,77,79,83,80,82,82,87,85,-1
479,78,80,76,74,1855,72,71,73,70,76,70,74,79,77,80,0,0,0,0,0,0,1
1860,74,72,74,75,74,72,73,74,77,73,78,75,78,75,78,83,0
483,77,81,77,74,452,76,78,74,68,79,76,77,84,79,75,78,73,76,80,79,79,1
244,76,78,74,72,243,84,81,80,78,80,76,78,82,82,76,84,78,84,84,83,89,0
1855,72,71,73,70,241,85,83,83,82,0,0,0,0,0,0,86,78,86,87,87,82,-1
1860,74,72,74,75,449,76,75,74,76,78,75,78,75,78,83,0,0,0,0,0,0,0
242,75,72,74,74,483,77,81,77,74,0,0,0,0,0,0,79,76,77,84,79,75,-1
453,72,71,72,71,244,76,78,74,72,76,73,75,77,77,73,80,76,78,82,82,76,1
243,84,81,80,78,1853,74,75,74,73,84,78,84,84,83,89,75,72,73,76,77,79,1
456,72,74,72,67,479,78,80,76,74,76,73,75,77,79,73,76,70,74,79,77,80,1
481,79,83,73,77,448,76,75,74,73,81,79,80,79,84,85,74,70,73,74,75,76,1
461,81,86,80,78,240,79,82,77,77,83,80,82,82,87,85,81,80,81,81,83,82,1
