n_neighbors,weights,groups_score,special_score
3,uniform,43.57142857142856,54.5945945945946
3,distance,42.14285714285714,54.5945945945946
6,uniform,47.85714285714286,58.37837837837837
6,distance,49.285714285714285,61.08108108108108
9,uniform,45.357142857142854,55.405405405405396
9,distance,40.714285714285715,53.24324324324324
12,uniform,40.35714285714286,51.62162162162163
12,distance,38.214285714285715,52.43243243243243
15,uniform,42.14285714285714,54.32432432432432
15,distance,41.42857142857143,53.24324324324325
18,uniform,40.714285714285715,48.91891891891892
18,distance,38.57142857142858,50.81081081081081
21,uniform,43.57142857142857,53.51351351351351
21,distance,41.78571428571429,54.5945945945946
24,uniform,39.642857142857146,50.810810810810814
24,distance,40.0,51.081081081081074
27,uniform,38.57142857142858,49.189189189189186
27,distance,42.857142857142854,54.86486486486488
30,uniform,39.64285714285715,50.270270270270274
30,distance,39.642857142857146,49.729729729729726
