﻿web-scraper-order,web-scraper-start-url,Name,Nationality / Region,ID,OVA,ATT,MID,DEF,Transfer Budget
"1527968615-14007","https://sofifa.com/teams/club?lg%5B0%5D=53&v=12&e=156820&set=true","Rayo VallecanoSpanish Primera División (1)","SpainEurope","480","72","68","68","66","€800K"
"1527968615-13996","https://sofifa.com/teams/club?lg%5B0%5D=53&v=12&e=156820&set=true","Villarreal CFSpanish Primera División (1)","SpainEurope","483","77","77","76","74","€15M"
"1527968615-14005","https://sofifa.com/teams/club?lg%5B0%5D=53&v=12&e=156820&set=true","Real ZaragozaSpanish Primera División (1)","SpainEurope","244","73","69","66","68","€4.5M"
"1527968615-13995","https://sofifa.com/teams/club?lg%5B0%5D=53&v=12&e=156820&set=true","Athletic Club de BilbaoSpanish Primera División (1)","SpainEurope","448","77","70","71","70","€9.5M"
"1527968615-14003","https://sofifa.com/teams/club?lg%5B0%5D=53&v=12&e=156820&set=true","RCD MallorcaSpanish Primera División (1)","SpainEurope","453","73","66","69","68","€1.5M"
"1527968615-13989","https://sofifa.com/teams/club?lg%5B0%5D=53&v=12&e=156820&set=true","FC BarcelonaSpanish Primera División (1)","SpainEurope","241","86","81","84","80","€77M"
"1527968615-13994","https://sofifa.com/teams/club?lg%5B0%5D=53&v=12&e=156820&set=true","Sevilla FCSpanish Primera División (1)","SpainEurope","481","78","75","72","71","€16M"
"1527968615-14002","https://sofifa.com/teams/club?lg%5B0%5D=53&v=12&e=156820&set=true","Real SociedadSpanish Primera División (1)","SpainEurope","457","73","67","66","70","€3M"
"1527968615-13991","https://sofifa.com/teams/club?lg%5B0%5D=53&v=12&e=156820&set=true","Atlético MadridSpanish Primera División (1)","SpainEurope","240","79","70","72","74","€27M"
"1527968615-14004","https://sofifa.com/teams/club?lg%5B0%5D=53&v=12&e=156820&set=true","Real Betis BalompiéSpanish Primera División (1)","SpainEurope","449","73","68","72","69","€3M"
"1527968615-14008","https://sofifa.com/teams/club?lg%5B0%5D=53&v=12&e=156820&set=true","Racing SantanderSpanish Primera División (1)","SpainEurope","456","72","64","68","67","€900K"
"1527968615-13997","https://sofifa.com/teams/club?lg%5B0%5D=53&v=12&e=156820&set=true","Getafe CFSpanish Primera División (1)","SpainEurope","1860","75","67","72","68","€10M"
"1527968615-14001","https://sofifa.com/teams/club?lg%5B0%5D=53&v=12&e=156820&set=true","Real Sporting de GijónSpanish Primera División (1)","SpainEurope","459","73","69","69","68","€1.4M"
"1527968615-13992","https://sofifa.com/teams/club?lg%5B0%5D=53&v=12&e=156820&set=true","Valencia CFSpanish Primera División (1)","SpainEurope","461","79","74","72","74","€20M"
"1527968615-13999","https://sofifa.com/teams/club?lg%5B0%5D=53&v=12&e=156820&set=true","Levante UDSpanish Primera División (1)","SpainEurope","1853","74","66","68","69","€2.5M"
"1527968615-14006","https://sofifa.com/teams/club?lg%5B0%5D=53&v=12&e=156820&set=true","Granada CFSpanish Primera División (1)","SpainEurope","110832","73","66","68","67","€2.5M"
"1527968615-14000","https://sofifa.com/teams/club?lg%5B0%5D=53&v=12&e=156820&set=true","CA OsasunaSpanish Primera División (1)","SpainEurope","479","73","67","69","69","€4.5M"
"1527968615-13990","https://sofifa.com/teams/club?lg%5B0%5D=53&v=12&e=156820&set=true","Real Madrid CFSpanish Primera División (1)","SpainEurope","243","85","78","79","76","€98.4M"
"1527968615-13998","https://sofifa.com/teams/club?lg%5B0%5D=53&v=12&e=156820&set=true","RCD EspanyolSpanish Primera División (1)","SpainEurope","452","75","70","72","69","€8M"
"1527968615-13993","https://sofifa.com/teams/club?lg%5B0%5D=53&v=12&e=156820&set=true","Málaga CFSpanish Primera División (1)","SpainEurope","573","78","67","74","73","€45M"
