﻿web-scraper-order,web-scraper-start-url,Name,Nationality / Region,ID,OVA,ATT,MID,DEF,Transfer Budget
"1527968978-14122","https://sofifa.com/teams/club?lg%5B0%5D=53&v=15&e=157921&set=true","Granada CFSpanish Primera División (1)","SpainEurope","110832","73","73","74","72","€5M"
"1527968978-14123","https://sofifa.com/teams/club?lg%5B0%5D=53&v=15&e=157921&set=true","RCD EspanyolSpanish Primera División (1)","SpainEurope","452","73","77","72","72","€6.3M"
"1527968978-14117","https://sofifa.com/teams/club?lg%5B0%5D=53&v=15&e=157921&set=true","RC Celta de VigoSpanish Primera División (1)","SpainEurope","450","74","76","74","72","€2.9M"
"1527968978-14116","https://sofifa.com/teams/club?lg%5B0%5D=53&v=15&e=157921&set=true","Villarreal CFSpanish Primera División (1)","SpainEurope","483","76","79","76","73","€8M"
"1527968978-14119","https://sofifa.com/teams/club?lg%5B0%5D=53&v=15&e=157921&set=true","Rayo VallecanoSpanish Primera División (1)","SpainEurope","480","74","73","73","75","€1.5M"
"1527968978-14124","https://sofifa.com/teams/club?lg%5B0%5D=53&v=15&e=157921&set=true","RC Deportivo de La CoruñaSpanish Primera División (1)","SpainEurope","242","73","71","72","72","€420K"
"1527968978-14125","https://sofifa.com/teams/club?lg%5B0%5D=53&v=15&e=157921&set=true","SD EibarSpanish Primera División (1)","SpainEurope","467","72","71","71","71","€250K"
"1527968978-14109","https://sofifa.com/teams/club?lg%5B0%5D=53&v=15&e=157921&set=true","FC BarcelonaSpanish Primera División (1)","SpainEurope","241","84","88","83","81","€80M"
"1527968978-14110","https://sofifa.com/teams/club?lg%5B0%5D=53&v=15&e=157921&set=true","Real Madrid CFSpanish Primera División (1)","SpainEurope","243","84","86","81","82","€95M"
"1527968978-14126","https://sofifa.com/teams/club?lg%5B0%5D=53&v=15&e=157921&set=true","UD AlmeríaSpanish Primera División (1)","SpainEurope","1861","72","72","71","71","€5M"
"1527968978-14113","https://sofifa.com/teams/club?lg%5B0%5D=53&v=15&e=157921&set=true","Sevilla FCSpanish Primera División (1)","SpainEurope","481","78","78","77","77","€18M"
"1527968978-14115","https://sofifa.com/teams/club?lg%5B0%5D=53&v=15&e=157921&set=true","Real SociedadSpanish Primera División (1)","SpainEurope","457","76","78","77","74","€6.3M"
"1527968978-14111","https://sofifa.com/teams/club?lg%5B0%5D=53&v=15&e=157921&set=true","Atlético MadridSpanish Primera División (1)","SpainEurope","240","80","81","81","79","€35M"
"1527968978-14121","https://sofifa.com/teams/club?lg%5B0%5D=53&v=15&e=157921&set=true","Levante UDSpanish Primera División (1)","SpainEurope","1853","73","73","73","72","€3M"
"1527968978-14120","https://sofifa.com/teams/club?lg%5B0%5D=53&v=15&e=157921&set=true","Getafe CFSpanish Primera División (1)","SpainEurope","1860","73","72","70","70","€7.3M"
"1527968978-14128","https://sofifa.com/teams/club?lg%5B0%5D=53&v=15&e=157921&set=true","Córdoba CFSpanish Primera División (1)","SpainEurope","1867","71","71","72","69","€420K"
"1527968978-14114","https://sofifa.com/teams/club?lg%5B0%5D=53&v=15&e=157921&set=true","Athletic Club de BilbaoSpanish Primera División (1)","SpainEurope","448","77","78","75","77","€10.5M"
"1527968978-14127","https://sofifa.com/teams/club?lg%5B0%5D=53&v=15&e=157921&set=true","Elche CFSpanish Primera División (1)","SpainEurope","468","72","74","72","72","€1.9M"
"1527968978-14118","https://sofifa.com/teams/club?lg%5B0%5D=53&v=15&e=157921&set=true","Málaga CFSpanish Primera División (1)","SpainEurope","573","74","72","73","73","€9M"
"1527968978-14112","https://sofifa.com/teams/club?lg%5B0%5D=53&v=15&e=157921&set=true","Valencia CFSpanish Primera División (1)","SpainEurope","461","78","81","79","76","€20M"
