﻿web-scraper-order,web-scraper-start-url,Name,Nationality / Region,ID,OVA,ATT,MID,DEF,Transfer Budget
"1527968496-13932","https://sofifa.com/teams/club?lg%5B0%5D=53&v=11&e=156279&set=true","Sevilla FCSpanish Primera División (1)","SpainEurope","481","79","73","74","74","€24M"
"1527968496-13944","https://sofifa.com/teams/club?lg%5B0%5D=53&v=11&e=156279&set=true","Racing SantanderSpanish Primera División (1)","SpainEurope","456","73","68","69","69","€8M"
"1527968496-13941","https://sofifa.com/teams/club?lg%5B0%5D=53&v=11&e=156279&set=true","RCD MallorcaSpanish Primera División (1)","SpainEurope","453","74","69","67","67","€750K"
"1527968496-13935","https://sofifa.com/teams/club?lg%5B0%5D=53&v=11&e=156279&set=true","Athletic Club de BilbaoSpanish Primera División (1)","SpainEurope","448","76","69","70","70","€8.5M"
"1527968496-13929","https://sofifa.com/teams/club?lg%5B0%5D=53&v=11&e=156279&set=true","FC BarcelonaSpanish Primera División (1)","SpainEurope","241","83","82","80","80","€90M"
"1527968496-13937","https://sofifa.com/teams/club?lg%5B0%5D=53&v=11&e=156279&set=true","RC Deportivo de La CoruñaSpanish Primera División (1)","SpainEurope","242","75","70","70","70","€750K"
"1527968496-13933","https://sofifa.com/teams/club?lg%5B0%5D=53&v=11&e=156279&set=true","Valencia CFSpanish Primera División (1)","SpainEurope","461","79","76","73","72","€21.6M"
"1527968496-13938","https://sofifa.com/teams/club?lg%5B0%5D=53&v=11&e=156279&set=true","UD AlmeríaSpanish Primera División (1)","SpainEurope","1861","74","68","69","67","€5M"
"1527968496-13946","https://sofifa.com/teams/club?lg%5B0%5D=53&v=11&e=156279&set=true","Hércules Club de FútbolSpanish Primera División (1)","SpainEurope","100879","73","72","70","71","€5M"
"1527968496-13934","https://sofifa.com/teams/club?lg%5B0%5D=53&v=11&e=156279&set=true","Villarreal CFSpanish Primera División (1)","SpainEurope","483","78","78","76","73","€17M"
"1527968496-13931","https://sofifa.com/teams/club?lg%5B0%5D=53&v=11&e=156279&set=true","Atlético MadridSpanish Primera División (1)","SpainEurope","240","79","75","70","72","€20.4M"
"1527968496-13936","https://sofifa.com/teams/club?lg%5B0%5D=53&v=11&e=156279&set=true","Getafe CFSpanish Primera División (1)","SpainEurope","1860","75","68","71","69","€9M"
"1527968496-13942","https://sofifa.com/teams/club?lg%5B0%5D=53&v=11&e=156279&set=true","RCD EspanyolSpanish Primera División (1)","SpainEurope","452","74","71","68","67","€6M"
"1527968496-13940","https://sofifa.com/teams/club?lg%5B0%5D=53&v=11&e=156279&set=true","Real Sporting de GijónSpanish Primera División (1)","SpainEurope","459","74","71","67","68","€1.4M"
"1527968496-13939","https://sofifa.com/teams/club?lg%5B0%5D=53&v=11&e=156279&set=true","CA OsasunaSpanish Primera División (1)","SpainEurope","479","74","65","70","68","€5.5M"
"1527968496-13930","https://sofifa.com/teams/club?lg%5B0%5D=53&v=11&e=156279&set=true","Real Madrid CFSpanish Primera División (1)","SpainEurope","243","83","74","79","76","€98.4M"
"1527968496-13945","https://sofifa.com/teams/club?lg%5B0%5D=53&v=11&e=156279&set=true","Málaga CFSpanish Primera División (1)","SpainEurope","573","73","68","71","69","€10M"
"1527968496-13943","https://sofifa.com/teams/club?lg%5B0%5D=53&v=11&e=156279&set=true","Real ZaragozaSpanish Primera División (1)","SpainEurope","244","74","68","68","68","€10M"
"1527968496-13947","https://sofifa.com/teams/club?lg%5B0%5D=53&v=11&e=156279&set=true","Real SociedadSpanish Primera División (1)","SpainEurope","457","72","68","68","67","€3M"
"1527968496-13948","https://sofifa.com/teams/club?lg%5B0%5D=53&v=11&e=156279&set=true","Levante UDSpanish Primera División (1)","SpainEurope","1853","72","67","66","68","€900K"
