﻿web-scraper-order,web-scraper-start-url,Name,Nationality / Region,ID,OVA,ATT,MID,DEF,Transfer Budget
"1527969304-14242","https://sofifa.com/teams/club?lg%5B0%5D=53&v=18&e=158835&set=true","RC Deportivo de La CoruñaSpanish Primera División (1)","SpainEurope","242","76","77","76","77","€9.5M"
"1527969304-14243","https://sofifa.com/teams/club?lg%5B0%5D=53&v=18&e=158835&set=true","Málaga CFSpanish Primera División (1)","SpainEurope","573","76","76","76","76","€9.4M"
"1527969304-14229","https://sofifa.com/teams/club?lg%5B0%5D=53&v=18&e=158835&set=true","Real Madrid CFSpanish Primera División (1)","SpainEurope","243","86","87","86","86","€99.8M"
"1527969304-14240","https://sofifa.com/teams/club?lg%5B0%5D=53&v=18&e=158835&set=true","UD Las PalmasSpanish Primera División (1)","SpainEurope","472","76","75","78","76","€5.7M"
"1527969304-14244","https://sofifa.com/teams/club?lg%5B0%5D=53&v=18&e=158835&set=true","CD LeganésSpanish Primera División (1)","SpainEurope","100888","75","74","75","74","€3.8M"
"1527969304-14236","https://sofifa.com/teams/club?lg%5B0%5D=53&v=18&e=158835&set=true","RCD EspanyolSpanish Primera División (1)","SpainEurope","452","78","78","79","76","€10M"
"1527969304-14245","https://sofifa.com/teams/club?lg%5B0%5D=53&v=18&e=158835&set=true","Levante UDSpanish Primera División (1)","SpainEurope","1853","74","75","75","73","€6.5M"
"1527969304-14233","https://sofifa.com/teams/club?lg%5B0%5D=53&v=18&e=158835&set=true","Sevilla FCSpanish Primera División (1)","SpainEurope","481","80","80","80","79","€34.1M"
"1527969304-14235","https://sofifa.com/teams/club?lg%5B0%5D=53&v=18&e=158835&set=true","Athletic Club de BilbaoSpanish Primera División (1)","SpainEurope","448","79","80","81","79","€17.5M"
"1527969304-14248","https://sofifa.com/teams/club?lg%5B0%5D=53&v=18&e=158835&set=true","Getafe CFSpanish Primera División (1)","SpainEurope","1860","73","73","73","74","€4.9M"
"1527969304-14238","https://sofifa.com/teams/club?lg%5B0%5D=53&v=18&e=158835&set=true","RC Celta de VigoSpanish Primera División (1)","SpainEurope","450","77","77","78","78","€10.4M"
"1527969304-14246","https://sofifa.com/teams/club?lg%5B0%5D=53&v=18&e=158835&set=true","Deportivo AlavésSpanish Primera División (1)","SpainEurope","463","74","70","75","74","€4.4M"
"1527969304-14234","https://sofifa.com/teams/club?lg%5B0%5D=53&v=18&e=158835&set=true","Real SociedadSpanish Primera División (1)","SpainEurope","457","79","81","79","77","€14.3M"
"1527969304-14247","https://sofifa.com/teams/club?lg%5B0%5D=53&v=18&e=158835&set=true","Girona CFSpanish Primera División (1)","SpainEurope","110062","74","76","73","73","€2.6M"
"1527969304-14239","https://sofifa.com/teams/club?lg%5B0%5D=53&v=18&e=158835&set=true","SD EibarSpanish Primera División (1)","SpainEurope","467","77","77","77","76","€5.4M"
"1527969304-14237","https://sofifa.com/teams/club?lg%5B0%5D=53&v=18&e=158835&set=true","Valencia CFSpanish Primera División (1)","SpainEurope","461","78","78","80","79","€54.1M"
"1527969304-14231","https://sofifa.com/teams/club?lg%5B0%5D=53&v=18&e=158835&set=true","Atlético MadridSpanish Primera División (1)","SpainEurope","240","83","84","82","84","€60M"
"1527969304-14230","https://sofifa.com/teams/club?lg%5B0%5D=53&v=18&e=158835&set=true","FC BarcelonaSpanish Primera División (1)","SpainEurope","241","84","89","84","83","€92M"
"1527969304-14241","https://sofifa.com/teams/club?lg%5B0%5D=53&v=18&e=158835&set=true","Real Betis BalompiéSpanish Primera División (1)","SpainEurope","449","76","77","77","75","€15.3M"
"1527969304-14232","https://sofifa.com/teams/club?lg%5B0%5D=53&v=18&e=158835&set=true","Villarreal CFSpanish Primera División (1)","SpainEurope","483","80","80","80","79","€31.1M"
