homeId,homeOVA,homeATT,homeMID,homeDEF,awayId,awayOVA,awayATT,awayMID,awayDEF,TAG
242,77,79,76,77,467,75,75,76,75,1
573,77,76,77,77,479,72,71,73,72,0
241,85,92,86,83,449,77,78,77,76,1
110832,73,72,73,73,483,80,80,80,80,0
481,80,81,80,79,452,77,78,77,76,1
240,83,84,82,84,463,74,74,74,74,0
457,78,78,78,77,243,86,88,86,86,-1
459,75,75,74,75,448,79,80,80,80,1
450,78,76,79,78,100888,74,74,75,74,-1
461,79,79,79,79,472,76,75,78,76,-1
449,77,78,77,76,242,77,79,76,77,0
452,77,78,77,76,573,77,76,77,77,0
467,75,75,76,75,461,79,79,79,79,1
100888,74,74,75,74,240,83,84,82,84,0
479,72,71,73,72,457,78,78,78,77,-1
243,86,88,86,86,450,78,76,79,78,1
463,74,74,74,74,459,75,75,74,75,0
448,79,80,80,80,241,85,92,86,83,-1
472,76,75,78,76,110832,73,72,73,73,1
483,80,80,80,80,481,80,81,80,79,0
457,78,78,78,77,452,77,78,77,76,0
241,85,92,86,83,463,74,74,74,74,-1
450,78,76,79,78,240,83,84,82,84,-1
573,77,76,77,77,483,80,80,80,80,-1
243,86,88,86,86,479,72,71,73,72,1
481,80,81,80,79,472,76,75,78,76,1
110832,73,72,73,73,467,75,75,76,75,-1
242,77,79,76,77,448,79,80,80,80,-1
459,75,75,74,75,100888,74,74,75,74,1
461,79,79,79,79,449,77,78,77,76,-1
449,77,78,77,76,110832,73,72,73,73,0
240,83,84,82,84,459,75,75,74,75,1
467,75,75,76,75,481,80,81,80,79,0
472,76,75,78,76,573,77,76,77,77,1
100888,74,74,75,74,241,85,92,86,83,-1
448,79,80,80,80,461,79,79,79,79,1
452,77,78,77,76,243,86,88,86,86,-1
479,72,71,73,72,450,78,76,79,78,0
483,80,80,80,80,457,78,78,78,77,1
463,74,74,74,74,242,77,79,76,77,0
573,77,76,77,77,467,75,75,76,75,1
481,80,81,80,79,449,77,78,77,76,1
241,85,92,86,83,240,83,84,82,84,0
450,78,76,79,78,459,75,75,74,75,1
110832,73,72,73,73,448,79,80,80,80,-1
243,86,88,86,86,483,80,80,80,80,0
457,78,78,78,77,472,76,75,78,76,1
242,77,79,76,77,100888,74,74,75,74,-1
479,72,71,73,72,452,77,78,77,76,-1
461,79,79,79,79,463,74,74,74,74,1
449,77,78,77,76,573,77,76,77,77,1
448,79,80,80,80,481,80,81,80,79,1
467,75,75,76,75,457,78,78,78,77,1
472,76,75,78,76,243,86,88,86,86,0
459,75,75,74,75,241,85,92,86,83,-1
240,83,84,82,84,242,77,79,76,77,1
452,77,78,77,76,450,78,76,79,78,-1
100888,74,74,75,74,461,79,79,79,79,-1
483,80,80,80,80,479,72,71,73,72,1
463,74,74,74,74,110832,73,72,73,73,1
457,78,78,78,77,449,77,78,77,76,1
110832,73,72,73,73,100888,74,74,75,74,-1
242,77,79,76,77,459,75,75,74,75,1
479,72,71,73,72,472,76,75,78,76,0
481,80,81,80,79,463,74,74,74,74,1
450,78,76,79,78,241,85,92,86,83,1
452,77,78,77,76,483,80,80,80,80,0
573,77,76,77,77,448,79,80,80,80,1
243,86,88,86,86,467,75,75,76,75,0
461,79,79,79,79,240,83,84,82,84,-1
472,76,75,78,76,452,77,78,77,76,0
240,83,84,82,84,110832,73,72,73,73,1
241,85,92,86,83,242,77,79,76,77,1
449,77,78,77,76,243,86,88,86,86,-1
100888,74,74,75,74,481,80,81,80,79,-1
463,74,74,74,74,573,77,76,77,77,0
448,79,80,80,80,457,78,78,78,77,1
459,75,75,74,75,461,79,79,79,79,-1
483,80,80,80,80,450,78,76,79,78,1
467,75,75,76,75,479,72,71,73,72,-1
479,72,71,73,72,449,77,78,77,76,-1
452,77,78,77,76,467,75,75,76,75,0
110832,73,72,73,73,459,75,75,74,75,0
457,78,78,78,77,463,74,74,74,74,1
461,79,79,79,79,241,85,92,86,83,-1
450,78,76,79,78,242,77,79,76,77,1
573,77,76,77,77,100888,74,74,75,74,1
243,86,88,86,86,448,79,80,80,80,1
481,80,81,80,79,240,83,84,82,84,1
483,80,80,80,80,472,76,75,78,76,1
100888,74,74,75,74,457,78,78,78,77,-1
463,74,74,74,74,243,86,88,86,86,-1
240,83,84,82,84,573,77,76,77,77,1
241,85,92,86,83,110832,73,72,73,73,1
459,75,75,74,75,481,80,81,80,79,0
448,79,80,80,80,479,72,71,73,72,0
449,77,78,77,76,452,77,78,77,76,-1
467,75,75,76,75,483,80,80,80,80,1
472,76,75,78,76,450,78,76,79,78,0
242,77,79,76,77,461,79,79,79,79,0
573,77,76,77,77,459,75,75,74,75,1
110832,73,72,73,73,242,77,79,76,77,0
472,76,75,78,76,467,75,75,76,75,1
479,72,71,73,72,463,74,74,74,74,-1
457,78,78,78,77,240,83,84,82,84,1
450,78,76,79,78,461,79,79,79,79,1
452,77,78,77,76,448,79,80,80,80,0
243,86,88,86,86,100888,74,74,75,74,1
481,80,81,80,79,241,85,92,86,83,-1
483,80,80,80,80,449,77,78,77,76,1
449,77,78,77,76,472,76,75,78,76,1
240,83,84,82,84,243,86,88,86,86,-1
241,85,92,86,83,573,77,76,77,77,0
467,75,75,76,75,450,78,76,79,78,1
242,77,79,76,77,481,80,81,80,79,-1
463,74,74,74,74,452,77,78,77,76,-1
448,79,80,80,80,483,80,80,80,80,1
459,75,75,74,75,457,78,78,78,77,-1
461,79,79,79,79,110832,73,72,73,73,0
100888,74,74,75,74,479,72,71,73,72,1
467,75,75,76,75,449,77,78,77,76,1
452,77,78,77,76,100888,74,74,75,74,1
573,77,76,77,77,242,77,79,76,77,1
243,86,88,86,86,459,75,75,74,75,1
481,80,81,80,79,461,79,79,79,79,1
450,78,76,79,78,110832,73,72,73,73,1
479,72,71,73,72,240,83,84,82,84,-1
457,78,78,78,77,241,85,92,86,83,0
483,80,80,80,80,463,74,74,74,74,-1
472,76,75,78,76,448,79,80,80,80,1
240,83,84,82,84,452,77,78,77,76,0
241,85,92,86,83,243,86,88,86,86,0
110832,73,72,73,73,481,80,81,80,79,1
100888,74,74,75,74,483,80,80,80,80,0
463,74,74,74,74,472,76,75,78,76,0
448,79,80,80,80,467,75,75,76,75,1
449,77,78,77,76,450,78,76,79,78,0
459,75,75,74,75,479,72,71,73,72,1
461,79,79,79,79,573,77,76,77,77,0
242,77,79,76,77,457,78,78,78,77,1
573,77,76,77,77,110832,73,72,73,73,0
472,76,75,78,76,100888,74,74,75,74,0
479,72,71,73,72,241,85,92,86,83,-1
243,86,88,86,86,242,77,79,76,77,1
457,78,78,78,77,461,79,79,79,79,1
449,77,78,77,76,448,79,80,80,80,1
450,78,76,79,78,481,80,81,80,79,-1
467,75,75,76,75,463,74,74,74,74,0
452,77,78,77,76,459,75,75,74,75,1
483,80,80,80,80,240,83,84,82,84,1
463,74,74,74,74,449,77,78,77,76,1
240,83,84,82,84,472,76,75,78,76,1
110832,73,72,73,73,457,78,78,78,77,-1
481,80,81,80,79,573,77,76,77,77,1
459,75,75,74,75,483,80,80,80,80,-1
241,85,92,86,83,452,77,78,77,76,1
242,77,79,76,77,479,72,71,73,72,1
100888,74,74,75,74,467,75,75,76,75,0
448,79,80,80,80,450,78,76,79,78,1
452,77,78,77,76,242,77,79,76,77,0
467,75,75,76,75,240,83,84,82,84,-1
472,76,75,78,76,459,75,75,74,75,1
243,86,88,86,86,110832,73,72,73,73,1
457,78,78,78,77,481,80,81,80,79,-1
448,79,80,80,80,463,74,74,74,74,0
449,77,78,77,76,100888,74,74,75,74,1
450,78,76,79,78,573,77,76,77,77,1
483,80,80,80,80,241,85,92,86,83,0
479,72,71,73,72,461,79,79,79,79,0
240,83,84,82,84,449,77,78,77,76,1
241,85,92,86,83,472,76,75,78,76,1
242,77,79,76,77,483,80,80,80,80,0
100888,74,74,75,74,448,79,80,80,80,0
450,78,76,79,78,463,74,74,74,74,1
110832,73,72,73,73,479,72,71,73,72,0
481,80,81,80,79,243,86,88,86,86,1
459,75,75,74,75,467,75,75,76,75,-1
461,79,79,79,79,452,77,78,77,76,1
573,77,76,77,77,457,78,78,78,77,-1
472,76,75,78,76,242,77,79,76,77,0
463,74,74,74,74,100888,74,74,75,74,0
452,77,78,77,76,110832,73,72,73,73,1
243,86,88,86,86,573,77,76,77,77,1
483,80,80,80,80,461,79,79,79,79,-1
448,79,80,80,80,240,83,84,82,84,0
449,77,78,77,76,459,75,75,74,75,0
467,75,75,76,75,241,85,92,86,83,-1
479,72,71,73,72,481,80,81,80,79,-1
457,78,78,78,77,450,78,76,79,78,1
479,72,71,73,72,573,77,76,77,77,0
463,74,74,74,74,240,83,84,82,84,0
467,75,75,76,75,242,77,79,76,77,1
100888,74,74,75,74,450,78,76,79,78,-1
483,80,80,80,80,110832,73,72,73,73,1
448,79,80,80,80,459,75,75,74,75,1
449,77,78,77,76,241,85,92,86,83,0
452,77,78,77,76,481,80,81,80,79,1
243,86,88,86,86,457,78,78,78,77,1
472,76,75,78,76,461,79,79,79,79,1
240,83,84,82,84,100888,74,74,75,74,1
241,85,92,86,83,448,79,80,80,80,1
573,77,76,77,77,452,77,78,77,76,-1
461,79,79,79,79,467,75,75,76,75,-1
481,80,81,80,79,483,80,80,80,80,0
457,78,78,78,77,479,72,71,73,72,1
459,75,75,74,75,463,74,74,74,74,-1
110832,73,72,73,73,472,76,75,78,76,1
452,77,78,77,76,457,78,78,78,77,-1
463,74,74,74,74,241,85,92,86,83,-1
448,79,80,80,80,242,77,79,76,77,1
449,77,78,77,76,461,79,79,79,79,0
479,72,71,73,72,243,86,88,86,86,-1
240,83,84,82,84,450,78,76,79,78,1
472,76,75,78,76,481,80,81,80,79,-1
100888,74,74,75,74,459,75,75,74,75,-1
483,80,80,80,80,573,77,76,77,77,0
467,75,75,76,75,110832,73,72,73,73,1
110832,73,72,73,73,449,77,78,77,76,1
242,77,79,76,77,463,74,74,74,74,-1
243,86,88,86,86,452,77,78,77,76,1
481,80,81,80,79,467,75,75,76,75,1
459,75,75,74,75,240,83,84,82,84,-1
241,85,92,86,83,100888,74,74,75,74,1
450,78,76,79,78,479,72,71,73,72,1
457,78,78,78,77,483,80,80,80,80,-1
461,79,79,79,79,448,79,80,80,80,1
573,77,76,77,77,472,76,75,78,76,1
461,79,79,79,79,243,86,88,86,86,1
472,76,75,78,76,457,78,78,78,77,-1
463,74,74,74,74,461,79,79,79,79,1
449,77,78,77,76,481,80,81,80,79,-1
467,75,75,76,75,573,77,76,77,77,1
100888,74,74,75,74,242,77,79,76,77,1
448,79,80,80,80,110832,73,72,73,73,1
240,83,84,82,84,241,85,92,86,83,-1
452,77,78,77,76,479,72,71,73,72,1
459,75,75,74,75,450,78,76,79,78,0
483,80,80,80,80,243,86,88,86,86,-1
573,77,76,77,77,449,77,78,77,76,-1
457,78,78,78,77,467,75,75,76,75,0
461,79,79,79,79,100888,74,74,75,74,1
241,85,92,86,83,459,75,75,74,75,1
450,78,76,79,78,452,77,78,77,76,0
110832,73,72,73,73,463,74,74,74,74,1
479,72,71,73,72,483,80,80,80,80,-1
243,86,88,86,86,472,76,75,78,76,0
242,77,79,76,77,240,83,84,82,84,0
481,80,81,80,79,448,79,80,80,80,1
449,77,78,77,76,457,78,78,78,77,-1
241,85,92,86,83,450,78,76,79,78,1
467,75,75,76,75,243,86,88,86,86,-1
100888,74,74,75,74,110832,73,72,73,73,1
483,80,80,80,80,452,77,78,77,76,1
448,79,80,80,80,573,77,76,77,77,1
240,83,84,82,84,461,79,79,79,79,1
472,76,75,78,76,479,72,71,73,72,1
459,75,75,74,75,242,77,79,76,77,-1
463,74,74,74,74,481,80,81,80,79,0
242,77,79,76,77,449,77,78,77,76,0
452,77,78,77,76,472,76,75,78,76,1
110832,73,72,73,73,240,83,84,82,84,-1
573,77,76,77,77,463,74,74,74,74,-1
481,80,81,80,79,100888,74,74,75,74,0
461,79,79,79,79,459,75,75,74,75,0
450,78,76,79,78,483,80,80,80,80,-1
242,77,79,76,77,241,85,92,86,83,1
243,86,88,86,86,449,77,78,77,76,1
457,78,78,78,77,448,79,80,80,80,-1
479,72,71,73,72,467,75,75,76,75,0
472,76,75,78,76,483,80,80,80,80,1
463,74,74,74,74,457,78,78,78,77,1
448,79,80,80,80,243,86,88,86,86,-1
449,77,78,77,76,479,72,71,73,72,1
467,75,75,76,75,452,77,78,77,76,0
240,83,84,82,84,481,80,81,80,79,1
241,85,92,86,83,461,79,79,79,79,1
242,77,79,76,77,450,78,76,79,78,-1
100888,74,74,75,74,573,77,76,77,77,0
459,75,75,74,75,110832,73,72,73,73,1
452,77,78,77,76,449,77,78,77,76,1
573,77,76,77,77,240,83,84,82,84,-1
479,72,71,73,72,448,79,80,80,80,-1
457,78,78,78,77,100888,74,74,75,74,0
483,80,80,80,80,467,75,75,76,75,-1
110832,73,72,73,73,241,85,92,86,83,-1
243,86,88,86,86,463,74,74,74,74,1
481,80,81,80,79,459,75,75,74,75,0
461,79,79,79,79,242,77,79,76,77,1
450,78,76,79,78,472,76,75,78,76,1
448,79,80,80,80,452,77,78,77,76,1
240,83,84,82,84,457,78,78,78,77,1
449,77,78,77,76,483,80,80,80,80,-1
463,74,74,74,74,479,72,71,73,72,-1
241,85,92,86,83,481,80,81,80,79,1
242,77,79,76,77,110832,73,72,73,73,0
100888,74,74,75,74,243,86,88,86,86,-1
459,75,75,74,75,573,77,76,77,77,-1
467,75,75,76,75,472,76,75,78,76,1
461,79,79,79,79,450,78,76,79,78,1
483,80,80,80,80,448,79,80,80,80,1
452,77,78,77,76,463,74,74,74,74,1
573,77,76,77,77,241,85,92,86,83,1
243,86,88,86,86,240,83,84,82,84,0
481,80,81,80,79,242,77,79,76,77,1
450,78,76,79,78,467,75,75,76,75,-1
110832,73,72,73,73,461,79,79,79,79,-1
472,76,75,78,76,449,77,78,77,76,1
479,72,71,73,72,100888,74,74,75,74,1
457,78,78,78,77,459,75,75,74,75,1
448,79,80,80,80,472,76,75,78,76,1
240,83,84,82,84,479,72,71,73,72,1
241,85,92,86,83,457,78,78,78,77,1
242,77,79,76,77,573,77,76,77,77,1
459,75,75,74,75,243,86,88,86,86,-1
449,77,78,77,76,467,75,75,76,75,1
110832,73,72,73,73,450,78,76,79,78,-1
100888,74,74,75,74,452,77,78,77,76,-1
461,79,79,79,79,481,80,81,80,79,0
463,74,74,74,74,483,80,80,80,80,1
481,80,81,80,79,110832,73,72,73,73,1
452,77,78,77,76,240,83,84,82,84,-1
573,77,76,77,77,461,79,79,79,79,1
479,72,71,73,72,459,75,75,74,75,0
483,80,80,80,80,100888,74,74,75,74,1
450,78,76,79,78,449,77,78,77,76,-1
472,76,75,78,76,463,74,74,74,74,0
243,86,88,86,86,241,85,92,86,83,-1
457,78,78,78,77,242,77,79,76,77,1
467,75,75,76,75,448,79,80,80,80,-1
240,83,84,82,84,483,80,80,80,80,-1
110832,73,72,73,73,573,77,76,77,77,-1
459,75,75,74,75,452,77,78,77,76,0
241,85,92,86,83,479,72,71,73,72,1
242,77,79,76,77,243,86,88,86,86,-1
100888,74,74,75,74,472,76,75,78,76,1
461,79,79,79,79,457,78,78,78,77,-1
463,74,74,74,74,467,75,75,76,75,0
448,79,80,80,80,449,77,78,77,76,1
481,80,81,80,79,450,78,76,79,78,1
483,80,80,80,80,459,75,75,74,75,1
452,77,78,77,76,241,85,92,86,83,-1
472,76,75,78,76,240,83,84,82,84,-1
243,86,88,86,86,461,79,79,79,79,1
457,78,78,78,77,110832,73,72,73,73,1
449,77,78,77,76,463,74,74,74,74,-1
450,78,76,79,78,448,79,80,80,80,-1
467,75,75,76,75,100888,74,74,75,74,1
479,72,71,73,72,242,77,79,76,77,0
573,77,76,77,77,481,80,81,80,79,1
481,80,81,80,79,457,78,78,78,77,0
240,83,84,82,84,467,75,75,76,75,1
241,85,92,86,83,483,80,80,80,80,1
110832,73,72,73,73,243,86,88,86,86,-1
459,75,75,74,75,472,76,75,78,76,1
463,74,74,74,74,448,79,80,80,80,1
242,77,79,76,77,452,77,78,77,76,-1
573,77,76,77,77,450,78,76,79,78,1
461,79,79,79,79,479,72,71,73,72,1
100888,74,74,75,74,449,77,78,77,76,1
452,77,78,77,76,461,79,79,79,79,-1
479,72,71,73,72,110832,73,72,73,73,1
463,74,74,74,74,450,78,76,79,78,1
448,79,80,80,80,100888,74,74,75,74,0
449,77,78,77,76,240,83,84,82,84,0
467,75,75,76,75,459,75,75,74,75,-1
472,76,75,78,76,241,85,92,86,83,-1
243,86,88,86,86,481,80,81,80,79,1
457,78,78,78,77,573,77,76,77,77,0
483,80,80,80,80,242,77,79,76,77,0
450,78,76,79,78,243,86,88,86,86,-1
110832,73,72,73,73,452,77,78,77,76,-1
242,77,79,76,77,472,76,75,78,76,1
100888,74,74,75,74,463,74,74,74,74,0
481,80,81,80,79,479,72,71,73,72,1
459,75,75,74,75,449,77,78,77,76,0
240,83,84,82,84,448,79,80,80,80,1
241,85,92,86,83,467,75,75,76,75,1
450,78,76,79,78,457,78,78,78,77,0
573,77,76,77,77,243,86,88,86,86,-1
461,79,79,79,79,483,80,80,80,80,-1
