homeId,homeOVA,homeATT,homeMID,homeDEF,awayId,awayOVA,awayATT,awayMID,awayDEF,TAG
1861,72,72,71,71,452,73,77,72,72,0
110832,73,73,74,72,242,73,71,72,72,1
573,74,72,73,73,448,77,78,75,77,1
481,78,78,77,77,461,78,81,79,76,0
241,84,88,83,81,468,72,74,72,72,1
450,74,76,74,72,1860,73,72,70,70,1
467,72,71,71,71,457,76,78,77,74,1
1853,73,73,73,72,483,76,79,76,73,-1
243,84,86,81,82,1867,71,71,72,69,1
480,74,73,73,75,240,80,81,81,79,0
1860,73,72,70,70,1861,72,72,71,71,1
461,78,81,79,76,573,74,72,73,73,1
448,77,78,75,77,1853,73,73,73,72,1
240,80,81,81,79,467,72,71,71,71,1
1867,71,71,72,69,450,74,76,74,72,0
452,73,77,72,72,481,78,78,77,77,-1
468,72,74,72,72,110832,73,73,74,72,0
242,73,71,72,72,480,74,73,73,75,0
457,76,78,77,74,243,84,86,81,82,1
483,76,79,76,73,241,84,88,83,81,-1
1861,72,72,71,71,1867,71,71,72,69,0
241,84,88,83,81,448,77,78,75,77,1
450,74,76,74,72,457,76,78,77,74,0
573,74,72,73,73,1853,73,73,73,72,0
243,84,86,81,82,240,80,81,81,79,-1
110832,73,73,74,72,483,76,79,76,73,0
481,78,78,77,77,1860,73,72,70,70,1
461,78,81,79,76,452,73,77,72,72,1
480,74,73,73,75,468,72,74,72,72,-1
467,72,71,71,71,242,73,71,72,72,-1
468,72,74,72,72,467,72,71,71,71,-1
448,77,78,75,77,110832,73,73,74,72,-1
240,80,81,81,79,450,74,76,74,72,0
452,73,77,72,72,573,74,72,73,73,0
242,73,71,72,72,243,84,86,81,82,-1
1867,71,71,72,69,481,78,78,77,77,-1
1853,73,73,73,72,241,84,88,83,81,-1
457,76,78,77,74,1861,72,72,71,71,-1
483,76,79,76,73,480,74,73,73,75,1
1860,73,72,70,70,461,78,81,79,76,-1
450,74,76,74,72,242,73,71,72,72,1
243,84,86,81,82,468,72,74,72,72,1
1861,72,72,71,71,240,80,81,81,79,-1
467,72,71,71,71,483,76,79,76,73,0
110832,73,73,74,72,1853,73,73,73,72,-1
573,74,72,73,73,241,84,88,83,81,0
481,78,78,77,77,457,76,78,77,74,1
480,74,73,73,75,448,77,78,75,77,1
452,73,77,72,72,1860,73,72,70,70,1
461,78,81,79,76,1867,71,71,72,69,1
468,72,74,72,72,450,74,76,74,72,-1
448,77,78,75,77,467,72,71,71,71,0
240,80,81,81,79,481,78,78,77,77,1
241,84,88,83,81,110832,73,73,74,72,1
1853,73,73,73,72,480,74,73,73,75,-1
483,76,79,76,73,243,84,86,81,82,-1
1867,71,71,72,69,452,73,77,72,72,0
1860,73,72,70,70,573,74,72,73,73,1
242,73,71,72,72,1861,72,72,71,71,-1
457,76,78,77,74,461,78,81,79,76,0
1860,73,72,70,70,1867,71,71,72,69,0
1861,72,72,71,71,468,72,74,72,72,0
467,72,71,71,71,1853,73,73,73,72,0
573,74,72,73,73,110832,73,73,74,72,1
461,78,81,79,76,240,80,81,81,79,1
480,74,73,73,75,241,84,88,83,81,-1
450,74,76,74,72,483,76,79,76,73,-1
452,73,77,72,72,457,76,78,77,74,1
243,84,86,81,82,448,77,78,75,77,1
481,78,78,77,77,242,73,71,72,72,1
110832,73,73,74,72,480,74,73,73,75,-1
448,77,78,75,77,450,74,76,74,72,0
241,84,88,83,81,467,72,71,71,71,1
1867,71,71,72,69,573,74,72,73,73,-1
1853,73,73,73,72,243,84,86,81,82,-1
240,80,81,81,79,452,73,77,72,72,1
468,72,74,72,72,481,78,78,77,77,-1
242,73,71,72,72,461,78,81,79,76,1
483,76,79,76,73,1861,72,72,71,71,1
457,76,78,77,74,1860,73,72,70,70,-1
450,74,76,74,72,1853,73,73,73,72,1
1861,72,72,71,71,448,77,78,75,77,-1
1867,71,71,72,69,457,76,78,77,74,0
467,72,71,71,71,110832,73,73,74,72,0
243,84,86,81,82,241,84,88,83,81,1
461,78,81,79,76,468,72,74,72,72,1
452,73,77,72,72,242,73,71,72,72,0
1860,73,72,70,70,240,80,81,81,79,-1
573,74,72,73,73,480,74,73,73,75,1
481,78,78,77,77,483,76,79,76,73,1
242,73,71,72,72,1860,73,72,70,70,-1
240,80,81,81,79,1867,71,71,72,69,1
241,84,88,83,81,450,74,76,74,72,-1
110832,73,73,74,72,243,84,86,81,82,-1
457,76,78,77,74,573,74,72,73,73,-1
448,77,78,75,77,481,78,78,77,77,1
468,72,74,72,72,452,73,77,72,72,1
1853,73,73,73,72,1861,72,72,71,71,1
483,76,79,76,73,461,78,81,79,76,-1
480,74,73,73,75,467,72,71,71,71,-1
1867,71,71,72,69,242,73,71,72,72,0
1861,72,72,71,71,241,84,88,83,81,-1
450,74,76,74,72,110832,73,73,74,72,0
1860,73,72,70,70,468,72,74,72,72,0
573,74,72,73,73,467,72,71,71,71,1
243,84,86,81,82,480,74,73,73,75,1
452,73,77,72,72,483,76,79,76,73,0
481,78,78,77,77,1853,73,73,73,72,0
457,76,78,77,74,240,80,81,81,79,1
461,78,81,79,76,448,77,78,75,77,0
448,77,78,75,77,452,73,77,72,72,1
240,80,81,81,79,573,74,72,73,73,1
241,84,88,83,81,481,78,78,77,77,1
467,72,71,71,71,243,84,86,81,82,-1
242,73,71,72,72,457,76,78,77,74,0
468,72,74,72,72,1867,71,71,72,69,0
1853,73,73,73,72,461,78,81,79,76,1
480,74,73,73,75,450,74,76,74,72,1
483,76,79,76,73,1860,73,72,70,70,1
110832,73,73,74,72,1861,72,72,71,71,0
457,76,78,77,74,468,72,74,72,72,1
450,74,76,74,72,467,72,71,71,71,-1
452,73,77,72,72,1853,73,73,73,72,1
1860,73,72,70,70,448,77,78,75,77,-1
573,74,72,73,73,243,84,86,81,82,-1
240,80,81,81,79,242,73,71,72,72,1
1867,71,71,72,69,483,76,79,76,73,-1
481,78,78,77,77,110832,73,73,74,72,1
461,78,81,79,76,241,84,88,83,81,-1
1861,72,72,71,71,480,74,73,73,75,-1
448,77,78,75,77,1867,71,71,72,69,-1
468,72,74,72,72,240,80,81,81,79,-1
242,73,71,72,72,573,74,72,73,73,-1
243,84,86,81,82,450,74,76,74,72,1
241,84,88,83,81,452,73,77,72,72,1
110832,73,73,74,72,461,78,81,79,76,0
480,74,73,73,75,481,78,78,77,77,-1
483,76,79,76,73,457,76,78,77,74,1
467,72,71,71,71,1861,72,72,71,71,1
1853,73,73,73,72,1860,73,72,70,70,0
1861,72,72,71,71,243,84,86,81,82,-1
1867,71,71,72,69,1853,73,73,73,72,0
1860,73,72,70,70,241,84,88,83,81,0
573,74,72,73,73,450,74,76,74,72,1
461,78,81,79,76,480,74,73,73,75,1
240,80,81,81,79,483,76,79,76,73,-1
452,73,77,72,72,110832,73,73,74,72,1
481,78,78,77,77,467,72,71,71,71,0
457,76,78,77,74,448,77,78,75,77,0
242,73,71,72,72,468,72,74,72,72,1
450,74,76,74,72,1861,72,72,71,71,-1
241,84,88,83,81,1867,71,71,72,69,1
467,72,71,71,71,461,78,81,79,76,-1
1853,73,73,73,72,457,76,78,77,74,0
480,74,73,73,75,452,73,77,72,72,-1
448,77,78,75,77,240,80,81,81,79,-1
468,72,74,72,72,573,74,72,73,73,-1
110832,73,73,74,72,1860,73,72,70,70,0
483,76,79,76,73,242,73,71,72,72,1
240,80,81,81,79,1853,73,73,73,72,1
468,72,74,72,72,483,76,79,76,73,0
242,73,71,72,72,448,77,78,75,77,1
573,74,72,73,73,1861,72,72,71,71,-1
481,78,78,77,77,450,74,76,74,72,1
452,73,77,72,72,467,72,71,71,71,-1
1860,73,72,70,70,480,74,73,73,75,-1
457,76,78,77,74,241,84,88,83,81,1
461,78,81,79,76,243,84,86,81,82,1
1867,71,71,72,69,110832,73,73,74,72,1
1853,73,73,73,72,242,73,71,72,72,0
450,74,76,74,72,461,78,81,79,76,0
467,72,71,71,71,1860,73,72,70,70,1
573,74,72,73,73,483,76,79,76,73,0
243,84,86,81,82,452,73,77,72,72,1
1861,72,72,71,71,481,78,78,77,77,-1
448,77,78,75,77,468,72,74,72,72,-1
241,84,88,83,81,240,80,81,81,79,1
110832,73,73,74,72,457,76,78,77,74,0
480,74,73,73,75,1867,71,71,72,69,-1
1867,71,71,72,69,467,72,71,71,71,0
452,73,77,72,72,450,74,76,74,72,1
457,76,78,77,74,480,74,73,73,75,-1
461,78,81,79,76,1861,72,72,71,71,1
483,76,79,76,73,448,77,78,75,77,1
240,80,81,81,79,110832,73,73,74,72,1
468,72,74,72,72,1853,73,73,73,72,1
1860,73,72,70,70,243,84,86,81,82,-1
242,73,71,72,72,241,84,88,83,81,-1
481,78,78,77,77,573,74,72,73,73,1
240,80,81,81,79,480,74,73,73,75,1
1867,71,71,72,69,243,84,86,81,82,-1
468,72,74,72,72,241,84,88,83,81,-1
457,76,78,77,74,467,72,71,71,71,1
483,76,79,76,73,1853,73,73,73,72,1
448,77,78,75,77,573,74,72,73,73,0
452,73,77,72,72,1861,72,72,71,71,1
242,73,71,72,72,110832,73,73,74,72,0
461,78,81,79,76,481,78,78,77,77,1
1860,73,72,70,70,450,74,76,74,72,1
480,74,73,73,75,242,73,71,72,72,-1
450,74,76,74,72,1867,71,71,72,69,1
467,72,71,71,71,240,80,81,81,79,-1
110832,73,73,74,72,468,72,74,72,72,1
243,84,86,81,82,457,76,78,77,74,1
1861,72,72,71,71,1860,73,72,70,70,1
241,84,88,83,81,483,76,79,76,73,1
1853,73,73,73,72,448,77,78,75,77,-1
481,78,78,77,77,452,73,77,72,72,1
573,74,72,73,73,461,78,81,79,76,1
243,84,86,81,82,481,78,78,77,77,1
242,73,71,72,72,467,72,71,71,71,1
240,80,81,81,79,243,84,86,81,82,1
1853,73,73,73,72,573,74,72,73,73,1
457,76,78,77,74,450,74,76,74,72,0
483,76,79,76,73,110832,73,73,74,72,1
448,77,78,75,77,241,84,88,83,81,-1
1867,71,71,72,69,1861,72,72,71,71,-1
452,73,77,72,72,461,78,81,79,76,-1
1860,73,72,70,70,481,78,78,77,77,1
468,72,74,72,72,480,74,73,73,75,1
1861,72,72,71,71,457,76,78,77,74,0
110832,73,73,74,72,448,77,78,75,77,0
573,74,72,73,73,452,73,77,72,72,-1
243,84,86,81,82,242,73,71,72,72,1
481,78,78,77,77,1867,71,71,72,69,1
241,84,88,83,81,1853,73,73,73,72,1
450,74,76,74,72,240,80,81,81,79,1
461,78,81,79,76,1860,73,72,70,70,1
480,74,73,73,75,483,76,79,76,73,1
467,72,71,71,71,468,72,74,72,72,-1
1860,73,72,70,70,452,73,77,72,72,1
240,80,81,81,79,1861,72,72,71,71,1
241,84,88,83,81,573,74,72,73,73,-1
1867,71,71,72,69,461,78,81,79,76,-1
242,73,71,72,72,450,74,76,74,72,-1
448,77,78,75,77,480,74,73,73,75,1
468,72,74,72,72,243,84,86,81,82,-1
457,76,78,77,74,481,78,78,77,77,1
483,76,79,76,73,467,72,71,71,71,1
1853,73,73,73,72,110832,73,73,74,72,1
452,73,77,72,72,1867,71,71,72,69,1
1861,72,72,71,71,242,73,71,72,72,0
110832,73,73,74,72,241,84,88,83,81,-1
573,74,72,73,73,1860,73,72,70,70,1
480,74,73,73,75,1853,73,73,73,72,1
467,72,71,71,71,448,77,78,75,77,-1
243,84,86,81,82,483,76,79,76,73,0
481,78,78,77,77,240,80,81,81,79,0
461,78,81,79,76,457,76,78,77,74,1
450,74,76,74,72,468,72,74,72,72,0
1853,73,73,73,72,467,72,71,71,71,1
448,77,78,75,77,243,84,86,81,82,1
468,72,74,72,72,1861,72,72,71,71,1
110832,73,73,74,72,573,74,72,73,73,1
242,73,71,72,72,481,78,78,77,77,-1
240,80,81,81,79,461,78,81,79,76,0
241,84,88,83,81,480,74,73,73,75,1
457,76,78,77,74,452,73,77,72,72,1
483,76,79,76,73,450,74,76,74,72,1
1867,71,71,72,69,1860,73,72,70,70,-1
461,78,81,79,76,242,73,71,72,72,1
450,74,76,74,72,448,77,78,75,77,-1
467,72,71,71,71,241,84,88,83,81,-1
452,73,77,72,72,240,80,81,81,79,0
480,74,73,73,75,110832,73,73,74,72,1
1861,72,72,71,71,483,76,79,76,73,0
573,74,72,73,73,1867,71,71,72,69,1
243,84,86,81,82,1853,73,73,73,72,1
481,78,78,77,77,468,72,74,72,72,1
1860,73,72,70,70,457,76,78,77,74,-1
468,72,74,72,72,461,78,81,79,76,-1
448,77,78,75,77,1861,72,72,71,71,1
240,80,81,81,79,1860,73,72,70,70,1
110832,73,73,74,72,467,72,71,71,71,0
1853,73,73,73,72,450,74,76,74,72,-1
480,74,73,73,75,573,74,72,73,73,1
241,84,88,83,81,243,84,86,81,82,1
242,73,71,72,72,452,73,77,72,72,0
457,76,78,77,74,1867,71,71,72,69,1
483,76,79,76,73,481,78,78,77,77,-1
467,72,71,71,71,480,74,73,73,75,-1
1861,72,72,71,71,1853,73,73,73,72,-1
1867,71,71,72,69,240,80,81,81,79,-1
573,74,72,73,73,457,76,78,77,74,0
481,78,78,77,77,448,77,78,75,77,1
450,74,76,74,72,241,84,88,83,81,-1
1860,73,72,70,70,242,73,71,72,72,1
243,84,86,81,82,110832,73,73,74,72,1
461,78,81,79,76,483,76,79,76,73,0
452,73,77,72,72,468,72,74,72,72,0
240,80,81,81,79,457,76,78,77,74,1
467,72,71,71,71,573,74,72,73,73,1
1853,73,73,73,72,481,78,78,77,77,-1
241,84,88,83,81,1861,72,72,71,71,1
110832,73,73,74,72,450,74,76,74,72,0
242,73,71,72,72,1867,71,71,72,69,0
480,74,73,73,75,243,84,86,81,82,-1
448,77,78,75,77,461,78,81,79,76,0
468,72,74,72,72,1860,73,72,70,70,-1
483,76,79,76,73,452,73,77,72,72,-1
1861,72,72,71,71,110832,73,73,74,72,1
450,74,76,74,72,480,74,73,73,75,1
573,74,72,73,73,240,80,81,81,79,0
243,84,86,81,82,467,72,71,71,71,1
481,78,78,77,77,241,84,88,83,81,0
1867,71,71,72,69,468,72,74,72,72,-1
452,73,77,72,72,448,77,78,75,77,1
1860,73,72,70,70,483,76,79,76,73,0
457,76,78,77,74,242,73,71,72,72,0
461,78,81,79,76,1853,73,73,73,72,1
1853,73,73,73,72,452,73,77,72,72,0
448,77,78,75,77,1860,73,72,70,70,1
241,84,88,83,81,461,78,81,79,76,1
242,73,71,72,72,240,80,81,81,79,-1
243,84,86,81,82,573,74,72,73,73,1
467,72,71,71,71,450,74,76,74,72,-1
110832,73,73,74,72,481,78,78,77,77,0
480,74,73,73,75,1861,72,72,71,71,1
483,76,79,76,73,1867,71,71,72,69,0
468,72,74,72,72,457,76,78,77,74,1
1867,71,71,72,69,448,77,78,75,77,-1
240,80,81,81,79,468,72,74,72,72,1
452,73,77,72,72,241,84,88,83,81,-1
1860,73,72,70,70,1853,73,73,73,72,-1
457,76,78,77,74,483,76,79,76,73,0
1861,72,72,71,71,467,72,71,71,71,1
450,74,76,74,72,243,84,86,81,82,-1
573,74,72,73,73,242,73,71,72,72,0
481,78,78,77,77,480,74,73,73,75,1
461,78,81,79,76,110832,73,73,74,72,1
448,77,78,75,77,457,76,78,77,74,0
241,84,88,83,81,1860,73,72,70,70,1
1853,73,73,73,72,1867,71,71,72,69,1
450,74,76,74,72,573,74,72,73,73,1
467,72,71,71,71,481,78,78,77,77,-1
468,72,74,72,72,242,73,71,72,72,1
243,84,86,81,82,1861,72,72,71,71,1
483,76,79,76,73,240,80,81,81,79,-1
110832,73,73,74,72,452,73,77,72,72,-1
480,74,73,73,75,461,78,81,79,76,0
457,76,78,77,74,1853,73,73,73,72,1
240,80,81,81,79,448,77,78,75,77,0
1867,71,71,72,69,241,84,88,83,81,-1
242,73,71,72,72,483,76,79,76,73,0
481,78,78,77,77,243,84,86,81,82,-1
452,73,77,72,72,480,74,73,73,75,0
1860,73,72,70,70,110832,73,73,74,72,-1
573,74,72,73,73,468,72,74,72,72,-1
461,78,81,79,76,467,72,71,71,71,1
1861,72,72,71,71,450,74,76,74,72,0
467,72,71,71,71,452,73,77,72,72,-1
448,77,78,75,77,242,73,71,72,72,0
241,84,88,83,81,457,76,78,77,74,1
110832,73,73,74,72,1867,71,71,72,69,1
243,84,86,81,82,461,78,81,79,76,0
1861,72,72,71,71,573,74,72,73,73,-1
450,74,76,74,72,481,78,78,77,77,0
1853,73,73,73,72,240,80,81,81,79,0
483,76,79,76,73,468,72,74,72,72,1
480,74,73,73,75,1860,73,72,70,70,1
240,80,81,81,79,241,84,88,83,81,-1
1867,71,71,72,69,480,74,73,73,75,-1
468,72,74,72,72,448,77,78,75,77,-1
452,73,77,72,72,243,84,86,81,82,-1
1860,73,72,70,70,467,72,71,71,71,0
242,73,71,72,72,1853,73,73,73,72,1
481,78,78,77,77,1861,72,72,71,71,1
457,76,78,77,74,110832,73,73,74,72,-1
461,78,81,79,76,450,74,76,74,72,0
483,76,79,76,73,573,74,72,73,73,1
1861,72,72,71,71,461,78,81,79,76,-1
448,77,78,75,77,483,76,79,76,73,1
241,84,88,83,81,242,73,71,72,72,0
450,74,76,74,72,452,73,77,72,72,1
467,72,71,71,71,1867,71,71,72,69,1
110832,73,73,74,72,240,80,81,81,79,0
1853,73,73,73,72,468,72,74,72,72,0
573,74,72,73,73,481,78,78,77,77,-1
243,84,86,81,82,1860,73,72,70,70,1
480,74,73,73,75,457,76,78,77,74,-1
