homeId,homeOVA,homeATT,homeMID,homeDEF,awayId,awayOVA,awayATT,awayMID,awayDEF,TAG
573,75,75,75,75,481,79,80,80,79,0
240,81,81,80,81,472,72,72,71,71,1
452,75,79,75,73,1860,75,72,75,75,1
242,75,74,75,75,457,78,78,77,78,0
480,76,75,77,77,461,79,80,79,79,0
448,79,79,77,79,241,84,90,84,82,-1
449,74,76,75,73,483,78,79,78,77,0
1853,75,76,74,74,450,75,77,75,73,-1
459,73,72,73,73,243,84,86,84,82,0
110832,74,75,74,72,467,73,70,73,73,-1
483,78,79,78,77,452,75,79,75,73,1
241,84,90,84,82,573,75,75,75,75,1
450,75,77,75,73,480,76,75,77,77,1
243,84,86,84,82,449,74,76,75,73,1
457,78,78,77,78,459,73,72,73,73,0
467,73,70,73,73,448,79,79,77,79,1
1860,75,72,75,75,110832,74,75,74,72,-1
472,72,72,71,71,1853,75,76,74,74,0
481,79,80,80,79,240,81,81,80,81,-1
461,79,80,79,79,242,75,74,75,75,0
1853,75,76,74,74,481,79,80,80,79,0
240,81,81,80,81,241,84,90,84,82,-1
449,74,76,75,73,457,78,78,77,78,1
452,75,79,75,73,243,84,86,84,82,-1
459,73,72,73,73,461,79,80,79,79,-1
448,79,79,77,79,1860,75,72,75,75,1
450,75,77,75,73,472,72,72,71,71,0
110832,74,75,74,72,483,78,79,78,77,-1
573,75,75,75,75,467,73,70,73,73,0
480,76,75,77,77,242,75,74,75,75,-1
1860,75,72,75,75,573,75,75,75,75,1
467,73,70,73,73,240,81,81,80,81,-1
243,84,86,84,82,110832,74,75,74,72,1
457,78,78,77,78,452,75,79,75,73,-1
461,79,80,79,79,449,74,76,75,73,0
241,84,90,84,82,1853,75,76,74,74,1
242,75,74,75,75,459,73,72,73,73,-1
472,72,72,71,71,480,76,75,77,77,-1
481,79,80,80,79,450,75,77,75,73,-1
483,78,79,78,77,448,79,79,77,79,1
240,81,81,80,81,1860,75,72,75,75,1
452,75,79,75,73,461,79,80,79,79,1
110832,74,75,74,72,457,78,78,77,78,-1
448,79,79,77,79,243,84,86,84,82,-1
450,75,77,75,73,241,84,90,84,82,1
472,72,72,71,71,481,79,80,80,79,1
1853,75,76,74,74,467,73,70,73,73,0
573,75,75,75,75,483,78,79,78,77,-1
480,76,75,77,77,459,73,72,73,73,1
449,74,76,75,73,242,75,74,75,75,-1
461,79,80,79,79,110832,74,75,74,72,1
241,84,90,84,82,472,72,72,71,71,1
467,73,70,73,73,450,75,77,75,73,0
243,84,86,84,82,573,75,75,75,75,0
481,79,80,80,79,480,76,75,77,77,1
483,78,79,78,77,240,81,81,80,81,1
1860,75,72,75,75,1853,75,76,74,74,1
242,75,74,75,75,452,75,79,75,73,1
457,78,78,77,78,448,79,79,77,79,0
459,73,72,73,73,449,74,76,75,73,-1
450,75,77,75,73,1860,75,72,75,75,0
452,75,79,75,73,459,73,72,73,73,-1
110832,74,75,74,72,242,75,74,75,75,0
472,72,72,71,71,467,73,70,73,73,-1
573,75,75,75,75,457,78,78,77,78,1
481,79,80,80,79,241,84,90,84,82,1
448,79,79,77,79,461,79,80,79,79,1
240,81,81,80,81,243,84,86,84,82,0
1853,75,76,74,74,483,78,79,78,77,1
480,76,75,77,77,449,74,76,75,73,-1
241,84,90,84,82,480,76,75,77,77,1
449,74,76,75,73,452,75,79,75,73,-1
467,73,70,73,73,481,79,80,80,79,0
243,84,86,84,82,1853,75,76,74,74,1
461,79,80,79,79,573,75,75,75,75,1
1860,75,72,75,75,472,72,72,71,71,1
242,75,74,75,75,448,79,79,77,79,0
457,78,78,77,78,240,81,81,80,81,-1
483,78,79,78,77,450,75,77,75,73,-1
459,73,72,73,73,110832,74,75,74,72,0
480,76,75,77,77,452,75,79,75,73,1
450,75,77,75,73,243,84,86,84,82,-1
110832,74,75,74,72,449,74,76,75,73,0
573,75,75,75,75,242,75,74,75,75,1
481,79,80,80,79,1860,75,72,75,75,1
240,81,81,80,81,461,79,80,79,79,1
241,84,90,84,82,467,73,70,73,73,1
472,72,72,71,71,483,78,79,78,77,0
1853,75,76,74,74,457,78,78,77,78,-1
448,79,79,77,79,459,73,72,73,73,1
242,75,74,75,75,240,81,81,80,81,0
1860,75,72,75,75,241,84,90,84,82,-1
243,84,86,84,82,472,72,72,71,71,1
457,78,78,77,78,450,75,77,75,73,-1
461,79,80,79,79,1853,75,76,74,74,1
483,78,79,78,77,481,79,80,80,79,1
449,74,76,75,73,448,79,79,77,79,-1
467,73,70,73,73,480,76,75,77,77,1
452,75,79,75,73,110832,74,75,74,72,0
459,73,72,73,73,573,75,75,75,75,1
472,72,72,71,71,457,78,78,77,78,1
450,75,77,75,73,461,79,80,79,79,-1
467,73,70,73,73,1860,75,72,75,75,1
1853,75,76,74,74,242,75,74,75,75,0
573,75,75,75,75,449,74,76,75,73,-1
480,76,75,77,77,110832,74,75,74,72,1
448,79,79,77,79,452,75,79,75,73,1
240,81,81,80,81,459,73,72,73,73,1
241,84,90,84,82,483,78,79,78,77,1
481,79,80,80,79,243,84,86,84,82,1
452,75,79,75,73,573,75,75,75,75,1
242,75,74,75,75,450,75,77,75,73,1
243,84,86,84,82,241,84,90,84,82,-1
457,78,78,77,78,481,79,80,80,79,1
461,79,80,79,79,472,72,72,71,71,0
449,74,76,75,73,240,81,81,80,81,-1
110832,74,75,74,72,448,79,79,77,79,1
459,73,72,73,73,1853,75,76,74,74,-1
483,78,79,78,77,467,73,70,73,73,0
1860,75,72,75,75,480,76,75,77,77,0
1853,75,76,74,74,449,74,76,75,73,-1
240,81,81,80,81,452,75,79,75,73,1
241,84,90,84,82,457,78,78,77,78,1
450,75,77,75,73,459,73,72,73,73,1
472,72,72,71,71,242,75,74,75,75,-1
573,75,75,75,75,110832,74,75,74,72,0
467,73,70,73,73,243,84,86,84,82,-1
1860,75,72,75,75,483,78,79,78,77,1
481,79,80,80,79,461,79,80,79,79,1
480,76,75,77,77,448,79,79,77,79,-1
449,74,76,75,73,450,75,77,75,73,0
110832,74,75,74,72,240,81,81,80,81,-1
242,75,74,75,75,481,79,80,80,79,0
243,84,86,84,82,1860,75,72,75,75,1
461,79,80,79,79,241,84,90,84,82,0
448,79,79,77,79,573,75,75,75,75,0
457,78,78,77,78,467,73,70,73,73,1
459,73,72,73,73,472,72,72,71,71,1
483,78,79,78,77,480,76,75,77,77,1
452,75,79,75,73,1853,75,76,74,74,0
1860,75,72,75,75,457,78,78,77,78,0
241,84,90,84,82,242,75,74,75,75,0
450,75,77,75,73,452,75,79,75,73,1
472,72,72,71,71,449,74,76,75,73,1
1853,75,76,74,74,110832,74,75,74,72,-1
481,79,80,80,79,459,73,72,73,73,1
240,81,81,80,81,448,79,79,77,79,1
467,73,70,73,73,461,79,80,79,79,0
480,76,75,77,77,573,75,75,75,75,-1
483,78,79,78,77,243,84,86,84,82,1
449,74,76,75,73,481,79,80,80,79,0
452,75,79,75,73,472,72,72,71,71,1
242,75,74,75,75,467,73,70,73,73,1
461,79,80,79,79,1860,75,72,75,75,0
448,79,79,77,79,1853,75,76,74,74,1
110832,74,75,74,72,450,75,77,75,73,-1
573,75,75,75,75,240,81,81,80,81,1
243,84,86,84,82,480,76,75,77,77,1
457,78,78,77,78,483,78,79,78,77,-1
241,84,90,84,82,449,74,76,75,73,1
450,75,77,75,73,448,79,79,77,79,-1
467,73,70,73,73,459,73,72,73,73,1
1860,75,72,75,75,242,75,74,75,75,0
472,72,72,71,71,110832,74,75,74,72,1
1853,75,76,74,74,573,75,75,75,75,-1
243,84,86,84,82,457,78,78,77,78,1
481,79,80,80,79,452,75,79,75,73,1
480,76,75,77,77,240,81,81,80,81,-1
483,78,79,78,77,461,79,80,79,79,1
240,81,81,80,81,1853,75,76,74,74,1
452,75,79,75,73,241,84,90,84,82,0
573,75,75,75,75,450,75,77,75,73,1
448,79,79,77,79,472,72,72,71,71,0
449,74,76,75,73,467,73,70,73,73,-1
110832,74,75,74,72,481,79,80,80,79,1
242,75,74,75,75,483,78,79,78,77,-1
461,79,80,79,79,243,84,86,84,82,0
480,76,75,77,77,457,78,78,77,78,0
459,73,72,73,73,1860,75,72,75,75,-1
241,84,90,84,82,110832,74,75,74,72,1
1860,75,72,75,75,449,74,76,75,73,1
1853,75,76,74,74,480,76,75,77,77,1
243,84,86,84,82,242,75,74,75,75,1
481,79,80,80,79,448,79,79,77,79,1
450,75,77,75,73,240,81,81,80,81,-1
467,73,70,73,73,452,75,79,75,73,1
472,72,72,71,71,573,75,75,75,75,0
457,78,78,77,78,461,79,80,79,79,1
483,78,79,78,77,459,73,72,73,73,1
450,75,77,75,73,1853,75,76,74,74,1
481,79,80,80,79,573,75,75,75,75,1
457,78,78,77,78,242,75,74,75,75,0
483,78,79,78,77,449,74,76,75,73,0
241,84,90,84,82,448,79,79,77,79,1
1860,75,72,75,75,452,75,79,75,73,1
472,72,72,71,71,240,81,81,80,81,-1
243,84,86,84,82,459,73,72,73,73,1
461,79,80,79,79,480,76,75,77,77,0
467,73,70,73,73,110832,74,75,74,72,1
459,73,72,73,73,457,78,78,77,78,1
452,75,79,75,73,483,78,79,78,77,0
110832,74,75,74,72,1860,75,72,75,75,1
573,75,75,75,75,241,84,90,84,82,-1
480,76,75,77,77,450,75,77,75,73,1
448,79,79,77,79,467,73,70,73,73,1
240,81,81,80,81,481,79,80,80,79,0
449,74,76,75,73,243,84,86,84,82,0
242,75,74,75,75,461,79,80,79,79,0
1853,75,76,74,74,472,72,72,71,71,1
241,84,90,84,82,240,81,81,80,81,1
467,73,70,73,73,573,75,75,75,75,-1
1860,75,72,75,75,448,79,79,77,79,-1
457,78,78,77,78,449,74,76,75,73,1
483,78,79,78,77,110832,74,75,74,72,1
472,72,72,71,71,450,75,77,75,73,1
243,84,86,84,82,452,75,79,75,73,1
481,79,80,80,79,1853,75,76,74,74,1
461,79,80,79,79,459,73,72,73,73,-1
242,75,74,75,75,480,76,75,77,77,0
573,75,75,75,75,1860,75,72,75,75,1
448,79,79,77,79,483,78,79,78,77,0
240,81,81,80,81,467,73,70,73,73,1
459,73,72,73,73,242,75,74,75,75,0
480,76,75,77,77,472,72,72,71,71,1
449,74,76,75,73,461,79,80,79,79,1
450,75,77,75,73,481,79,80,80,79,0
110832,74,75,74,72,243,84,86,84,82,-1
1853,75,76,74,74,241,84,90,84,82,-1
452,75,79,75,73,457,78,78,77,78,-1
459,73,72,73,73,480,76,75,77,77,0
242,75,74,75,75,449,74,76,75,73,0
243,84,86,84,82,448,79,79,77,79,1
461,79,80,79,79,452,75,79,75,73,1
483,78,79,78,77,573,75,75,75,75,1
241,84,90,84,82,450,75,77,75,73,1
467,73,70,73,73,1853,75,76,74,74,1
1860,75,72,75,75,240,81,81,80,81,-1
481,79,80,80,79,472,72,72,71,71,1
457,78,78,77,78,110832,74,75,74,72,1
459,73,72,73,73,241,84,90,84,82,-1
1853,75,76,74,74,1860,75,72,75,75,1
449,74,76,75,73,459,73,72,73,73,0
450,75,77,75,73,467,73,70,73,73,1
452,75,79,75,73,242,75,74,75,75,1
472,72,72,71,71,241,84,90,84,82,-1
448,79,79,77,79,457,78,78,77,78,-1
240,81,81,80,81,483,78,79,78,77,0
110832,74,75,74,72,461,79,80,79,79,-1
573,75,75,75,75,243,84,86,84,82,0
480,76,75,77,77,481,79,80,80,79,0
467,73,70,73,73,472,72,72,71,71,-1
449,74,76,75,73,480,76,75,77,77,0
1860,75,72,75,75,450,75,77,75,73,-1
243,84,86,84,82,240,81,81,80,81,-1
457,78,78,77,78,573,75,75,75,75,0
459,73,72,73,73,452,75,79,75,73,-1
241,84,90,84,82,481,79,80,80,79,1
242,75,74,75,75,110832,74,75,74,72,-1
461,79,80,79,79,448,79,79,77,79,-1
483,78,79,78,77,1853,75,76,74,74,1
240,81,81,80,81,457,78,78,77,78,1
472,72,72,71,71,1860,75,72,75,75,1
448,79,79,77,79,242,75,74,75,75,1
450,75,77,75,73,483,78,79,78,77,0
1853,75,76,74,74,243,84,86,84,82,-1
573,75,75,75,75,461,79,80,79,79,-1
481,79,80,80,79,467,73,70,73,73,1
452,75,79,75,73,449,74,76,75,73,-1
110832,74,75,74,72,459,73,72,73,73,1
480,76,75,77,77,241,84,90,84,82,-1
1860,75,72,75,75,481,79,80,80,79,0
242,75,74,75,75,573,75,75,75,75,0
243,84,86,84,82,450,75,77,75,73,1
483,78,79,78,77,472,72,72,71,71,-1
449,74,76,75,73,110832,74,75,74,72,1
467,73,70,73,73,241,84,90,84,82,-1
457,78,78,77,78,1853,75,76,74,74,0
459,73,72,73,73,448,79,79,77,79,-1
461,79,80,79,79,240,81,81,80,81,-1
452,75,79,75,73,480,76,75,77,77,1
573,75,75,75,75,459,73,72,73,73,1
240,81,81,80,81,242,75,74,75,75,1
241,84,90,84,82,1860,75,72,75,75,1
450,75,77,75,73,457,78,78,77,78,1
480,76,75,77,77,467,73,70,73,73,0
448,79,79,77,79,449,74,76,75,73,1
472,72,72,71,71,243,84,86,84,82,-1
1853,75,76,74,74,461,79,80,79,79,1
481,79,80,80,79,483,78,79,78,77,1
110832,74,75,74,72,452,75,79,75,73,0
1860,75,72,75,75,467,73,70,73,73,0
449,74,76,75,73,573,75,75,75,75,-1
110832,74,75,74,72,480,76,75,77,77,0
242,75,74,75,75,1853,75,76,74,74,1
457,78,78,77,78,472,72,72,71,71,-1
459,73,72,73,73,240,81,81,80,81,1
452,75,79,75,73,448,79,79,77,79,1
243,84,86,84,82,481,79,80,80,79,1
461,79,80,79,79,450,75,77,75,73,-1
483,78,79,78,77,241,84,90,84,82,0
480,76,75,77,77,1860,75,72,75,75,1
240,81,81,80,81,449,74,76,75,73,1
241,84,90,84,82,243,84,86,84,82,-1
450,75,77,75,73,242,75,74,75,75,0
472,72,72,71,71,461,79,80,79,79,1
448,79,79,77,79,110832,74,75,74,72,0
467,73,70,73,73,483,78,79,78,77,-1
573,75,75,75,75,452,75,79,75,73,0
481,79,80,80,79,457,78,78,77,78,-1
1853,75,76,74,74,459,73,72,73,73,0
110832,74,75,74,72,573,75,75,75,75,0
449,74,76,75,73,1853,75,76,74,74,1
452,75,79,75,73,240,81,81,80,81,-1
243,84,86,84,82,467,73,70,73,73,1
457,78,78,77,78,241,84,90,84,82,1
448,79,79,77,79,480,76,75,77,77,1
459,73,72,73,73,450,75,77,75,73,-1
461,79,80,79,79,481,79,80,80,79,1
483,78,79,78,77,1860,75,72,75,75,1
242,75,74,75,75,472,72,72,71,71,-1
1853,75,76,74,74,452,75,79,75,73,1
450,75,77,75,73,449,74,76,75,73,0
467,73,70,73,73,457,78,78,77,78,1
1860,75,72,75,75,243,84,86,84,82,-1
472,72,72,71,71,459,73,72,73,73,0
240,81,81,80,81,110832,74,75,74,72,1
241,84,90,84,82,461,79,80,79,79,-1
573,75,75,75,75,448,79,79,77,79,-1
481,79,80,80,79,242,75,74,75,75,0
480,76,75,77,77,483,78,79,78,77,1
449,74,76,75,73,472,72,72,71,71,1
452,75,79,75,73,450,75,77,75,73,0
448,79,79,77,79,240,81,81,80,81,-1
242,75,74,75,75,241,84,90,84,82,-1
573,75,75,75,75,480,76,75,77,77,0
243,84,86,84,82,483,78,79,78,77,1
459,73,72,73,73,481,79,80,80,79,1
461,79,80,79,79,467,73,70,73,73,1
110832,74,75,74,72,1853,75,76,74,74,1
457,78,78,77,78,1860,75,72,75,75,-1
472,72,72,71,71,452,75,79,75,73,1
240,81,81,80,81,573,75,75,75,75,1
241,84,90,84,82,459,73,72,73,73,1
467,73,70,73,73,242,75,74,75,75,0
480,76,75,77,77,243,84,86,84,82,-1
1860,75,72,75,75,461,79,80,79,79,0
1853,75,76,74,74,448,79,79,77,79,0
481,79,80,80,79,449,74,76,75,73,1
483,78,79,78,77,457,78,78,77,78,0
450,75,77,75,73,110832,74,75,74,72,1
459,73,72,73,73,467,73,70,73,73,1
240,81,81,80,81,480,76,75,77,77,1
449,74,76,75,73,241,84,90,84,82,-1
110832,74,75,74,72,472,72,72,71,71,1
457,78,78,77,78,243,84,86,84,82,-1
448,79,79,77,79,450,75,77,75,73,1
452,75,79,75,73,481,79,80,80,79,1
242,75,74,75,75,1860,75,72,75,75,-1
461,79,80,79,79,483,78,79,78,77,-1
573,75,75,75,75,1853,75,76,74,74,1
241,84,90,84,82,452,75,79,75,73,1
450,75,77,75,73,573,75,75,75,75,1
467,73,70,73,73,449,74,76,75,73,0
1860,75,72,75,75,459,73,72,73,73,0
472,72,72,71,71,448,79,79,77,79,0
1853,75,76,74,74,240,81,81,80,81,1
243,84,86,84,82,461,79,80,79,79,1
481,79,80,80,79,110832,74,75,74,72,-1
457,78,78,77,78,480,76,75,77,77,1
483,78,79,78,77,242,75,74,75,75,-1
461,79,80,79,79,457,78,78,77,78,-1
448,79,79,77,79,481,79,80,80,79,1
240,81,81,80,81,450,75,77,75,73,1
110832,74,75,74,72,241,84,90,84,82,-1
242,75,74,75,75,243,84,86,84,82,-1
449,74,76,75,73,1860,75,72,75,75,1
452,75,79,75,73,467,73,70,73,73,1
573,75,75,75,75,472,72,72,71,71,1
459,73,72,73,73,483,78,79,78,77,1
480,76,75,77,77,1853,75,76,74,74,1
