﻿web-scraper-order,web-scraper-start-url,Pos,Team,ID,S,Pts,GP,W,D,L,GF,GA,1st,2nd,3rd,4th,5th,6th,T,Debut,Since/,
1527970085-14304,https://en.wikipedia.org/wiki/La_Liga,36,Albacete,,7,277,270,76,76,118,320,410,–,–,–,–,–,–,–,1991–92,null,7
1527970085-14305,https://en.wikipedia.org/wiki/La_Liga,37,Almería,,6,242,228,62,56,110,244,366,–,–,–,–,–,–,–,2007–08,null,8
1527970085-14300,https://en.wikipedia.org/wiki/La_Liga,32,Sabadell,,14,353,426,129,95,202,492,720,–,–,–,1,1,–,2,1943–44,null,4
1527970085-14311,https://en.wikipedia.org/wiki/La_Liga,43,Pontevedra,,6,150,180,53,44,83,165,221,–,–,–,–,–,–,–,1963–64,null,7
1527970085-14286,https://en.wikipedia.org/wiki/La_Liga,18,Oviedo,,38,1174,1192,408,292,492,1642,1951,–,–,3,2,2,4,11,1933–34,null,3
1527970085-14298,https://en.wikipedia.org/wiki/La_Liga,30,Murcia,,18,445,586,145,143,298,607,992,–,–,–,–,–,–,–,1940–41,null,11
1527970085-14285,https://en.wikipedia.org/wiki/La_Liga,17,Málaga,,37,1334,1293,395,335,563,1445,1824,–,–,–,1,–,1,2,1949–50,null,4
1527970085-14297,https://en.wikipedia.org/wiki/La_Liga,29,Levante,,12,462,440,124,108,208,474,690,–,–,–,–,–,1,1,1963–64,null,6
1527970085-14299,https://en.wikipedia.org/wiki/La_Liga,31,Salamanca,,12,375,423,123,102,198,422,581,–,–,–,–,–,–,–,1974–75,null,7
1527970085-14284,https://en.wikipedia.org/wiki/La_Liga,16,Osasuna,,37,1351,1318,426,327,565,1497,1833,–,–,–,2,2,2,6,1935–36,null,4
1527970085-14307,https://en.wikipedia.org/wiki/La_Liga,39,Compostela,,4,190,160,52,45,63,199,241,–,–,–,–,–,–,–,1994–95,null,10
1527970085-14318,https://en.wikipedia.org/wiki/La_Liga,50,Leganés,,2,78,76,20,18,38,70,106,–,–,–,–,–,–,–,2016–17,null,17
1527970085-14303,https://en.wikipedia.org/wiki/La_Liga,35,Castellón,,11,285,334,103,79,152,419,588,–,–,–,1,2,–,3,1941–42,null,4
1527970085-14327,https://en.wikipedia.org/wiki/La_Liga,59,Condal,,1,22,30,7,8,15,37,57,–,–,–,–,–,–,–,1956–57,null,16
1527970085-14310,https://en.wikipedia.org/wiki/La_Liga,42,Burgos CF,,6,168,204,59,50,95,216,310,–,–,–,–,–,–,–,1971–72,null,12
1527970085-14273,https://en.wikipedia.org/wiki/La_Liga,5,Athletic Bilbao,,86,3411,2800,1219,646,935,4672,3749,8,7,10,5,8,10,49,1929,null,1
1527970085-14328,https://en.wikipedia.org/wiki/La_Liga,60,Atlético Tetuán,,1,19,30,7,5,18,51,85,–,–,–,–,–,–,–,1951–52,null,16
1527970085-14275,https://en.wikipedia.org/wiki/La_Liga,7,Espanyol,,83,2841,2664,960,621,1083,3645,3926,–,–,4,5,2,5,16,1929,null,3
1527970085-14293,https://en.wikipedia.org/wiki/La_Liga,25,Elche,,21,606,678,203,180,295,750,1022,–,–,–,–,1,1,2,1959–60,null,5
1527970085-14283,https://en.wikipedia.org/wiki/La_Liga,15,Sporting Gijón,,43,1389,1458,471,358,629,1753,2152,–,1,1,2,2,1,7,1944–45,null,2
1527970085-14301,https://en.wikipedia.org/wiki/La_Liga,33,Cádiz,,12,343,448,104,127,217,393,662,–,–,–,–,–,–,–,1977–78,null,12
1527970085-14291,https://en.wikipedia.org/wiki/La_Liga,23,Rayo Vallecano,,17,662,652,189,148,305,760,1088,–,–,–,–,–,–,–,1977–78,null,8
1527970085-14330,https://en.wikipedia.org/wiki/La_Liga,62,Huesca,,–,–,–,–,–,–,–,–,–,–,–,–,–,–,–,2018–19,null,–
1527970085-14290,https://en.wikipedia.org/wiki/La_Liga,22,Granada,,23,667,742,218,175,349,819,1158,–,–,–,–,–,2,2,1941–42,null,6
1527970085-14289,https://en.wikipedia.org/wiki/La_Liga,21,Villarreal,,18,1031,684,284,179,221,949,839,–,1,1,2,4,2,10,1998–99,null,2
1527970085-14319,https://en.wikipedia.org/wiki/La_Liga,51,Alcoyano,,4,76,108,30,16,62,145,252,–,–,–,–,–,–,–,1945–46,null,10
1527970085-14306,https://en.wikipedia.org/wiki/La_Liga,38,Córdoba,,9,230,282,82,63,137,285,430,–,–,–,–,1,–,1,1962–63,null,5
1527970085-14329,https://en.wikipedia.org/wiki/La_Liga,61,Cultural Leonesa,,1,14,30,5,4,21,34,65,–,–,–,–,–,–,–,1955–56,null,15
1527970085-14320,https://en.wikipedia.org/wiki/La_Liga,52,Jaén,,3,71,90,29,13,48,121,183,–,–,–,–,–,–,–,1953–54,null,14
1527970085-14269,https://en.wikipedia.org/wiki/La_Liga,1,Real Madrid,,86,4461,2800,1669,562,569,6041,3184,33,23,9,8,3,4,80,1929,null,1
1527970085-14325,https://en.wikipedia.org/wiki/La_Liga,57,Lleida,,2,40,68,13,14,41,70,182,–,–,–,–,–,–,–,1950–51,null,16
1527970085-14281,https://en.wikipedia.org/wiki/La_Liga,13,Valladolid,,42,1471,1466,463,384,619,1767,2180,–,–,–,1,1,1,3,1948–49,null,4
1527970085-14315,https://en.wikipedia.org/wiki/La_Liga,47,Gimnàstic,,4,91,116,34,16,66,181,295,–,–,–,–,–,–,–,1947–48,null,7
1527970085-14295,https://en.wikipedia.org/wiki/La_Liga,27,Tenerife,,13,510,494,155,128,211,619,744,–,–,–,–,2,–,2,1961–62,null,5
1527970085-14322,https://en.wikipedia.org/wiki/La_Liga,54,AD Almería,,2,52,68,17,18,33,71,116,–,–,–,–,–,–,–,1979–80,null,10
1527970085-14278,https://en.wikipedia.org/wiki/La_Liga,10,Real Betis,,52,1945,1766,624,446,696,2222,2552,1,–,2,3,4,5,15,1932–33,null,1
1527970085-14280,https://en.wikipedia.org/wiki/La_Liga,12,Celta Vigo,,52,1838,1736,599,399,738,2337,2685,–,–,–,2,4,5,11,1939–40,null,4
1527970085-14313,https://en.wikipedia.org/wiki/La_Liga,45,Arenas,,7,107,130,43,21,66,227,308,–,–,1,–,3,–,4,1929,null,3
1527970085-14317,https://en.wikipedia.org/wiki/La_Liga,49,Mérida,,2,81,80,19,24,37,70,115,–,–,–,–,–,–,–,1995–96,null,19
1527970085-14274,https://en.wikipedia.org/wiki/La_Liga,6,Sevilla,,74,2877,2446,1007,538,901,3729,3431,1,4,4,5,12,6,32,1934–35,null,1
1527970085-14294,https://en.wikipedia.org/wiki/La_Liga,26,Hércules,,20,538,628,184,149,295,716,1050,–,–,–,–,1,4,5,1935–36,null,5
1527970085-14282,https://en.wikipedia.org/wiki/La_Liga,14,Racing Santander,,44,1416,1428,453,336,639,1843,2368,–,1,1,2,–,1,5,1929,null,2
1527970085-14271,https://en.wikipedia.org/wiki/La_Liga,3,Atlético Madrid,,81,3521,2652,1264,608,780,4592,3331,10,10,16,9,7,6,57,1929,null,1
1527970085-14326,https://en.wikipedia.org/wiki/La_Liga,58,Xerez,,1,34,38,8,10,20,38,66,–,–,–,–,–,–,–,2009–10,null,20
1527970085-14287,https://en.wikipedia.org/wiki/La_Liga,19,Mallorca,,27,1148,988,333,256,399,1182,1371,–,–,2,–,2,1,5,1960–61,null,3
1527970085-14323,https://en.wikipedia.org/wiki/La_Liga,55,Girona,,1,51,38,14,9,15,50,59,–,–,–,–,–,–,–,2017–18,null,9
1527970085-14270,https://en.wikipedia.org/wiki/La_Liga,2,Barcelona,,86,4355,2800,1609,582,609,5999,3143,25,25,12,12,4,6,84,1929,null,1
1527970085-14288,https://en.wikipedia.org/wiki/La_Liga,20,Las Palmas,,34,1042,1134,372,249,513,1371,1820,–,1,1,1,1,1,5,1951–52,null,2
1527970085-14276,https://en.wikipedia.org/wiki/La_Liga,8,Real Sociedad,,71,2622,2340,878,584,878,3294,3289,2,3,2,5,4,3,19,1929,null,1
1527970085-14302,https://en.wikipedia.org/wiki/La_Liga,34,Logroñés,,9,293,346,96,92,158,291,489,–,–,–,–,–,–,–,1987–88,null,7
1527970085-14296,https://en.wikipedia.org/wiki/La_Liga,28,Alavés,,13,468,418,140,83,195,498,673,–,–,–,–,–,1,1,1930–31,null,6
1527970085-14279,https://en.wikipedia.org/wiki/La_Liga,11,Deportivo La Coruña,,46,1843,1568,569,403,596,2090,2269,1,5,4,1,–,1,12,1941–42,null,1
1527970085-14312,https://en.wikipedia.org/wiki/La_Liga,44,Numancia,,4,148,152,37,37,78,155,253,–,–,–,–,–,–,–,1999–00,null,17
1527970085-14316,https://en.wikipedia.org/wiki/La_Liga,48,Extremadura,,2,83,80,20,23,37,62,117,–,–,–,–,–,–,–,1996–97,null,17
1527970085-14309,https://en.wikipedia.org/wiki/La_Liga,41,Eibar,,4,183,152,49,36,67,183,217,–,–,–,–,–,–,–,2014–15,null,9 [31]
1527970085-14314,https://en.wikipedia.org/wiki/La_Liga,46,Real Burgos,,3,96,114,26,44,44,101,139,–,–,–,–,–,–,–,1990–91,null,9
1527970085-14272,https://en.wikipedia.org/wiki/La_Liga,4,Valencia,,83,3459,2702,1209,623,870,4463,3507,6,6,10,12,10,7,51,1931–32,null,1
1527970085-14324,https://en.wikipedia.org/wiki/La_Liga,56,Europa,,3,42,54,18,6,30,97,131,–,–,–,–,–,–,–,1929,null,8
1527970085-14277,https://en.wikipedia.org/wiki/La_Liga,9,Zaragoza,,58,2109,1986,698,522,766,2683,2847,–,1,4,5,4,4,18,1939–40,null,2
1527970085-14308,https://en.wikipedia.org/wiki/La_Liga,40,Recreativo,,5,188,186,50,46,90,202,296,–,–,–,–,–,–,–,1978–79,null,8
1527970085-14321,https://en.wikipedia.org/wiki/La_Liga,53,Real Unión,,4,56,72,21,14,37,153,184,–,–,–,–,–,1,1,1929,null,6
1527970085-14292,https://en.wikipedia.org/wiki/La_Liga,24,Getafe,,13,608,494,162,122,210,562,662,–,–,–,–,–,1,1,2004–05,null,6