leaf_size,weights,groups_score,special_score
3,uniform,41.07142857,53.78378378
5,uniform,41.07142857,54.86486486
11,uniform,40.35714286,53.51351351
15,uniform,40.35714286,53.78378378
23,uniform,40.35714286,53.78378378
30,uniform,39.64285714,54.32432432
33,uniform,39.64285714,54.32432432
39,uniform,39.64285714,54.32432432
3,distance,47.85714286,60
5,distance,48.57142857,60.27027027
11,distance,47.85714286,58.91891892
15,distance,48.57142857,60
23,distance,48.57142857,60
30,distance,47.85714286,60.54054054
33,distance,47.85714286,60.54054054
39,distance,47.85714286,60.54054054