max_depth,min_samples_leaf,criterion,splitter,groups_score,special_score
default,1,gini,random,37.857142857142854,44.05405405405406
default,1,gini,best,33.57142857142857,41.62162162162162
default,1,entropy,random,41.42857142857143,48.10810810810811
default,1,entropy,best,40.35714285714285,48.91891891891892
5,1,gini,random,41.42857142857143,52.70270270270271
5,1,gini,best,39.285714285714285,48.91891891891892
5,1,entropy,random,38.57142857142857,43.51351351351351
5,1,entropy,best,44.285714285714285,56.48648648648649
10,1,gini,random,37.85714285714286,47.297297297297305
10,1,gini,best,34.28571428571429,39.18918918918919
10,1,entropy,random,40.35714285714287,51.08108108108108
10,1,entropy,best,38.92857142857143,42.702702702702695
50,1,gini,random,40.0,50.810810810810814
50,1,gini,best,40.0,47.83783783783784
50,1,entropy,random,40.0,47.02702702702703
50,1,entropy,best,39.28571428571429,53.24324324324324
75,1,gini,random,38.92857142857143,48.108108108108105
75,1,gini,best,37.857142857142854,48.37837837837838
75,1,entropy,random,39.642857142857146,46.48648648648649
75,1,entropy,best,42.85714285714286,52.43243243243243
100,1,gini,random,40.35714285714285,49.729729729729726
100,1,gini,best,33.214285714285715,44.32432432432432
100,1,entropy,random,37.85714285714286,46.75675675675676
100,1,entropy,best,37.5,48.64864864864865
