n_estimators,max_depth,min_samples_leaf,criterion,bootstrap,max_features,groups_score,special_score
10,default,1,gini,True,auto,44.285714285714285,54.05405405405405
10,default,1,gini,False,auto,40.35714285714287,49.189189189189186
10,default,1,entropy,True,auto,41.42857142857143,48.64864864864866
10,default,1,entropy,False,auto,41.78571428571429,55.13513513513512
10,5,1,gini,True,auto,40.35714285714286,47.83783783783783
10,5,1,gini,False,auto,40.71428571428571,51.891891891891895
10,5,1,entropy,True,auto,40.35714285714285,48.91891891891892
10,5,1,entropy,False,auto,43.92857142857143,52.16216216216217
10,10,1,gini,True,auto,46.07142857142857,50.54054054054053
10,10,1,gini,False,auto,46.785714285714285,54.32432432432432
10,10,1,entropy,True,auto,43.21428571428571,55.13513513513514
10,10,1,entropy,False,auto,47.142857142857146,55.4054054054054
10,20,1,gini,True,auto,40.35714285714286,52.97297297297298
10,20,1,gini,False,auto,41.42857142857143,51.08108108108109
10,20,1,entropy,True,auto,47.142857142857146,53.51351351351352
10,20,1,entropy,False,auto,41.42857142857143,52.70270270270271
10,50,1,gini,True,auto,41.785714285714285,51.891891891891895
10,50,1,gini,False,auto,43.92857142857143,48.37837837837837
10,50,1,entropy,True,auto,44.64285714285714,52.97297297297298
10,50,1,entropy,False,auto,39.642857142857146,50.00000000000001
10,75,1,gini,True,auto,45.71428571428571,55.67567567567568
10,75,1,gini,False,auto,45.35714285714286,52.43243243243243
10,75,1,entropy,True,auto,42.85714285714285,49.45945945945947
10,75,1,entropy,False,auto,41.07142857142857,50.0
10,100,1,gini,True,auto,41.42857142857143,55.94594594594594
10,100,1,gini,False,auto,41.42857142857143,48.37837837837837
10,100,1,entropy,True,auto,41.07142857142857,47.567567567567565
10,100,1,entropy,False,auto,44.64285714285714,50.540540540540555
