Alaves,0
Almeria,0
Ath Bilbao,0
Ath Madrid,0
AwayTeam,0
Barcelona,0
Betis,0
Celta,0
Cordoba,0
Eibar,0
Elche,0
Espanol,0
Getafe,0
Gimnastic,0
Girona,0
Granada,0
Hercules,0
HomeTeam,0
La Coruna,0
Las Palmas,0
Leganes,0
Levante,0
Malaga,0
Mallorca,0
Murcia,0
Numancia,0
Osasuna,0
Real Madrid,0
Recreativo,0
Santander,0
Sevilla,0
Sociedad,0
Sp Gijon,0
Tenerife,0
Valencia,0
Valladolid,0
Vallecano,0
Villarreal,0
Xerez,0
Zaragoza,0
